<svg width="288" height="129" viewBox="0 0 288 129" fill="none" xmlns="http://www.w3.org/2000/svg">
<rect width="288" height="128" transform="translate(0 0.78125)" fill="white"/>
<rect opacity="0.3" x="53" y="23.9364" width="64" height="6" rx="3" fill="#1F2331"/>
<rect x="53" y="46.5514" width="8" height="2" fill="#00607A"/>
<rect x="70.5" y="40.4364" width="14.2299" height="14.2299" stroke="#1F2331"/>
<rect opacity="0.3" x="94.2299" y="44.5054" width="108.132" height="6.09195" rx="3.04598" fill="#92949B"/>
<rect x="69" y="71.7812" width="8" height="2" fill="#00607A"/>
<rect x="86.5" y="65.6663" width="14.2299" height="14.2299" stroke="#1F2331"/>
<rect opacity="0.3" x="110.23" y="69.7352" width="108.132" height="6.09195" rx="3.04598" fill="#92949B"/>
<rect x="85" y="97.0112" width="8" height="2" fill="#00607A"/>
<rect x="102.5" y="90.8962" width="14.2299" height="14.2299" stroke="#1F2331"/>
<rect opacity="0.3" x="126.23" y="94.9652" width="108.132" height="6.09195" rx="3.04598" fill="#92949B"/>
</svg>
