<svg width="288" height="129" viewBox="0 0 288 129" fill="none" xmlns="http://www.w3.org/2000/svg">
<rect width="288" height="128" transform="translate(0 0.28125)" fill="white"/>
<rect x="93.1967" y="44.9219" width="101.607" height="38.7188" rx="2.5" fill="white" stroke="#00607A"/>
<rect opacity="0.3" x="122" y="60" width="44" height="9" rx="4.5" fill="#00607A"/>
</svg>
