<svg width="1527" height="562" viewBox="0 0 1527 562" fill="none" xmlns="http://www.w3.org/2000/svg">
<rect width="1527" height="561.659" fill="white"/>
<path d="M167 92.5C167 85.5964 172.596 80 179.5 80H1434.5C1441.4 80 1447 85.5964 1447 92.5V100H167V92.5Z" fill="#5E616B"/>
<circle cx="185.295" cy="90" r="3.75" fill="#EDEDEC"/>
<circle cx="198.25" cy="90" r="3.75" fill="#EDEDEC"/>
<mask id="path-4-inside-1_1983_9211" fill="white">
<path d="M167 124H1447V180H167V124Z"/>
</mask>
<path d="M167 124H1447V180H167V124Z" fill="#F6F6F5"/>
<path d="M1447 179H167V181H1447V179Z" fill="#92949B" mask="url(#path-4-inside-1_1983_9211)"/>
<g clip-path="url(#clip0_1983_9211)">
<path d="M183 136.205H214.509V167.7H183V136.205Z" fill="#FFD700"/>
<path fill-rule="evenodd" clip-rule="evenodd" d="M214.509 142.253L206.941 143.768C204.262 144.169 201.524 143.814 199.036 142.743C197.491 141.845 195.797 141.23 194.036 140.926C192.864 140.756 191.674 140.752 190.501 140.915L185.45 141.815C184.65 141.971 183.811 142.115 182.997 142.249V136.52C184.26 136.129 185.608 136.098 186.888 136.431C187.617 136.662 188.316 136.976 188.973 137.367C190.309 138.211 191.753 138.871 193.266 139.329C195.437 139.847 197.701 139.836 199.866 139.295L204.594 138.437L209.533 137.545L214.503 136.521L214.509 142.253ZM189.602 160.434C192.81 159.684 196.178 160.041 199.157 161.448C201.659 162.923 204.605 163.455 207.464 162.948L214.508 161.677V167.383C213.53 167.653 212.51 167.74 211.5 167.639C210.951 167.557 210.415 167.403 209.906 167.182L206.249 165.265C204.02 164.29 201.55 164.003 199.157 164.44L184.026 167.216L183 167.382V161.676L184.26 161.42L187.572 160.807C188.241 160.684 188.943 160.562 189.601 160.428L189.602 160.434ZM182.997 151.282V146.891L196.024 144.514C199.157 144.12 202.335 144.691 205.134 146.152C207.764 147.441 210.762 147.768 213.608 147.077L214.508 146.888V151.279L211.634 149.64C209.5 148.655 207.127 148.303 204.799 148.626L196.793 150.086C195.834 150.265 193.916 150.61 193.916 150.61L186.624 151.959C185.373 152.189 184.081 151.948 182.997 151.282ZM214.509 152.788V157.112L201.6 159.487C198.467 159.882 195.289 159.31 192.49 157.849C189.86 156.56 186.862 156.233 184.016 156.924L183.001 157.114V152.79L185.989 154.362C188.124 155.347 190.496 155.699 192.824 155.376L200.83 153.916C201.789 153.738 203.707 153.392 203.707 153.392L210.999 152.043C212.221 151.862 213.466 152.127 214.509 152.788Z" fill="#DD171B"/>
<path fill-rule="evenodd" clip-rule="evenodd" d="M221.2 164.807V156.256H222.593C225.486 156.256 227.071 157.778 227.071 160.542C227.071 163.371 225.55 164.807 222.571 164.807H221.2ZM231.6 153.407V167.701H241.07V164.808H234.793V161.551H241.007V158.658H234.793V156.279H241.07V153.408L231.6 153.407ZM253.351 153.407L248.145 167.701H251.53L253.072 163.351H257.443L258.964 167.701H262.414L257.1 153.407H253.351ZM255.236 156.363L253.908 160.586H256.587L255.236 156.363ZM297.577 160.393H294.385V164.893C293.942 165.033 293.478 165.098 293.014 165.086C292.435 165.086 291.862 164.967 291.33 164.738C290.799 164.508 290.32 164.172 289.922 163.751C289.525 163.33 289.218 162.831 289.02 162.287C288.823 161.743 288.738 161.164 288.772 160.586C288.741 159.96 288.844 159.334 289.072 158.751C289.3 158.167 289.649 157.638 290.097 157.199C290.544 156.76 291.079 156.42 291.667 156.203C292.254 155.985 292.882 155.894 293.507 155.936C294.956 155.947 296.37 156.379 297.578 157.179V153.922C296.196 153.361 294.72 153.07 293.229 153.065C288.601 153.065 285.388 156.172 285.388 160.629C285.388 165.022 288.537 168.001 293.229 168.001C294.711 168.001 296.182 167.747 297.578 167.251L297.577 160.393ZM313.709 160.522C313.707 159.053 313.268 157.617 312.45 156.397C311.631 155.177 310.469 154.228 309.11 153.669C307.751 153.109 306.257 152.966 304.817 153.257C303.377 153.547 302.055 154.258 301.02 155.3C299.984 156.342 299.28 157.668 298.999 159.11C298.717 160.552 298.869 162.045 299.437 163.401C300.004 164.756 300.961 165.912 302.186 166.724C303.411 167.535 304.849 167.965 306.318 167.958C307.303 167.996 308.285 167.83 309.202 167.469C310.119 167.109 310.952 166.562 311.647 165.863C312.342 165.164 312.884 164.328 313.239 163.409C313.595 162.49 313.755 161.507 313.711 160.522H313.709ZM306.253 156.064C303.853 156.064 302.247 157.886 302.247 160.564C302.247 163.242 303.897 165.064 306.318 165.064C308.718 165.064 310.303 163.264 310.303 160.564C310.303 157.864 308.676 156.063 306.255 156.063L306.253 156.064ZM314.942 153.407V167.701H318.199V158.593L323.961 167.701H326.982V153.407H323.726V162.296L318.194 153.407H314.942ZM229.922 143.33H226.729V147.83C226.067 148.035 225.366 148.078 224.683 147.956C224.001 147.834 223.359 147.55 222.809 147.128C222.259 146.706 221.818 146.159 221.524 145.531C221.229 144.904 221.089 144.215 221.116 143.523C221.085 142.897 221.188 142.271 221.416 141.688C221.644 141.104 221.993 140.575 222.441 140.136C222.888 139.697 223.423 139.357 224.011 139.14C224.598 138.922 225.226 138.831 225.851 138.873C227.3 138.885 228.714 139.317 229.922 140.116V136.859C228.54 136.298 227.063 136.006 225.572 136.001C220.944 136.001 217.731 139.108 217.731 143.566C217.731 147.959 220.881 150.937 225.572 150.937C227.054 150.937 228.525 150.683 229.922 150.187V143.33ZM246.038 143.458C246.036 141.989 245.597 140.553 244.779 139.333C243.96 138.113 242.798 137.164 241.439 136.605C240.081 136.046 238.587 135.902 237.146 136.193C235.706 136.483 234.385 137.194 233.349 138.236C232.313 139.278 231.61 140.604 231.328 142.046C231.046 143.488 231.198 144.981 231.765 146.336C232.333 147.691 233.289 148.848 234.514 149.659C235.739 150.471 237.177 150.9 238.646 150.894C239.631 150.933 240.613 150.767 241.531 150.406C242.449 150.046 243.281 149.499 243.977 148.8C244.672 148.101 245.214 147.265 245.57 146.346C245.925 145.426 246.086 144.443 246.042 143.458H246.038ZM238.582 139.001C236.182 139.001 234.576 140.822 234.576 143.501C234.576 146.18 236.226 148.001 238.647 148.001C241.047 148.001 242.632 146.201 242.632 143.501C242.632 140.801 241.006 139.001 238.585 139.001H238.582ZM247.107 136.344V150.637H253.021C256.171 150.637 258.013 149.072 258.013 146.394C258.033 145.522 257.746 144.671 257.201 143.989C256.657 143.308 255.89 142.839 255.035 142.666C255.617 142.429 256.114 142.022 256.462 141.498C256.81 140.975 256.992 140.358 256.985 139.73C257.006 137.458 255.464 136.344 252.379 136.344H247.107ZM251.864 141.68C253.257 141.68 253.814 141.294 253.814 140.33C253.814 139.409 253.278 139.066 251.757 139.066H250.364V141.68H251.864ZM252.293 147.723C253.878 147.723 254.564 147.23 254.564 146.072C254.564 144.872 253.857 144.401 252.164 144.401H250.364V147.723H252.293ZM261.879 136.344H258.687V150.637H261.879V136.344ZM263.269 136.344V150.637H272.739V147.744H266.461V144.487H272.675V141.594H266.461V139.216H272.739V136.345L263.269 136.344ZM313.732 143.458C313.73 141.989 313.291 140.553 312.473 139.333C311.654 138.113 310.492 137.164 309.133 136.605C307.775 136.046 306.281 135.902 304.84 136.193C303.4 136.483 302.079 137.194 301.043 138.236C300.007 139.278 299.304 140.604 299.022 142.046C298.74 143.488 298.892 144.981 299.459 146.336C300.027 147.691 300.983 148.848 302.208 149.659C303.433 150.471 304.871 150.9 306.34 150.894C307.325 150.933 308.307 150.767 309.225 150.406C310.142 150.046 310.975 149.499 311.67 148.8C312.365 148.101 312.908 147.265 313.263 146.345C313.618 145.426 313.779 144.443 313.735 143.458H313.732ZM306.276 139.001C303.876 139.001 302.27 140.822 302.27 143.501C302.27 146.18 303.92 148.001 306.341 148.001C308.741 148.001 310.326 146.201 310.326 143.501C310.326 140.801 308.7 139.001 306.279 139.001H306.276ZM280.917 160.585L279.567 156.362L278.239 160.585H280.917ZM266.249 167.7V161.828H266.656C268.713 161.828 268.927 162.042 270.298 165.578C270.384 165.826 270.485 166.07 270.598 166.307L270.876 166.971C270.975 167.221 271.089 167.464 271.219 167.7H275.86L277.403 163.35H281.774L283.295 167.7H286.745L281.431 153.406H277.682L273.46 164.997C273.16 164.375 272.818 163.626 272.42 162.706C272.284 162.243 272.041 161.819 271.709 161.469C271.378 161.119 270.968 160.852 270.513 160.692C271.276 160.508 271.953 160.067 272.429 159.442C272.905 158.817 273.152 158.048 273.127 157.263C273.127 154.692 271.434 153.406 268.027 153.406H262.97V167.7H266.249ZM266.249 159.128H267.663C269.034 159.128 269.72 158.635 269.72 157.607C269.72 156.579 269.098 156.129 267.706 156.129H266.249V159.128ZM277.405 150.636V144.764H277.812C279.869 144.764 280.083 144.978 281.454 148.514C281.54 148.762 281.64 149.006 281.754 149.243L282.032 149.908C282.13 150.158 282.245 150.401 282.374 150.637H288.806L288.824 141.468L294.569 150.637H297.59V136.344H294.334L294.348 145.113L288.806 136.344H285.549V149.644C284.791 148.362 284.131 147.025 283.574 145.644C283.438 145.181 283.195 144.757 282.863 144.407C282.532 144.057 282.122 143.791 281.667 143.63C282.43 143.446 283.107 143.005 283.583 142.381C284.059 141.756 284.306 140.987 284.281 140.202C284.281 137.63 282.588 136.345 279.181 136.345H274.127V150.638L277.405 150.636ZM277.405 142.064H278.817C280.188 142.064 280.873 141.571 280.873 140.543C280.873 139.515 280.252 139.065 278.86 139.065H277.403L277.405 142.064ZM217.965 153.406V167.7H222.743C227.585 167.7 230.435 165.043 230.435 160.542C230.435 156.063 227.521 153.406 222.572 153.406H217.965Z" fill="#161615"/>
</g>
<path fill-rule="evenodd" clip-rule="evenodd" d="M167 162H110V160H167V162Z" fill="#D22333"/>
<rect x="80" y="136" width="47.5531" height="47.5531" rx="23.7766" fill="#EDEDEC"/>
<path d="M108.923 167.776H98.5102V166.227L102.682 162.033C103.953 160.748 104.791 159.83 105.196 159.281C105.6 158.732 105.904 158.198 106.106 157.678C106.308 157.157 106.409 156.598 106.409 155.998C106.409 155.153 106.153 154.485 105.64 153.993C105.127 153.495 104.416 153.246 103.505 153.246C102.848 153.246 102.223 153.354 101.631 153.571C101.046 153.788 100.392 154.181 99.6696 154.752L98.7161 153.527C100.175 152.314 101.765 151.707 103.484 151.707C104.972 151.707 106.139 152.09 106.984 152.856C107.829 153.614 108.252 154.636 108.252 155.922C108.252 156.926 107.97 157.92 107.406 158.902C106.843 159.884 105.788 161.127 104.242 162.629L100.775 166.021V166.108H108.923V167.776Z" fill="#00475C"/>
<path fill-rule="evenodd" clip-rule="evenodd" d="M167 108H110V106H167V108Z" fill="#D22333"/>
<rect x="80" y="82" width="47.5531" height="47.5531" rx="23.7766" fill="#EDEDEC"/>
<path d="M105.218 113.776H103.462V102.551C103.462 102.124 103.462 101.76 103.462 101.456C103.469 101.146 103.477 100.864 103.484 100.611C103.498 100.351 103.516 100.087 103.538 99.82C103.314 100.051 103.105 100.25 102.91 100.416C102.714 100.575 102.472 100.774 102.184 101.012L100.374 102.464L99.4313 101.239L103.722 97.9346H105.218V113.776Z" fill="#00475C"/>
<rect width="1280" height="24" transform="translate(167 100)" fill="#FDCB33"/>
<path d="M710.516 114.961C710.516 115.966 710.151 116.75 709.422 117.312C708.693 117.875 707.703 118.156 706.453 118.156C705.099 118.156 704.057 117.982 703.328 117.633V116.352C703.797 116.549 704.307 116.706 704.859 116.82C705.411 116.935 705.958 116.992 706.5 116.992C707.385 116.992 708.052 116.826 708.5 116.492C708.948 116.154 709.172 115.685 709.172 115.086C709.172 114.69 709.091 114.367 708.93 114.117C708.773 113.862 708.508 113.628 708.133 113.414C707.763 113.201 707.198 112.958 706.438 112.688C705.375 112.307 704.615 111.857 704.156 111.336C703.703 110.815 703.477 110.135 703.477 109.297C703.477 108.417 703.807 107.716 704.469 107.195C705.13 106.674 706.005 106.414 707.094 106.414C708.229 106.414 709.273 106.622 710.227 107.039L709.812 108.195C708.87 107.799 707.953 107.602 707.062 107.602C706.359 107.602 705.81 107.753 705.414 108.055C705.018 108.357 704.82 108.776 704.82 109.312C704.82 109.708 704.893 110.034 705.039 110.289C705.185 110.539 705.43 110.771 705.773 110.984C706.122 111.193 706.654 111.424 707.367 111.68C708.565 112.107 709.388 112.565 709.836 113.055C710.289 113.544 710.516 114.18 710.516 114.961ZM717.922 118L717.664 116.781H717.602C717.174 117.318 716.747 117.682 716.32 117.875C715.898 118.062 715.37 118.156 714.734 118.156C713.885 118.156 713.219 117.938 712.734 117.5C712.255 117.062 712.016 116.44 712.016 115.633C712.016 113.904 713.398 112.997 716.164 112.914L717.617 112.867V112.336C717.617 111.664 717.471 111.169 717.18 110.852C716.893 110.529 716.432 110.367 715.797 110.367C715.083 110.367 714.276 110.586 713.375 111.023L712.977 110.031C713.398 109.802 713.859 109.622 714.359 109.492C714.865 109.362 715.37 109.297 715.875 109.297C716.896 109.297 717.651 109.523 718.141 109.977C718.635 110.43 718.883 111.156 718.883 112.156V118H717.922ZM714.992 117.086C715.799 117.086 716.432 116.865 716.891 116.422C717.354 115.979 717.586 115.359 717.586 114.562V113.789L716.289 113.844C715.258 113.88 714.513 114.042 714.055 114.328C713.602 114.609 713.375 115.049 713.375 115.648C713.375 116.117 713.516 116.474 713.797 116.719C714.083 116.964 714.482 117.086 714.992 117.086ZM722.859 118H721.562V105.844H722.859V118ZM728.375 117.086C728.604 117.086 728.826 117.07 729.039 117.039C729.253 117.003 729.422 116.966 729.547 116.93V117.922C729.406 117.99 729.198 118.044 728.922 118.086C728.651 118.133 728.406 118.156 728.188 118.156C726.531 118.156 725.703 117.284 725.703 115.539V110.445H724.477V109.82L725.703 109.281L726.25 107.453H727V109.438H729.484V110.445H727V115.484C727 116 727.122 116.396 727.367 116.672C727.612 116.948 727.948 117.086 728.375 117.086ZM736.531 118L736.273 116.781H736.211C735.784 117.318 735.357 117.682 734.93 117.875C734.508 118.062 733.979 118.156 733.344 118.156C732.495 118.156 731.828 117.938 731.344 117.5C730.865 117.062 730.625 116.44 730.625 115.633C730.625 113.904 732.008 112.997 734.773 112.914L736.227 112.867V112.336C736.227 111.664 736.081 111.169 735.789 110.852C735.503 110.529 735.042 110.367 734.406 110.367C733.693 110.367 732.885 110.586 731.984 111.023L731.586 110.031C732.008 109.802 732.469 109.622 732.969 109.492C733.474 109.362 733.979 109.297 734.484 109.297C735.505 109.297 736.26 109.523 736.75 109.977C737.245 110.43 737.492 111.156 737.492 112.156V118H736.531ZM733.602 117.086C734.409 117.086 735.042 116.865 735.5 116.422C735.964 115.979 736.195 115.359 736.195 114.562V113.789L734.898 113.844C733.867 113.88 733.122 114.042 732.664 114.328C732.211 114.609 731.984 115.049 731.984 115.648C731.984 116.117 732.125 116.474 732.406 116.719C732.693 116.964 733.091 117.086 733.602 117.086ZM744.078 109.281C744.458 109.281 744.799 109.312 745.102 109.375L744.922 110.578C744.568 110.5 744.255 110.461 743.984 110.461C743.292 110.461 742.698 110.742 742.203 111.305C741.714 111.867 741.469 112.568 741.469 113.406V118H740.172V109.438H741.242L741.391 111.023H741.453C741.771 110.466 742.154 110.036 742.602 109.734C743.049 109.432 743.542 109.281 744.078 109.281ZM756.125 118L755.867 116.781H755.805C755.378 117.318 754.951 117.682 754.523 117.875C754.102 118.062 753.573 118.156 752.938 118.156C752.089 118.156 751.422 117.938 750.938 117.5C750.458 117.062 750.219 116.44 750.219 115.633C750.219 113.904 751.602 112.997 754.367 112.914L755.82 112.867V112.336C755.82 111.664 755.674 111.169 755.383 110.852C755.096 110.529 754.635 110.367 754 110.367C753.286 110.367 752.479 110.586 751.578 111.023L751.18 110.031C751.602 109.802 752.062 109.622 752.562 109.492C753.068 109.362 753.573 109.297 754.078 109.297C755.099 109.297 755.854 109.523 756.344 109.977C756.839 110.43 757.086 111.156 757.086 112.156V118H756.125ZM753.195 117.086C754.003 117.086 754.635 116.865 755.094 116.422C755.557 115.979 755.789 115.359 755.789 114.562V113.789L754.492 113.844C753.461 113.88 752.716 114.042 752.258 114.328C751.805 114.609 751.578 115.049 751.578 115.648C751.578 116.117 751.719 116.474 752 116.719C752.286 116.964 752.685 117.086 753.195 117.086ZM761.062 118H759.766V105.844H761.062V118ZM771.391 118.156C770.151 118.156 769.19 117.776 768.508 117.016C767.831 116.25 767.492 115.169 767.492 113.773C767.492 112.341 767.836 111.234 768.523 110.453C769.216 109.672 770.201 109.281 771.477 109.281C771.888 109.281 772.299 109.326 772.711 109.414C773.122 109.503 773.445 109.607 773.68 109.727L773.281 110.828C772.995 110.714 772.682 110.62 772.344 110.547C772.005 110.469 771.706 110.43 771.445 110.43C769.706 110.43 768.836 111.539 768.836 113.758C768.836 114.81 769.047 115.617 769.469 116.18C769.896 116.742 770.526 117.023 771.359 117.023C772.073 117.023 772.805 116.87 773.555 116.562V117.711C772.982 118.008 772.26 118.156 771.391 118.156ZM782.984 113.711C782.984 115.107 782.633 116.198 781.93 116.984C781.227 117.766 780.255 118.156 779.016 118.156C778.25 118.156 777.57 117.977 776.977 117.617C776.383 117.258 775.924 116.742 775.602 116.07C775.279 115.398 775.117 114.612 775.117 113.711C775.117 112.315 775.466 111.229 776.164 110.453C776.862 109.672 777.831 109.281 779.07 109.281C780.268 109.281 781.219 109.68 781.922 110.477C782.63 111.273 782.984 112.352 782.984 113.711ZM776.461 113.711C776.461 114.805 776.68 115.638 777.117 116.211C777.555 116.784 778.198 117.07 779.047 117.07C779.896 117.07 780.539 116.786 780.977 116.219C781.419 115.646 781.641 114.81 781.641 113.711C781.641 112.622 781.419 111.797 780.977 111.234C780.539 110.667 779.891 110.383 779.031 110.383C778.182 110.383 777.542 110.661 777.109 111.219C776.677 111.776 776.461 112.607 776.461 113.711ZM791.125 118V112.461C791.125 111.763 790.966 111.242 790.648 110.898C790.331 110.555 789.833 110.383 789.156 110.383C788.26 110.383 787.604 110.625 787.188 111.109C786.771 111.594 786.562 112.393 786.562 113.508V118H785.266V109.438H786.32L786.531 110.609H786.594C786.859 110.188 787.232 109.862 787.711 109.633C788.19 109.398 788.724 109.281 789.312 109.281C790.344 109.281 791.12 109.531 791.641 110.031C792.161 110.526 792.422 111.32 792.422 112.414V118H791.125ZM797.859 117.086C798.089 117.086 798.31 117.07 798.523 117.039C798.737 117.003 798.906 116.966 799.031 116.93V117.922C798.891 117.99 798.682 118.044 798.406 118.086C798.135 118.133 797.891 118.156 797.672 118.156C796.016 118.156 795.188 117.284 795.188 115.539V110.445H793.961V109.82L795.188 109.281L795.734 107.453H796.484V109.438H798.969V110.445H796.484V115.484C796.484 116 796.607 116.396 796.852 116.672C797.096 116.948 797.432 117.086 797.859 117.086ZM804.367 118.156C803.102 118.156 802.102 117.771 801.367 117C800.638 116.229 800.273 115.159 800.273 113.789C800.273 112.409 800.612 111.312 801.289 110.5C801.971 109.688 802.885 109.281 804.031 109.281C805.104 109.281 805.953 109.635 806.578 110.344C807.203 111.047 807.516 111.977 807.516 113.133V113.953H801.617C801.643 114.958 801.896 115.721 802.375 116.242C802.859 116.763 803.539 117.023 804.414 117.023C805.336 117.023 806.247 116.831 807.148 116.445V117.602C806.69 117.799 806.255 117.94 805.844 118.023C805.438 118.112 804.945 118.156 804.367 118.156ZM804.016 110.367C803.328 110.367 802.779 110.591 802.367 111.039C801.961 111.487 801.721 112.107 801.648 112.898H806.125C806.125 112.081 805.943 111.456 805.578 111.023C805.214 110.586 804.693 110.367 804.016 110.367ZM815.594 118V112.461C815.594 111.763 815.435 111.242 815.117 110.898C814.799 110.555 814.302 110.383 813.625 110.383C812.729 110.383 812.073 110.625 811.656 111.109C811.24 111.594 811.031 112.393 811.031 113.508V118H809.734V109.438H810.789L811 110.609H811.062C811.328 110.188 811.701 109.862 812.18 109.633C812.659 109.398 813.193 109.281 813.781 109.281C814.812 109.281 815.589 109.531 816.109 110.031C816.63 110.526 816.891 111.32 816.891 112.414V118H815.594ZM820.859 118H819.562V109.438H820.859V118ZM819.453 107.117C819.453 106.82 819.526 106.604 819.672 106.469C819.818 106.328 820 106.258 820.219 106.258C820.427 106.258 820.607 106.328 820.758 106.469C820.909 106.609 820.984 106.826 820.984 107.117C820.984 107.409 820.909 107.628 820.758 107.773C820.607 107.914 820.427 107.984 820.219 107.984C820 107.984 819.818 107.914 819.672 107.773C819.526 107.628 819.453 107.409 819.453 107.117ZM829.438 116.852H829.367C828.768 117.721 827.872 118.156 826.68 118.156C825.56 118.156 824.688 117.773 824.062 117.008C823.443 116.242 823.133 115.154 823.133 113.742C823.133 112.331 823.445 111.234 824.07 110.453C824.695 109.672 825.565 109.281 826.68 109.281C827.841 109.281 828.732 109.703 829.352 110.547H829.453L829.398 109.93L829.367 109.328V105.844H830.664V118H829.609L829.438 116.852ZM826.844 117.07C827.729 117.07 828.37 116.831 828.766 116.352C829.167 115.867 829.367 115.089 829.367 114.016V113.742C829.367 112.529 829.164 111.664 828.758 111.148C828.357 110.628 827.714 110.367 826.828 110.367C826.068 110.367 825.484 110.664 825.078 111.258C824.677 111.846 824.477 112.68 824.477 113.758C824.477 114.852 824.677 115.677 825.078 116.234C825.479 116.792 826.068 117.07 826.844 117.07ZM840.812 113.711C840.812 115.107 840.461 116.198 839.758 116.984C839.055 117.766 838.083 118.156 836.844 118.156C836.078 118.156 835.398 117.977 834.805 117.617C834.211 117.258 833.753 116.742 833.43 116.07C833.107 115.398 832.945 114.612 832.945 113.711C832.945 112.315 833.294 111.229 833.992 110.453C834.69 109.672 835.659 109.281 836.898 109.281C838.096 109.281 839.047 109.68 839.75 110.477C840.458 111.273 840.812 112.352 840.812 113.711ZM834.289 113.711C834.289 114.805 834.508 115.638 834.945 116.211C835.383 116.784 836.026 117.07 836.875 117.07C837.724 117.07 838.367 116.786 838.805 116.219C839.247 115.646 839.469 114.81 839.469 113.711C839.469 112.622 839.247 111.797 838.805 111.234C838.367 110.667 837.719 110.383 836.859 110.383C836.01 110.383 835.37 110.661 834.938 111.219C834.505 111.776 834.289 112.607 834.289 113.711ZM851.234 118.156C850.677 118.156 850.167 118.055 849.703 117.852C849.245 117.643 848.859 117.326 848.547 116.898H848.453C848.516 117.398 848.547 117.872 848.547 118.32V121.844H847.25V109.438H848.305L848.484 110.609H848.547C848.88 110.141 849.268 109.802 849.711 109.594C850.154 109.385 850.661 109.281 851.234 109.281C852.37 109.281 853.245 109.669 853.859 110.445C854.479 111.221 854.789 112.31 854.789 113.711C854.789 115.117 854.474 116.211 853.844 116.992C853.219 117.768 852.349 118.156 851.234 118.156ZM851.047 110.383C850.172 110.383 849.539 110.625 849.148 111.109C848.758 111.594 848.557 112.365 848.547 113.422V113.711C848.547 114.914 848.747 115.776 849.148 116.297C849.549 116.812 850.193 117.07 851.078 117.07C851.818 117.07 852.396 116.771 852.812 116.172C853.234 115.573 853.445 114.747 853.445 113.695C853.445 112.628 853.234 111.81 852.812 111.242C852.396 110.669 851.807 110.383 851.047 110.383ZM860.969 109.281C861.349 109.281 861.69 109.312 861.992 109.375L861.812 110.578C861.458 110.5 861.146 110.461 860.875 110.461C860.182 110.461 859.589 110.742 859.094 111.305C858.604 111.867 858.359 112.568 858.359 113.406V118H857.062V109.438H858.133L858.281 111.023H858.344C858.661 110.466 859.044 110.036 859.492 109.734C859.94 109.432 860.432 109.281 860.969 109.281ZM864.891 118H863.594V109.438H864.891V118ZM863.484 107.117C863.484 106.82 863.557 106.604 863.703 106.469C863.849 106.328 864.031 106.258 864.25 106.258C864.458 106.258 864.638 106.328 864.789 106.469C864.94 106.609 865.016 106.826 865.016 107.117C865.016 107.409 864.94 107.628 864.789 107.773C864.638 107.914 864.458 107.984 864.25 107.984C864.031 107.984 863.849 107.914 863.703 107.773C863.557 107.628 863.484 107.409 863.484 107.117ZM873.5 118V112.461C873.5 111.763 873.341 111.242 873.023 110.898C872.706 110.555 872.208 110.383 871.531 110.383C870.635 110.383 869.979 110.625 869.562 111.109C869.146 111.594 868.938 112.393 868.938 113.508V118H867.641V109.438H868.695L868.906 110.609H868.969C869.234 110.188 869.607 109.862 870.086 109.633C870.565 109.398 871.099 109.281 871.688 109.281C872.719 109.281 873.495 109.531 874.016 110.031C874.536 110.526 874.797 111.32 874.797 112.414V118H873.5ZM880.891 118.156C879.651 118.156 878.69 117.776 878.008 117.016C877.331 116.25 876.992 115.169 876.992 113.773C876.992 112.341 877.336 111.234 878.023 110.453C878.716 109.672 879.701 109.281 880.977 109.281C881.388 109.281 881.799 109.326 882.211 109.414C882.622 109.503 882.945 109.607 883.18 109.727L882.781 110.828C882.495 110.714 882.182 110.62 881.844 110.547C881.505 110.469 881.206 110.43 880.945 110.43C879.206 110.43 878.336 111.539 878.336 113.758C878.336 114.81 878.547 115.617 878.969 116.18C879.396 116.742 880.026 117.023 880.859 117.023C881.573 117.023 882.305 116.87 883.055 116.562V117.711C882.482 118.008 881.76 118.156 880.891 118.156ZM886.391 118H885.094V109.438H886.391V118ZM884.984 107.117C884.984 106.82 885.057 106.604 885.203 106.469C885.349 106.328 885.531 106.258 885.75 106.258C885.958 106.258 886.138 106.328 886.289 106.469C886.44 106.609 886.516 106.826 886.516 107.117C886.516 107.409 886.44 107.628 886.289 107.773C886.138 107.914 885.958 107.984 885.75 107.984C885.531 107.984 885.349 107.914 885.203 107.773C885.057 107.628 884.984 107.409 884.984 107.117ZM893.125 118.156C892.568 118.156 892.057 118.055 891.594 117.852C891.135 117.643 890.75 117.326 890.438 116.898H890.344C890.406 117.398 890.438 117.872 890.438 118.32V121.844H889.141V109.438H890.195L890.375 110.609H890.438C890.771 110.141 891.159 109.802 891.602 109.594C892.044 109.385 892.552 109.281 893.125 109.281C894.26 109.281 895.135 109.669 895.75 110.445C896.37 111.221 896.68 112.31 896.68 113.711C896.68 115.117 896.365 116.211 895.734 116.992C895.109 117.768 894.24 118.156 893.125 118.156ZM892.938 110.383C892.062 110.383 891.43 110.625 891.039 111.109C890.648 111.594 890.448 112.365 890.438 113.422V113.711C890.438 114.914 890.638 115.776 891.039 116.297C891.44 116.812 892.083 117.07 892.969 117.07C893.708 117.07 894.286 116.771 894.703 116.172C895.125 115.573 895.336 114.747 895.336 113.695C895.336 112.628 895.125 111.81 894.703 111.242C894.286 110.669 893.698 110.383 892.938 110.383ZM904.219 118L903.961 116.781H903.898C903.471 117.318 903.044 117.682 902.617 117.875C902.195 118.062 901.667 118.156 901.031 118.156C900.182 118.156 899.516 117.938 899.031 117.5C898.552 117.062 898.312 116.44 898.312 115.633C898.312 113.904 899.695 112.997 902.461 112.914L903.914 112.867V112.336C903.914 111.664 903.768 111.169 903.477 110.852C903.19 110.529 902.729 110.367 902.094 110.367C901.38 110.367 900.573 110.586 899.672 111.023L899.273 110.031C899.695 109.802 900.156 109.622 900.656 109.492C901.161 109.362 901.667 109.297 902.172 109.297C903.193 109.297 903.948 109.523 904.438 109.977C904.932 110.43 905.18 111.156 905.18 112.156V118H904.219ZM901.289 117.086C902.096 117.086 902.729 116.865 903.188 116.422C903.651 115.979 903.883 115.359 903.883 114.562V113.789L902.586 113.844C901.555 113.88 900.81 114.042 900.352 114.328C899.898 114.609 899.672 115.049 899.672 115.648C899.672 116.117 899.812 116.474 900.094 116.719C900.38 116.964 900.779 117.086 901.289 117.086ZM909.156 118H907.859V105.844H909.156V118Z" fill="#1F2331"/>
<path d="M702.5 119.602H910.531V120.398H702.5V119.602Z" fill="#1F2331"/>
<path fill-rule="evenodd" clip-rule="evenodd" d="M199 175.553L199 231.553L197 231.553L197 175.553L199 175.553Z" fill="#D22333"/>
<rect x="174" y="207.553" width="47.5531" height="47.5531" rx="23.7766" fill="#EDEDEC"/>
<path d="M202.327 227.215C202.327 228.226 202.042 229.053 201.471 229.696C200.908 230.339 200.106 230.769 199.066 230.986V231.072C200.337 231.231 201.28 231.636 201.894 232.286C202.508 232.936 202.815 233.788 202.815 234.843C202.815 236.353 202.291 237.516 201.244 238.332C200.196 239.141 198.708 239.546 196.779 239.546C195.942 239.546 195.172 239.481 194.471 239.351C193.778 239.228 193.103 239.008 192.445 238.69V236.978C193.131 237.317 193.861 237.577 194.634 237.758C195.414 237.931 196.151 238.018 196.844 238.018C199.582 238.018 200.951 236.945 200.951 234.8C200.951 232.878 199.441 231.917 196.422 231.917H194.862V230.368H196.444C197.679 230.368 198.658 230.097 199.38 229.555C200.102 229.006 200.464 228.248 200.464 227.28C200.464 226.507 200.196 225.9 199.662 225.459C199.134 225.019 198.416 224.798 197.505 224.798C196.812 224.798 196.158 224.892 195.544 225.08C194.93 225.268 194.229 225.615 193.442 226.12L192.532 224.907C193.182 224.394 193.93 223.993 194.775 223.704C195.627 223.408 196.523 223.26 197.462 223.26C199.001 223.26 200.196 223.614 201.049 224.322C201.901 225.022 202.327 225.987 202.327 227.215Z" fill="#00475C"/>
<path fill-rule="evenodd" clip-rule="evenodd" d="M167 391.105H110V389.105H167V391.105Z" fill="#D22333"/>
<rect x="80" y="365.105" width="47.5531" height="47.5531" rx="23.7766" fill="#EDEDEC"/>
<path d="M108.923 396.882H98.5102V395.332L102.682 391.139C103.953 389.853 104.791 388.936 105.196 388.387C105.6 387.838 105.904 387.303 106.106 386.783C106.308 386.263 106.409 385.703 106.409 385.103C106.409 384.258 106.153 383.59 105.64 383.099C105.127 382.6 104.416 382.351 103.505 382.351C102.848 382.351 102.223 382.46 101.631 382.676C101.046 382.893 100.392 383.287 99.6696 383.857L98.7161 382.633C100.175 381.419 101.765 380.813 103.484 380.813C104.972 380.813 106.139 381.195 106.984 381.961C107.829 382.72 108.252 383.742 108.252 385.028C108.252 386.032 107.97 387.025 107.406 388.007C106.843 388.99 105.788 390.232 104.242 391.735L100.775 395.126V395.213H108.923V396.882Z" fill="#00475C"/>
<path fill-rule="evenodd" clip-rule="evenodd" d="M167 334.105H110V332.105H167V334.105Z" fill="#D22333"/>
<rect x="80" y="308.105" width="47.5531" height="47.5531" rx="23.7766" fill="#EDEDEC"/>
<path d="M105.218 339.882H103.462V328.656C103.462 328.23 103.462 327.865 103.462 327.562C103.469 327.251 103.477 326.969 103.484 326.716C103.498 326.456 103.516 326.193 103.538 325.925C103.314 326.157 103.105 326.355 102.91 326.521C102.714 326.68 102.472 326.879 102.184 327.117L100.374 328.569L99.4313 327.345L103.722 324.04H105.218V339.882Z" fill="#00475C"/>
<rect width="360" height="24" transform="translate(167 326.105)" fill="#FDCB33"/>
<path d="M250.516 341.066C250.516 342.072 250.151 342.855 249.422 343.418C248.693 343.98 247.703 344.262 246.453 344.262C245.099 344.262 244.057 344.087 243.328 343.738V342.457C243.797 342.655 244.307 342.811 244.859 342.926C245.411 343.04 245.958 343.098 246.5 343.098C247.385 343.098 248.052 342.931 248.5 342.598C248.948 342.259 249.172 341.79 249.172 341.191C249.172 340.796 249.091 340.473 248.93 340.223C248.773 339.967 248.508 339.733 248.133 339.52C247.763 339.306 247.198 339.064 246.438 338.793C245.375 338.413 244.615 337.962 244.156 337.441C243.703 336.921 243.477 336.241 243.477 335.402C243.477 334.522 243.807 333.822 244.469 333.301C245.13 332.78 246.005 332.52 247.094 332.52C248.229 332.52 249.273 332.728 250.227 333.145L249.812 334.301C248.87 333.905 247.953 333.707 247.062 333.707C246.359 333.707 245.81 333.858 245.414 334.16C245.018 334.462 244.82 334.882 244.82 335.418C244.82 335.814 244.893 336.139 245.039 336.395C245.185 336.645 245.43 336.876 245.773 337.09C246.122 337.298 246.654 337.53 247.367 337.785C248.565 338.212 249.388 338.671 249.836 339.16C250.289 339.65 250.516 340.285 250.516 341.066ZM257.922 344.105L257.664 342.887H257.602C257.174 343.423 256.747 343.788 256.32 343.98C255.898 344.168 255.37 344.262 254.734 344.262C253.885 344.262 253.219 344.043 252.734 343.605C252.255 343.168 252.016 342.546 252.016 341.738C252.016 340.009 253.398 339.103 256.164 339.02L257.617 338.973V338.441C257.617 337.77 257.471 337.275 257.18 336.957C256.893 336.634 256.432 336.473 255.797 336.473C255.083 336.473 254.276 336.691 253.375 337.129L252.977 336.137C253.398 335.908 253.859 335.728 254.359 335.598C254.865 335.467 255.37 335.402 255.875 335.402C256.896 335.402 257.651 335.629 258.141 336.082C258.635 336.535 258.883 337.262 258.883 338.262V344.105H257.922ZM254.992 343.191C255.799 343.191 256.432 342.97 256.891 342.527C257.354 342.085 257.586 341.465 257.586 340.668V339.895L256.289 339.949C255.258 339.986 254.513 340.147 254.055 340.434C253.602 340.715 253.375 341.155 253.375 341.754C253.375 342.223 253.516 342.579 253.797 342.824C254.083 343.069 254.482 343.191 254.992 343.191ZM262.859 344.105H261.562V331.949H262.859V344.105ZM268.375 343.191C268.604 343.191 268.826 343.176 269.039 343.145C269.253 343.108 269.422 343.072 269.547 343.035V344.027C269.406 344.095 269.198 344.15 268.922 344.191C268.651 344.238 268.406 344.262 268.188 344.262C266.531 344.262 265.703 343.389 265.703 341.645V336.551H264.477V335.926L265.703 335.387L266.25 333.559H267V335.543H269.484V336.551H267V341.59C267 342.105 267.122 342.501 267.367 342.777C267.612 343.053 267.948 343.191 268.375 343.191ZM276.531 344.105L276.273 342.887H276.211C275.784 343.423 275.357 343.788 274.93 343.98C274.508 344.168 273.979 344.262 273.344 344.262C272.495 344.262 271.828 344.043 271.344 343.605C270.865 343.168 270.625 342.546 270.625 341.738C270.625 340.009 272.008 339.103 274.773 339.02L276.227 338.973V338.441C276.227 337.77 276.081 337.275 275.789 336.957C275.503 336.634 275.042 336.473 274.406 336.473C273.693 336.473 272.885 336.691 271.984 337.129L271.586 336.137C272.008 335.908 272.469 335.728 272.969 335.598C273.474 335.467 273.979 335.402 274.484 335.402C275.505 335.402 276.26 335.629 276.75 336.082C277.245 336.535 277.492 337.262 277.492 338.262V344.105H276.531ZM273.602 343.191C274.409 343.191 275.042 342.97 275.5 342.527C275.964 342.085 276.195 341.465 276.195 340.668V339.895L274.898 339.949C273.867 339.986 273.122 340.147 272.664 340.434C272.211 340.715 271.984 341.155 271.984 341.754C271.984 342.223 272.125 342.579 272.406 342.824C272.693 343.069 273.091 343.191 273.602 343.191ZM284.078 335.387C284.458 335.387 284.799 335.418 285.102 335.48L284.922 336.684C284.568 336.605 284.255 336.566 283.984 336.566C283.292 336.566 282.698 336.848 282.203 337.41C281.714 337.973 281.469 338.673 281.469 339.512V344.105H280.172V335.543H281.242L281.391 337.129H281.453C281.771 336.572 282.154 336.142 282.602 335.84C283.049 335.538 283.542 335.387 284.078 335.387ZM296.125 344.105L295.867 342.887H295.805C295.378 343.423 294.951 343.788 294.523 343.98C294.102 344.168 293.573 344.262 292.938 344.262C292.089 344.262 291.422 344.043 290.938 343.605C290.458 343.168 290.219 342.546 290.219 341.738C290.219 340.009 291.602 339.103 294.367 339.02L295.82 338.973V338.441C295.82 337.77 295.674 337.275 295.383 336.957C295.096 336.634 294.635 336.473 294 336.473C293.286 336.473 292.479 336.691 291.578 337.129L291.18 336.137C291.602 335.908 292.062 335.728 292.562 335.598C293.068 335.467 293.573 335.402 294.078 335.402C295.099 335.402 295.854 335.629 296.344 336.082C296.839 336.535 297.086 337.262 297.086 338.262V344.105H296.125ZM293.195 343.191C294.003 343.191 294.635 342.97 295.094 342.527C295.557 342.085 295.789 341.465 295.789 340.668V339.895L294.492 339.949C293.461 339.986 292.716 340.147 292.258 340.434C291.805 340.715 291.578 341.155 291.578 341.754C291.578 342.223 291.719 342.579 292 342.824C292.286 343.069 292.685 343.191 293.195 343.191ZM301.062 344.105H299.766V331.949H301.062V344.105ZM311.391 344.262C310.151 344.262 309.19 343.882 308.508 343.121C307.831 342.355 307.492 341.275 307.492 339.879C307.492 338.447 307.836 337.34 308.523 336.559C309.216 335.777 310.201 335.387 311.477 335.387C311.888 335.387 312.299 335.431 312.711 335.52C313.122 335.608 313.445 335.712 313.68 335.832L313.281 336.934C312.995 336.819 312.682 336.725 312.344 336.652C312.005 336.574 311.706 336.535 311.445 336.535C309.706 336.535 308.836 337.645 308.836 339.863C308.836 340.915 309.047 341.723 309.469 342.285C309.896 342.848 310.526 343.129 311.359 343.129C312.073 343.129 312.805 342.975 313.555 342.668V343.816C312.982 344.113 312.26 344.262 311.391 344.262ZM322.984 339.816C322.984 341.212 322.633 342.303 321.93 343.09C321.227 343.871 320.255 344.262 319.016 344.262C318.25 344.262 317.57 344.082 316.977 343.723C316.383 343.363 315.924 342.848 315.602 342.176C315.279 341.504 315.117 340.717 315.117 339.816C315.117 338.421 315.466 337.335 316.164 336.559C316.862 335.777 317.831 335.387 319.07 335.387C320.268 335.387 321.219 335.785 321.922 336.582C322.63 337.379 322.984 338.457 322.984 339.816ZM316.461 339.816C316.461 340.91 316.68 341.743 317.117 342.316C317.555 342.889 318.198 343.176 319.047 343.176C319.896 343.176 320.539 342.892 320.977 342.324C321.419 341.751 321.641 340.915 321.641 339.816C321.641 338.728 321.419 337.902 320.977 337.34C320.539 336.772 319.891 336.488 319.031 336.488C318.182 336.488 317.542 336.767 317.109 337.324C316.677 337.882 316.461 338.712 316.461 339.816ZM331.125 344.105V338.566C331.125 337.868 330.966 337.348 330.648 337.004C330.331 336.66 329.833 336.488 329.156 336.488C328.26 336.488 327.604 336.73 327.188 337.215C326.771 337.699 326.562 338.499 326.562 339.613V344.105H325.266V335.543H326.32L326.531 336.715H326.594C326.859 336.293 327.232 335.967 327.711 335.738C328.19 335.504 328.724 335.387 329.312 335.387C330.344 335.387 331.12 335.637 331.641 336.137C332.161 336.632 332.422 337.426 332.422 338.52V344.105H331.125ZM337.859 343.191C338.089 343.191 338.31 343.176 338.523 343.145C338.737 343.108 338.906 343.072 339.031 343.035V344.027C338.891 344.095 338.682 344.15 338.406 344.191C338.135 344.238 337.891 344.262 337.672 344.262C336.016 344.262 335.188 343.389 335.188 341.645V336.551H333.961V335.926L335.188 335.387L335.734 333.559H336.484V335.543H338.969V336.551H336.484V341.59C336.484 342.105 336.607 342.501 336.852 342.777C337.096 343.053 337.432 343.191 337.859 343.191ZM344.367 344.262C343.102 344.262 342.102 343.876 341.367 343.105C340.638 342.335 340.273 341.264 340.273 339.895C340.273 338.514 340.612 337.418 341.289 336.605C341.971 335.793 342.885 335.387 344.031 335.387C345.104 335.387 345.953 335.741 346.578 336.449C347.203 337.152 347.516 338.082 347.516 339.238V340.059H341.617C341.643 341.064 341.896 341.827 342.375 342.348C342.859 342.868 343.539 343.129 344.414 343.129C345.336 343.129 346.247 342.936 347.148 342.551V343.707C346.69 343.905 346.255 344.046 345.844 344.129C345.438 344.217 344.945 344.262 344.367 344.262ZM344.016 336.473C343.328 336.473 342.779 336.697 342.367 337.145C341.961 337.592 341.721 338.212 341.648 339.004H346.125C346.125 338.186 345.943 337.561 345.578 337.129C345.214 336.691 344.693 336.473 344.016 336.473ZM355.594 344.105V338.566C355.594 337.868 355.435 337.348 355.117 337.004C354.799 336.66 354.302 336.488 353.625 336.488C352.729 336.488 352.073 336.73 351.656 337.215C351.24 337.699 351.031 338.499 351.031 339.613V344.105H349.734V335.543H350.789L351 336.715H351.062C351.328 336.293 351.701 335.967 352.18 335.738C352.659 335.504 353.193 335.387 353.781 335.387C354.812 335.387 355.589 335.637 356.109 336.137C356.63 336.632 356.891 337.426 356.891 338.52V344.105H355.594ZM360.859 344.105H359.562V335.543H360.859V344.105ZM359.453 333.223C359.453 332.926 359.526 332.71 359.672 332.574C359.818 332.434 360 332.363 360.219 332.363C360.427 332.363 360.607 332.434 360.758 332.574C360.909 332.715 360.984 332.931 360.984 333.223C360.984 333.514 360.909 333.733 360.758 333.879C360.607 334.02 360.427 334.09 360.219 334.09C360 334.09 359.818 334.02 359.672 333.879C359.526 333.733 359.453 333.514 359.453 333.223ZM369.438 342.957H369.367C368.768 343.827 367.872 344.262 366.68 344.262C365.56 344.262 364.688 343.879 364.062 343.113C363.443 342.348 363.133 341.259 363.133 339.848C363.133 338.436 363.445 337.34 364.07 336.559C364.695 335.777 365.565 335.387 366.68 335.387C367.841 335.387 368.732 335.809 369.352 336.652H369.453L369.398 336.035L369.367 335.434V331.949H370.664V344.105H369.609L369.438 342.957ZM366.844 343.176C367.729 343.176 368.37 342.936 368.766 342.457C369.167 341.973 369.367 341.194 369.367 340.121V339.848C369.367 338.634 369.164 337.77 368.758 337.254C368.357 336.733 367.714 336.473 366.828 336.473C366.068 336.473 365.484 336.77 365.078 337.363C364.677 337.952 364.477 338.785 364.477 339.863C364.477 340.957 364.677 341.783 365.078 342.34C365.479 342.897 366.068 343.176 366.844 343.176ZM380.812 339.816C380.812 341.212 380.461 342.303 379.758 343.09C379.055 343.871 378.083 344.262 376.844 344.262C376.078 344.262 375.398 344.082 374.805 343.723C374.211 343.363 373.753 342.848 373.43 342.176C373.107 341.504 372.945 340.717 372.945 339.816C372.945 338.421 373.294 337.335 373.992 336.559C374.69 335.777 375.659 335.387 376.898 335.387C378.096 335.387 379.047 335.785 379.75 336.582C380.458 337.379 380.812 338.457 380.812 339.816ZM374.289 339.816C374.289 340.91 374.508 341.743 374.945 342.316C375.383 342.889 376.026 343.176 376.875 343.176C377.724 343.176 378.367 342.892 378.805 342.324C379.247 341.751 379.469 340.915 379.469 339.816C379.469 338.728 379.247 337.902 378.805 337.34C378.367 336.772 377.719 336.488 376.859 336.488C376.01 336.488 375.37 336.767 374.938 337.324C374.505 337.882 374.289 338.712 374.289 339.816ZM391.234 344.262C390.677 344.262 390.167 344.16 389.703 343.957C389.245 343.749 388.859 343.431 388.547 343.004H388.453C388.516 343.504 388.547 343.978 388.547 344.426V347.949H387.25V335.543H388.305L388.484 336.715H388.547C388.88 336.246 389.268 335.908 389.711 335.699C390.154 335.491 390.661 335.387 391.234 335.387C392.37 335.387 393.245 335.775 393.859 336.551C394.479 337.327 394.789 338.415 394.789 339.816C394.789 341.223 394.474 342.316 393.844 343.098C393.219 343.874 392.349 344.262 391.234 344.262ZM391.047 336.488C390.172 336.488 389.539 336.73 389.148 337.215C388.758 337.699 388.557 338.47 388.547 339.527V339.816C388.547 341.02 388.747 341.882 389.148 342.402C389.549 342.918 390.193 343.176 391.078 343.176C391.818 343.176 392.396 342.876 392.812 342.277C393.234 341.678 393.445 340.853 393.445 339.801C393.445 338.733 393.234 337.915 392.812 337.348C392.396 336.775 391.807 336.488 391.047 336.488ZM400.969 335.387C401.349 335.387 401.69 335.418 401.992 335.48L401.812 336.684C401.458 336.605 401.146 336.566 400.875 336.566C400.182 336.566 399.589 336.848 399.094 337.41C398.604 337.973 398.359 338.673 398.359 339.512V344.105H397.062V335.543H398.133L398.281 337.129H398.344C398.661 336.572 399.044 336.142 399.492 335.84C399.94 335.538 400.432 335.387 400.969 335.387ZM404.891 344.105H403.594V335.543H404.891V344.105ZM403.484 333.223C403.484 332.926 403.557 332.71 403.703 332.574C403.849 332.434 404.031 332.363 404.25 332.363C404.458 332.363 404.638 332.434 404.789 332.574C404.94 332.715 405.016 332.931 405.016 333.223C405.016 333.514 404.94 333.733 404.789 333.879C404.638 334.02 404.458 334.09 404.25 334.09C404.031 334.09 403.849 334.02 403.703 333.879C403.557 333.733 403.484 333.514 403.484 333.223ZM413.5 344.105V338.566C413.5 337.868 413.341 337.348 413.023 337.004C412.706 336.66 412.208 336.488 411.531 336.488C410.635 336.488 409.979 336.73 409.562 337.215C409.146 337.699 408.938 338.499 408.938 339.613V344.105H407.641V335.543H408.695L408.906 336.715H408.969C409.234 336.293 409.607 335.967 410.086 335.738C410.565 335.504 411.099 335.387 411.688 335.387C412.719 335.387 413.495 335.637 414.016 336.137C414.536 336.632 414.797 337.426 414.797 338.52V344.105H413.5ZM420.891 344.262C419.651 344.262 418.69 343.882 418.008 343.121C417.331 342.355 416.992 341.275 416.992 339.879C416.992 338.447 417.336 337.34 418.023 336.559C418.716 335.777 419.701 335.387 420.977 335.387C421.388 335.387 421.799 335.431 422.211 335.52C422.622 335.608 422.945 335.712 423.18 335.832L422.781 336.934C422.495 336.819 422.182 336.725 421.844 336.652C421.505 336.574 421.206 336.535 420.945 336.535C419.206 336.535 418.336 337.645 418.336 339.863C418.336 340.915 418.547 341.723 418.969 342.285C419.396 342.848 420.026 343.129 420.859 343.129C421.573 343.129 422.305 342.975 423.055 342.668V343.816C422.482 344.113 421.76 344.262 420.891 344.262ZM426.391 344.105H425.094V335.543H426.391V344.105ZM424.984 333.223C424.984 332.926 425.057 332.71 425.203 332.574C425.349 332.434 425.531 332.363 425.75 332.363C425.958 332.363 426.138 332.434 426.289 332.574C426.44 332.715 426.516 332.931 426.516 333.223C426.516 333.514 426.44 333.733 426.289 333.879C426.138 334.02 425.958 334.09 425.75 334.09C425.531 334.09 425.349 334.02 425.203 333.879C425.057 333.733 424.984 333.514 424.984 333.223ZM433.125 344.262C432.568 344.262 432.057 344.16 431.594 343.957C431.135 343.749 430.75 343.431 430.438 343.004H430.344C430.406 343.504 430.438 343.978 430.438 344.426V347.949H429.141V335.543H430.195L430.375 336.715H430.438C430.771 336.246 431.159 335.908 431.602 335.699C432.044 335.491 432.552 335.387 433.125 335.387C434.26 335.387 435.135 335.775 435.75 336.551C436.37 337.327 436.68 338.415 436.68 339.816C436.68 341.223 436.365 342.316 435.734 343.098C435.109 343.874 434.24 344.262 433.125 344.262ZM432.938 336.488C432.062 336.488 431.43 336.73 431.039 337.215C430.648 337.699 430.448 338.47 430.438 339.527V339.816C430.438 341.02 430.638 341.882 431.039 342.402C431.44 342.918 432.083 343.176 432.969 343.176C433.708 343.176 434.286 342.876 434.703 342.277C435.125 341.678 435.336 340.853 435.336 339.801C435.336 338.733 435.125 337.915 434.703 337.348C434.286 336.775 433.698 336.488 432.938 336.488ZM444.219 344.105L443.961 342.887H443.898C443.471 343.423 443.044 343.788 442.617 343.98C442.195 344.168 441.667 344.262 441.031 344.262C440.182 344.262 439.516 344.043 439.031 343.605C438.552 343.168 438.312 342.546 438.312 341.738C438.312 340.009 439.695 339.103 442.461 339.02L443.914 338.973V338.441C443.914 337.77 443.768 337.275 443.477 336.957C443.19 336.634 442.729 336.473 442.094 336.473C441.38 336.473 440.573 336.691 439.672 337.129L439.273 336.137C439.695 335.908 440.156 335.728 440.656 335.598C441.161 335.467 441.667 335.402 442.172 335.402C443.193 335.402 443.948 335.629 444.438 336.082C444.932 336.535 445.18 337.262 445.18 338.262V344.105H444.219ZM441.289 343.191C442.096 343.191 442.729 342.97 443.188 342.527C443.651 342.085 443.883 341.465 443.883 340.668V339.895L442.586 339.949C441.555 339.986 440.81 340.147 440.352 340.434C439.898 340.715 439.672 341.155 439.672 341.754C439.672 342.223 439.812 342.579 440.094 342.824C440.38 343.069 440.779 343.191 441.289 343.191ZM449.156 344.105H447.859V331.949H449.156V344.105Z" fill="#1F2331"/>
<path d="M242.5 345.707H450.531V346.504H242.5V345.707Z" fill="#1F2331"/>
<path d="M167 318.605C167 311.702 172.596 306.105 179.5 306.105H514.5C521.404 306.105 527 311.702 527 318.605V326.105H167V318.605Z" fill="#5E616B"/>
<circle cx="185.295" cy="316.105" r="3.75" fill="#EDEDEC"/>
<circle cx="198.25" cy="316.105" r="3.75" fill="#EDEDEC"/>
<mask id="path-29-inside-2_1983_9211" fill="white">
<path d="M167 350.105H527V406.105H167V350.105Z"/>
</mask>
<path d="M167 350.105H527V406.105H167V350.105Z" fill="#F6F6F5"/>
<path d="M527 405.105H167V407.105H527V405.105Z" fill="#92949B" mask="url(#path-29-inside-2_1983_9211)"/>
<g clip-path="url(#clip1_1983_9211)">
<path d="M183 362.41H215V394.411H183V362.41Z" fill="#FFD700"/>
<path fill-rule="evenodd" clip-rule="evenodd" d="M214.997 368.555L207.311 370.094C204.59 370.501 201.81 370.141 199.283 369.052C197.715 368.14 195.997 367.515 194.21 367.206C193.02 367.033 191.811 367.029 190.62 367.195L185.49 368.113C184.662 368.271 183.831 368.419 182.999 368.555V362.734C184.282 362.337 185.651 362.305 186.951 362.644C187.691 362.878 188.402 363.198 189.069 363.595C190.426 364.452 191.893 365.123 193.429 365.588C195.633 366.114 197.931 366.102 200.129 365.554L204.929 364.682L209.945 363.776L214.993 362.736L214.997 368.555ZM189.705 387.029C192.962 386.267 196.381 386.63 199.405 388.059C201.945 389.559 204.937 390.101 207.842 389.588L214.996 388.297V394.097C214.002 394.371 212.967 394.459 211.941 394.357C211.384 394.273 210.839 394.117 210.322 393.893L206.608 391.945C204.345 390.955 201.838 390.663 199.408 391.107L184.042 393.927L183 394.096V388.296L184.28 388.036L187.643 387.413C188.322 387.288 189.036 387.164 189.704 387.028L189.705 387.029ZM182.997 377.73V373.268L196.227 370.851C199.409 370.45 202.637 371.031 205.479 372.516C208.15 373.826 211.195 374.158 214.085 373.456L214.999 373.264V377.726L212.08 376.06C209.913 375.059 207.504 374.701 205.139 375.029L197.008 376.512C196.034 376.694 194.087 377.044 194.087 377.044L186.681 378.415C185.411 378.65 184.098 378.406 182.997 377.73ZM214.997 379.261V383.654L201.887 386.067C198.705 386.468 195.477 385.887 192.635 384.402C189.965 383.092 186.919 382.76 184.029 383.462L182.999 383.655V379.261L186.034 380.861C188.202 381.861 190.611 382.219 192.975 381.891L201.105 380.408C202.079 380.226 204.027 379.876 204.027 379.876L211.433 378.505C212.673 378.321 213.938 378.589 214.997 379.261Z" fill="#DD171B"/>
</g>
<path fill-rule="evenodd" clip-rule="evenodd" d="M199 402.105L199 458.105L197 458.105L197 402.105L199 402.105Z" fill="#D22333"/>
<rect x="174" y="434.105" width="47.5531" height="47.5531" rx="23.7766" fill="#EDEDEC"/>
<path d="M202.327 453.768C202.327 454.779 202.042 455.606 201.471 456.249C200.908 456.892 200.106 457.322 199.066 457.538V457.625C200.337 457.784 201.28 458.189 201.894 458.839C202.508 459.489 202.815 460.341 202.815 461.396C202.815 462.906 202.291 464.069 201.244 464.885C200.196 465.694 198.708 466.099 196.779 466.099C195.942 466.099 195.172 466.034 194.471 465.904C193.778 465.781 193.103 465.56 192.445 465.243V463.53C193.131 463.87 193.861 464.13 194.634 464.311C195.414 464.484 196.151 464.571 196.844 464.571C199.582 464.571 200.951 463.498 200.951 461.353C200.951 459.431 199.441 458.47 196.422 458.47H194.862V456.921H196.444C197.679 456.921 198.658 456.65 199.38 456.108C200.102 455.559 200.464 454.801 200.464 453.833C200.464 453.06 200.196 452.453 199.662 452.012C199.134 451.572 198.416 451.351 197.505 451.351C196.812 451.351 196.158 451.445 195.544 451.633C194.93 451.821 194.229 452.167 193.442 452.673L192.532 451.46C193.182 450.947 193.93 450.546 194.775 450.257C195.627 449.961 196.523 449.813 197.462 449.813C199.001 449.813 200.196 450.166 201.049 450.874C201.901 451.575 202.327 452.54 202.327 453.768Z" fill="#00475C"/>
<defs>
<clipPath id="clip0_1983_9211">
<rect width="144" height="32" fill="white" transform="translate(183 136)"/>
</clipPath>
<clipPath id="clip1_1983_9211">
<rect width="32" height="32" fill="white" transform="translate(183 362.105)"/>
</clipPath>
</defs>
</svg>
