<svg width="483" height="282" viewBox="0 0 483 282" fill="none" xmlns="http://www.w3.org/2000/svg">
<rect width="483" height="282" rx="5" fill="white"/>
<path d="M155 90L155 42" stroke="#D22333" stroke-width="1.53"/>
<path d="M48 126L121 126" stroke="#D22333" stroke-width="1.53"/>
<path d="M48 190L121 190" stroke="#D22333" stroke-width="1.53"/>
<path d="M324 150L380 150" stroke="#D22333" stroke-width="1.53"/>
<path d="M139.016 104.961C139.016 105.966 138.651 106.75 137.922 107.312C137.193 107.875 136.203 108.156 134.953 108.156C133.599 108.156 132.557 107.982 131.828 107.633V106.352C132.297 106.549 132.807 106.706 133.359 106.82C133.911 106.935 134.458 106.992 135 106.992C135.885 106.992 136.552 106.826 137 106.492C137.448 106.154 137.672 105.685 137.672 105.086C137.672 104.69 137.591 104.367 137.43 104.117C137.273 103.862 137.008 103.628 136.633 103.414C136.263 103.201 135.698 102.958 134.938 102.688C133.875 102.307 133.115 101.857 132.656 101.336C132.203 100.815 131.977 100.135 131.977 99.2969C131.977 98.4167 132.307 97.7161 132.969 97.1953C133.63 96.6745 134.505 96.4141 135.594 96.4141C136.729 96.4141 137.773 96.6224 138.727 97.0391L138.312 98.1953C137.37 97.7995 136.453 97.6016 135.562 97.6016C134.859 97.6016 134.31 97.7526 133.914 98.0547C133.518 98.3568 133.32 98.776 133.32 99.3125C133.32 99.7083 133.393 100.034 133.539 100.289C133.685 100.539 133.93 100.771 134.273 100.984C134.622 101.193 135.154 101.424 135.867 101.68C137.065 102.107 137.888 102.565 138.336 103.055C138.789 103.544 139.016 104.18 139.016 104.961ZM142.375 99.4375V104.992C142.375 105.69 142.534 106.211 142.852 106.555C143.169 106.898 143.667 107.07 144.344 107.07C145.24 107.07 145.893 106.826 146.305 106.336C146.721 105.846 146.93 105.047 146.93 103.938V99.4375H148.227V108H147.156L146.969 106.852H146.898C146.633 107.273 146.263 107.596 145.789 107.82C145.32 108.044 144.784 108.156 144.18 108.156C143.138 108.156 142.357 107.909 141.836 107.414C141.32 106.919 141.062 106.128 141.062 105.039V99.4375H142.375ZM154.969 99.2969C156.094 99.2969 156.966 99.6823 157.586 100.453C158.211 101.219 158.523 102.305 158.523 103.711C158.523 105.117 158.208 106.211 157.578 106.992C156.953 107.768 156.083 108.156 154.969 108.156C154.411 108.156 153.901 108.055 153.438 107.852C152.979 107.643 152.594 107.326 152.281 106.898H152.188L151.914 108H150.984V95.8438H152.281V98.7969C152.281 99.4583 152.26 100.052 152.219 100.578H152.281C152.885 99.724 153.781 99.2969 154.969 99.2969ZM154.781 100.383C153.896 100.383 153.258 100.638 152.867 101.148C152.477 101.654 152.281 102.508 152.281 103.711C152.281 104.914 152.482 105.776 152.883 106.297C153.284 106.812 153.927 107.07 154.812 107.07C155.609 107.07 156.203 106.781 156.594 106.203C156.984 105.62 157.18 104.784 157.18 103.695C157.18 102.581 156.984 101.75 156.594 101.203C156.203 100.656 155.599 100.383 154.781 100.383ZM164.414 108.156C163.148 108.156 162.148 107.771 161.414 107C160.685 106.229 160.32 105.159 160.32 103.789C160.32 102.409 160.659 101.312 161.336 100.5C162.018 99.6875 162.932 99.2812 164.078 99.2812C165.151 99.2812 166 99.6354 166.625 100.344C167.25 101.047 167.562 101.977 167.562 103.133V103.953H161.664C161.69 104.958 161.943 105.721 162.422 106.242C162.906 106.763 163.586 107.023 164.461 107.023C165.383 107.023 166.294 106.831 167.195 106.445V107.602C166.737 107.799 166.302 107.94 165.891 108.023C165.484 108.112 164.992 108.156 164.414 108.156ZM164.062 100.367C163.375 100.367 162.826 100.591 162.414 101.039C162.008 101.487 161.768 102.107 161.695 102.898H166.172C166.172 102.081 165.99 101.456 165.625 101.023C165.26 100.586 164.74 100.367 164.062 100.367ZM175.156 99.4375V104.992C175.156 105.69 175.315 106.211 175.633 106.555C175.951 106.898 176.448 107.07 177.125 107.07C178.021 107.07 178.674 106.826 179.086 106.336C179.503 105.846 179.711 105.047 179.711 103.938V99.4375H181.008V108H179.938L179.75 106.852H179.68C179.414 107.273 179.044 107.596 178.57 107.82C178.102 108.044 177.565 108.156 176.961 108.156C175.919 108.156 175.138 107.909 174.617 107.414C174.102 106.919 173.844 106.128 173.844 105.039V99.4375H175.156ZM189.625 108V102.461C189.625 101.763 189.466 101.242 189.148 100.898C188.831 100.555 188.333 100.383 187.656 100.383C186.76 100.383 186.104 100.625 185.688 101.109C185.271 101.594 185.062 102.393 185.062 103.508V108H183.766V99.4375H184.82L185.031 100.609H185.094C185.359 100.188 185.732 99.862 186.211 99.6328C186.69 99.3984 187.224 99.2812 187.812 99.2812C188.844 99.2812 189.62 99.5312 190.141 100.031C190.661 100.526 190.922 101.32 190.922 102.414V108H189.625ZM203.016 108L202.758 106.781H202.695C202.268 107.318 201.841 107.682 201.414 107.875C200.992 108.062 200.464 108.156 199.828 108.156C198.979 108.156 198.312 107.938 197.828 107.5C197.349 107.062 197.109 106.44 197.109 105.633C197.109 103.904 198.492 102.997 201.258 102.914L202.711 102.867V102.336C202.711 101.664 202.565 101.169 202.273 100.852C201.987 100.529 201.526 100.367 200.891 100.367C200.177 100.367 199.37 100.586 198.469 101.023L198.07 100.031C198.492 99.8021 198.953 99.6224 199.453 99.4922C199.958 99.362 200.464 99.2969 200.969 99.2969C201.99 99.2969 202.745 99.5234 203.234 99.9766C203.729 100.43 203.977 101.156 203.977 102.156V108H203.016ZM200.086 107.086C200.893 107.086 201.526 106.865 201.984 106.422C202.448 105.979 202.68 105.359 202.68 104.562V103.789L201.383 103.844C200.352 103.88 199.607 104.042 199.148 104.328C198.695 104.609 198.469 105.049 198.469 105.648C198.469 106.117 198.609 106.474 198.891 106.719C199.177 106.964 199.576 107.086 200.086 107.086ZM210.562 99.2812C210.943 99.2812 211.284 99.3125 211.586 99.375L211.406 100.578C211.052 100.5 210.74 100.461 210.469 100.461C209.776 100.461 209.182 100.742 208.688 101.305C208.198 101.867 207.953 102.568 207.953 103.406V108H206.656V99.4375H207.727L207.875 101.023H207.938C208.255 100.466 208.638 100.036 209.086 99.7344C209.534 99.4323 210.026 99.2812 210.562 99.2812ZM216.609 108.156C215.37 108.156 214.409 107.776 213.727 107.016C213.049 106.25 212.711 105.169 212.711 103.773C212.711 102.341 213.055 101.234 213.742 100.453C214.435 99.6719 215.419 99.2812 216.695 99.2812C217.107 99.2812 217.518 99.3255 217.93 99.4141C218.341 99.5026 218.664 99.6068 218.898 99.7266L218.5 100.828C218.214 100.714 217.901 100.62 217.562 100.547C217.224 100.469 216.924 100.43 216.664 100.43C214.924 100.43 214.055 101.539 214.055 103.758C214.055 104.81 214.266 105.617 214.688 106.18C215.115 106.742 215.745 107.023 216.578 107.023C217.292 107.023 218.023 106.87 218.773 106.562V107.711C218.201 108.008 217.479 108.156 216.609 108.156ZM226.672 108V102.461C226.672 101.763 226.513 101.242 226.195 100.898C225.878 100.555 225.38 100.383 224.703 100.383C223.802 100.383 223.143 100.628 222.727 101.117C222.315 101.607 222.109 102.409 222.109 103.523V108H220.812V95.8438H222.109V99.5234C222.109 99.9661 222.089 100.333 222.047 100.625H222.125C222.38 100.214 222.742 99.8906 223.211 99.6562C223.685 99.4167 224.224 99.2969 224.828 99.2969C225.875 99.2969 226.659 99.5469 227.18 100.047C227.706 100.542 227.969 101.331 227.969 102.414V108H226.672ZM231.938 108H230.641V99.4375H231.938V108ZM230.531 97.1172C230.531 96.8203 230.604 96.6042 230.75 96.4688C230.896 96.3281 231.078 96.2578 231.297 96.2578C231.505 96.2578 231.685 96.3281 231.836 96.4688C231.987 96.6094 232.062 96.8255 232.062 97.1172C232.062 97.4089 231.987 97.6276 231.836 97.7734C231.685 97.9141 231.505 97.9844 231.297 97.9844C231.078 97.9844 230.896 97.9141 230.75 97.7734C230.604 97.6276 230.531 97.4089 230.531 97.1172ZM236.562 108L233.312 99.4375H234.703L236.547 104.516C236.964 105.703 237.208 106.474 237.281 106.828H237.344C237.401 106.552 237.581 105.982 237.883 105.117C238.19 104.247 238.875 102.354 239.938 99.4375H241.328L238.078 108H236.562ZM250.094 103.711C250.094 105.107 249.742 106.198 249.039 106.984C248.336 107.766 247.365 108.156 246.125 108.156C245.359 108.156 244.68 107.977 244.086 107.617C243.492 107.258 243.034 106.742 242.711 106.07C242.388 105.398 242.227 104.612 242.227 103.711C242.227 102.315 242.576 101.229 243.273 100.453C243.971 99.6719 244.94 99.2812 246.18 99.2812C247.378 99.2812 248.328 99.6797 249.031 100.477C249.74 101.273 250.094 102.352 250.094 103.711ZM243.57 103.711C243.57 104.805 243.789 105.638 244.227 106.211C244.664 106.784 245.307 107.07 246.156 107.07C247.005 107.07 247.648 106.786 248.086 106.219C248.529 105.646 248.75 104.81 248.75 103.711C248.75 102.622 248.529 101.797 248.086 101.234C247.648 100.667 247 100.383 246.141 100.383C245.292 100.383 244.651 100.661 244.219 101.219C243.786 101.776 243.57 102.607 243.57 103.711Z" fill="#1F2331"/>
<path d="M139.016 128.961C139.016 129.966 138.651 130.75 137.922 131.312C137.193 131.875 136.203 132.156 134.953 132.156C133.599 132.156 132.557 131.982 131.828 131.633V130.352C132.297 130.549 132.807 130.706 133.359 130.82C133.911 130.935 134.458 130.992 135 130.992C135.885 130.992 136.552 130.826 137 130.492C137.448 130.154 137.672 129.685 137.672 129.086C137.672 128.69 137.591 128.367 137.43 128.117C137.273 127.862 137.008 127.628 136.633 127.414C136.263 127.201 135.698 126.958 134.938 126.688C133.875 126.307 133.115 125.857 132.656 125.336C132.203 124.815 131.977 124.135 131.977 123.297C131.977 122.417 132.307 121.716 132.969 121.195C133.63 120.674 134.505 120.414 135.594 120.414C136.729 120.414 137.773 120.622 138.727 121.039L138.312 122.195C137.37 121.799 136.453 121.602 135.562 121.602C134.859 121.602 134.31 121.753 133.914 122.055C133.518 122.357 133.32 122.776 133.32 123.312C133.32 123.708 133.393 124.034 133.539 124.289C133.685 124.539 133.93 124.771 134.273 124.984C134.622 125.193 135.154 125.424 135.867 125.68C137.065 126.107 137.888 126.565 138.336 127.055C138.789 127.544 139.016 128.18 139.016 128.961ZM142.375 123.438V128.992C142.375 129.69 142.534 130.211 142.852 130.555C143.169 130.898 143.667 131.07 144.344 131.07C145.24 131.07 145.893 130.826 146.305 130.336C146.721 129.846 146.93 129.047 146.93 127.938V123.438H148.227V132H147.156L146.969 130.852H146.898C146.633 131.273 146.263 131.596 145.789 131.82C145.32 132.044 144.784 132.156 144.18 132.156C143.138 132.156 142.357 131.909 141.836 131.414C141.32 130.919 141.062 130.128 141.062 129.039V123.438H142.375ZM154.969 123.297C156.094 123.297 156.966 123.682 157.586 124.453C158.211 125.219 158.523 126.305 158.523 127.711C158.523 129.117 158.208 130.211 157.578 130.992C156.953 131.768 156.083 132.156 154.969 132.156C154.411 132.156 153.901 132.055 153.438 131.852C152.979 131.643 152.594 131.326 152.281 130.898H152.188L151.914 132H150.984V119.844H152.281V122.797C152.281 123.458 152.26 124.052 152.219 124.578H152.281C152.885 123.724 153.781 123.297 154.969 123.297ZM154.781 124.383C153.896 124.383 153.258 124.638 152.867 125.148C152.477 125.654 152.281 126.508 152.281 127.711C152.281 128.914 152.482 129.776 152.883 130.297C153.284 130.812 153.927 131.07 154.812 131.07C155.609 131.07 156.203 130.781 156.594 130.203C156.984 129.62 157.18 128.784 157.18 127.695C157.18 126.581 156.984 125.75 156.594 125.203C156.203 124.656 155.599 124.383 154.781 124.383ZM163.562 131.086C163.792 131.086 164.013 131.07 164.227 131.039C164.44 131.003 164.609 130.966 164.734 130.93V131.922C164.594 131.99 164.385 132.044 164.109 132.086C163.839 132.133 163.594 132.156 163.375 132.156C161.719 132.156 160.891 131.284 160.891 129.539V124.445H159.664V123.82L160.891 123.281L161.438 121.453H162.188V123.438H164.672V124.445H162.188V129.484C162.188 130 162.31 130.396 162.555 130.672C162.799 130.948 163.135 131.086 163.562 131.086ZM167.75 132H166.453V123.438H167.75V132ZM166.398 122.109C166.648 121.786 166.917 121.396 167.203 120.938C167.495 120.479 167.724 120.081 167.891 119.742H169.469V119.906C169.24 120.245 168.898 120.661 168.445 121.156C167.992 121.651 167.599 122.034 167.266 122.305H166.398V122.109ZM173.266 131.086C173.495 131.086 173.716 131.07 173.93 131.039C174.143 131.003 174.312 130.966 174.438 130.93V131.922C174.297 131.99 174.089 132.044 173.812 132.086C173.542 132.133 173.297 132.156 173.078 132.156C171.422 132.156 170.594 131.284 170.594 129.539V124.445H169.367V123.82L170.594 123.281L171.141 121.453H171.891V123.438H174.375V124.445H171.891V129.484C171.891 130 172.013 130.396 172.258 130.672C172.503 130.948 172.839 131.086 173.266 131.086ZM177.375 123.438V128.992C177.375 129.69 177.534 130.211 177.852 130.555C178.169 130.898 178.667 131.07 179.344 131.07C180.24 131.07 180.893 130.826 181.305 130.336C181.721 129.846 181.93 129.047 181.93 127.938V123.438H183.227V132H182.156L181.969 130.852H181.898C181.633 131.273 181.263 131.596 180.789 131.82C180.32 132.044 179.784 132.156 179.18 132.156C178.138 132.156 177.357 131.909 176.836 131.414C176.32 130.919 176.062 130.128 176.062 129.039V123.438H177.375ZM187.281 132H185.984V119.844H187.281V132ZM197.422 127.711C197.422 129.107 197.07 130.198 196.367 130.984C195.664 131.766 194.693 132.156 193.453 132.156C192.688 132.156 192.008 131.977 191.414 131.617C190.82 131.258 190.362 130.742 190.039 130.07C189.716 129.398 189.555 128.612 189.555 127.711C189.555 126.315 189.904 125.229 190.602 124.453C191.299 123.672 192.268 123.281 193.508 123.281C194.706 123.281 195.656 123.68 196.359 124.477C197.068 125.273 197.422 126.352 197.422 127.711ZM190.898 127.711C190.898 128.805 191.117 129.638 191.555 130.211C191.992 130.784 192.635 131.07 193.484 131.07C194.333 131.07 194.977 130.786 195.414 130.219C195.857 129.646 196.078 128.81 196.078 127.711C196.078 126.622 195.857 125.797 195.414 125.234C194.977 124.667 194.328 124.383 193.469 124.383C192.62 124.383 191.979 124.661 191.547 125.219C191.115 125.776 190.898 126.607 190.898 127.711Z" fill="#5E616B"/>
<path d="M138.969 156H132.5V144.578H138.969V146.156H134.375V149.258H138.68V150.828H134.375V154.414H138.969V156ZM145.633 147.188C145.779 147.188 145.938 147.195 146.109 147.211C146.281 147.227 146.43 147.247 146.555 147.273L146.383 148.992C146.273 148.961 146.138 148.938 145.977 148.922C145.82 148.906 145.68 148.898 145.555 148.898C145.227 148.898 144.914 148.953 144.617 149.062C144.32 149.167 144.057 149.328 143.828 149.547C143.599 149.76 143.419 150.029 143.289 150.352C143.159 150.674 143.094 151.049 143.094 151.477V156H141.25V147.352H142.688L142.938 148.875H143.023C143.195 148.568 143.409 148.286 143.664 148.031C143.919 147.776 144.211 147.573 144.539 147.422C144.872 147.266 145.237 147.188 145.633 147.188ZM152.539 147.188C152.685 147.188 152.844 147.195 153.016 147.211C153.188 147.227 153.336 147.247 153.461 147.273L153.289 148.992C153.18 148.961 153.044 148.938 152.883 148.922C152.727 148.906 152.586 148.898 152.461 148.898C152.133 148.898 151.82 148.953 151.523 149.062C151.227 149.167 150.964 149.328 150.734 149.547C150.505 149.76 150.326 150.029 150.195 150.352C150.065 150.674 150 151.049 150 151.477V156H148.156V147.352H149.594L149.844 148.875H149.93C150.102 148.568 150.315 148.286 150.57 148.031C150.826 147.776 151.117 147.573 151.445 147.422C151.779 147.266 152.143 147.188 152.539 147.188ZM162.719 151.656C162.719 152.375 162.625 153.013 162.438 153.57C162.25 154.128 161.977 154.599 161.617 154.984C161.258 155.365 160.826 155.656 160.32 155.859C159.815 156.057 159.245 156.156 158.609 156.156C158.016 156.156 157.471 156.057 156.977 155.859C156.482 155.656 156.052 155.365 155.688 154.984C155.328 154.599 155.049 154.128 154.852 153.57C154.654 153.013 154.555 152.375 154.555 151.656C154.555 150.703 154.719 149.896 155.047 149.234C155.38 148.568 155.854 148.06 156.469 147.711C157.083 147.362 157.815 147.188 158.664 147.188C159.461 147.188 160.164 147.362 160.773 147.711C161.383 148.06 161.859 148.568 162.203 149.234C162.547 149.901 162.719 150.708 162.719 151.656ZM156.445 151.656C156.445 152.286 156.521 152.826 156.672 153.273C156.828 153.721 157.068 154.065 157.391 154.305C157.714 154.539 158.13 154.656 158.641 154.656C159.151 154.656 159.568 154.539 159.891 154.305C160.214 154.065 160.451 153.721 160.602 153.273C160.753 152.826 160.828 152.286 160.828 151.656C160.828 151.026 160.753 150.492 160.602 150.055C160.451 149.612 160.214 149.276 159.891 149.047C159.568 148.812 159.148 148.695 158.633 148.695C157.872 148.695 157.318 148.951 156.969 149.461C156.62 149.971 156.445 150.703 156.445 151.656ZM169.211 147.188C169.357 147.188 169.516 147.195 169.688 147.211C169.859 147.227 170.008 147.247 170.133 147.273L169.961 148.992C169.852 148.961 169.716 148.938 169.555 148.922C169.398 148.906 169.258 148.898 169.133 148.898C168.805 148.898 168.492 148.953 168.195 149.062C167.898 149.167 167.635 149.328 167.406 149.547C167.177 149.76 166.997 150.029 166.867 150.352C166.737 150.674 166.672 151.049 166.672 151.477V156H164.828V147.352H166.266L166.516 148.875H166.602C166.773 148.568 166.987 148.286 167.242 148.031C167.497 147.776 167.789 147.573 168.117 147.422C168.451 147.266 168.815 147.188 169.211 147.188ZM171.469 155.031C171.469 154.604 171.578 154.305 171.797 154.133C172.021 153.956 172.292 153.867 172.609 153.867C172.927 153.867 173.198 153.956 173.422 154.133C173.651 154.305 173.766 154.604 173.766 155.031C173.766 155.448 173.651 155.75 173.422 155.938C173.198 156.12 172.927 156.211 172.609 156.211C172.292 156.211 172.021 156.12 171.797 155.938C171.578 155.75 171.469 155.448 171.469 155.031ZM171.469 148.344C171.469 147.911 171.578 147.607 171.797 147.43C172.021 147.253 172.292 147.164 172.609 147.164C172.927 147.164 173.198 147.253 173.422 147.43C173.651 147.607 173.766 147.911 173.766 148.344C173.766 148.755 173.651 149.055 173.422 149.242C173.198 149.424 172.927 149.516 172.609 149.516C172.292 149.516 172.021 149.424 171.797 149.242C171.578 149.055 171.469 148.755 171.469 148.344ZM185.398 156L182.109 146.461H182.039C182.055 146.674 182.073 146.966 182.094 147.336C182.115 147.706 182.133 148.102 182.148 148.523C182.164 148.945 182.172 149.349 182.172 149.734V156H180.469V144.578H183.102L186.266 153.695H186.312L189.586 144.578H192.211V156H190.422V149.641C190.422 149.292 190.427 148.914 190.438 148.508C190.453 148.102 190.469 147.716 190.484 147.352C190.505 146.987 190.521 146.695 190.531 146.477H190.469L187.055 156H185.398ZM198.477 147.188C199.247 147.188 199.909 147.346 200.461 147.664C201.013 147.982 201.438 148.432 201.734 149.016C202.031 149.599 202.18 150.297 202.18 151.109V152.094H196.406C196.427 152.932 196.651 153.578 197.078 154.031C197.51 154.484 198.115 154.711 198.891 154.711C199.443 154.711 199.938 154.659 200.375 154.555C200.818 154.445 201.273 154.286 201.742 154.078V155.57C201.31 155.773 200.87 155.922 200.422 156.016C199.974 156.109 199.438 156.156 198.812 156.156C197.964 156.156 197.216 155.992 196.57 155.664C195.93 155.331 195.427 154.836 195.062 154.18C194.703 153.523 194.523 152.708 194.523 151.734C194.523 150.766 194.688 149.943 195.016 149.266C195.344 148.589 195.805 148.073 196.398 147.719C196.992 147.365 197.685 147.188 198.477 147.188ZM198.477 148.57C197.898 148.57 197.43 148.758 197.07 149.133C196.716 149.508 196.508 150.057 196.445 150.781H200.383C200.378 150.349 200.305 149.966 200.164 149.633C200.029 149.299 199.82 149.039 199.539 148.852C199.263 148.664 198.909 148.57 198.477 148.57ZM208.758 147.188C209.732 147.188 210.49 147.44 211.031 147.945C211.578 148.445 211.852 149.25 211.852 150.359V156H210.016V150.703C210.016 150.031 209.878 149.529 209.602 149.195C209.326 148.857 208.898 148.688 208.32 148.688C207.482 148.688 206.898 148.945 206.57 149.461C206.247 149.977 206.086 150.724 206.086 151.703V156H204.25V147.352H205.68L205.938 148.523H206.039C206.227 148.221 206.458 147.974 206.734 147.781C207.016 147.583 207.328 147.435 207.672 147.336C208.021 147.237 208.383 147.188 208.758 147.188ZM220.234 153.531C220.234 154.099 220.096 154.578 219.82 154.969C219.544 155.359 219.141 155.656 218.609 155.859C218.083 156.057 217.438 156.156 216.672 156.156C216.068 156.156 215.547 156.112 215.109 156.023C214.677 155.94 214.268 155.81 213.883 155.633V154.047C214.294 154.24 214.755 154.406 215.266 154.547C215.781 154.688 216.268 154.758 216.727 154.758C217.331 154.758 217.766 154.664 218.031 154.477C218.297 154.284 218.43 154.029 218.43 153.711C218.43 153.523 218.375 153.357 218.266 153.211C218.161 153.06 217.964 152.906 217.672 152.75C217.385 152.589 216.964 152.396 216.406 152.172C215.859 151.953 215.398 151.734 215.023 151.516C214.648 151.297 214.365 151.034 214.172 150.727C213.979 150.414 213.883 150.016 213.883 149.531C213.883 148.766 214.185 148.185 214.789 147.789C215.398 147.388 216.203 147.188 217.203 147.188C217.734 147.188 218.234 147.242 218.703 147.352C219.177 147.456 219.641 147.609 220.094 147.812L219.516 149.195C219.125 149.023 218.732 148.883 218.336 148.773C217.945 148.659 217.547 148.602 217.141 148.602C216.667 148.602 216.305 148.674 216.055 148.82C215.81 148.966 215.688 149.174 215.688 149.445C215.688 149.648 215.747 149.82 215.867 149.961C215.987 150.102 216.193 150.242 216.484 150.383C216.781 150.523 217.193 150.698 217.719 150.906C218.234 151.104 218.68 151.312 219.055 151.531C219.435 151.745 219.727 152.008 219.93 152.32C220.133 152.633 220.234 153.036 220.234 153.531ZM225.609 147.188C226.703 147.188 227.529 147.43 228.086 147.914C228.648 148.398 228.93 149.154 228.93 150.18V156H227.625L227.273 154.773H227.211C226.966 155.086 226.714 155.344 226.453 155.547C226.193 155.75 225.891 155.901 225.547 156C225.208 156.104 224.794 156.156 224.305 156.156C223.789 156.156 223.328 156.062 222.922 155.875C222.516 155.682 222.195 155.391 221.961 155C221.727 154.609 221.609 154.115 221.609 153.516C221.609 152.625 221.94 151.956 222.602 151.508C223.268 151.06 224.273 150.812 225.617 150.766L227.117 150.711V150.258C227.117 149.659 226.977 149.232 226.695 148.977C226.419 148.721 226.029 148.594 225.523 148.594C225.091 148.594 224.672 148.656 224.266 148.781C223.859 148.906 223.464 149.06 223.078 149.242L222.484 147.945C222.906 147.721 223.385 147.539 223.922 147.398C224.464 147.258 225.026 147.188 225.609 147.188ZM227.109 151.867L225.992 151.906C225.076 151.938 224.432 152.094 224.062 152.375C223.693 152.656 223.508 153.042 223.508 153.531C223.508 153.958 223.635 154.271 223.891 154.469C224.146 154.661 224.482 154.758 224.898 154.758C225.534 154.758 226.06 154.578 226.477 154.219C226.898 153.854 227.109 153.32 227.109 152.617V151.867ZM230.633 159.844C230.362 159.844 230.104 159.823 229.859 159.781C229.615 159.745 229.409 159.701 229.242 159.648V158.18C229.419 158.232 229.591 158.271 229.758 158.297C229.924 158.323 230.115 158.336 230.328 158.336C230.667 158.336 230.945 158.242 231.164 158.055C231.388 157.867 231.5 157.51 231.5 156.984V147.352H233.336V157.148C233.336 157.674 233.242 158.141 233.055 158.547C232.872 158.953 232.581 159.271 232.18 159.5C231.784 159.729 231.268 159.844 230.633 159.844ZM231.391 145.047C231.391 144.677 231.49 144.417 231.688 144.266C231.891 144.115 232.138 144.039 232.43 144.039C232.711 144.039 232.953 144.115 233.156 144.266C233.365 144.417 233.469 144.677 233.469 145.047C233.469 145.411 233.365 145.672 233.156 145.828C232.953 145.979 232.711 146.055 232.43 146.055C232.138 146.055 231.891 145.979 231.688 145.828C231.49 145.672 231.391 145.411 231.391 145.047ZM239.414 147.188C240.185 147.188 240.846 147.346 241.398 147.664C241.951 147.982 242.375 148.432 242.672 149.016C242.969 149.599 243.117 150.297 243.117 151.109V152.094H237.344C237.365 152.932 237.589 153.578 238.016 154.031C238.448 154.484 239.052 154.711 239.828 154.711C240.38 154.711 240.875 154.659 241.312 154.555C241.755 154.445 242.211 154.286 242.68 154.078V155.57C242.247 155.773 241.807 155.922 241.359 156.016C240.911 156.109 240.375 156.156 239.75 156.156C238.901 156.156 238.154 155.992 237.508 155.664C236.867 155.331 236.365 154.836 236 154.18C235.641 153.523 235.461 152.708 235.461 151.734C235.461 150.766 235.625 149.943 235.953 149.266C236.281 148.589 236.742 148.073 237.336 147.719C237.93 147.365 238.622 147.188 239.414 147.188ZM239.414 148.57C238.836 148.57 238.367 148.758 238.008 149.133C237.654 149.508 237.445 150.057 237.383 150.781H241.32C241.315 150.349 241.242 149.966 241.102 149.633C240.966 149.299 240.758 149.039 240.477 148.852C240.201 148.664 239.846 148.57 239.414 148.57ZM252.25 156.156C251.219 156.156 250.391 155.781 249.766 155.031C249.146 154.276 248.836 153.164 248.836 151.695C248.836 150.211 249.151 149.089 249.781 148.328C250.417 147.568 251.253 147.188 252.289 147.188C252.727 147.188 253.109 147.247 253.438 147.367C253.766 147.482 254.047 147.638 254.281 147.836C254.521 148.034 254.724 148.255 254.891 148.5H254.977C254.951 148.339 254.919 148.107 254.883 147.805C254.852 147.497 254.836 147.214 254.836 146.953V143.844H256.68V156H255.242L254.914 154.82H254.836C254.68 155.07 254.482 155.297 254.242 155.5C254.008 155.698 253.727 155.857 253.398 155.977C253.076 156.096 252.693 156.156 252.25 156.156ZM252.766 154.664C253.552 154.664 254.107 154.438 254.43 153.984C254.753 153.531 254.919 152.852 254.93 151.945V151.703C254.93 150.734 254.773 149.992 254.461 149.477C254.148 148.956 253.578 148.695 252.75 148.695C252.089 148.695 251.583 148.964 251.234 149.5C250.891 150.031 250.719 150.773 250.719 151.727C250.719 152.68 250.891 153.409 251.234 153.914C251.583 154.414 252.094 154.664 252.766 154.664ZM262.758 147.188C263.529 147.188 264.19 147.346 264.742 147.664C265.294 147.982 265.719 148.432 266.016 149.016C266.312 149.599 266.461 150.297 266.461 151.109V152.094H260.688C260.708 152.932 260.932 153.578 261.359 154.031C261.792 154.484 262.396 154.711 263.172 154.711C263.724 154.711 264.219 154.659 264.656 154.555C265.099 154.445 265.555 154.286 266.023 154.078V155.57C265.591 155.773 265.151 155.922 264.703 156.016C264.255 156.109 263.719 156.156 263.094 156.156C262.245 156.156 261.497 155.992 260.852 155.664C260.211 155.331 259.708 154.836 259.344 154.18C258.984 153.523 258.805 152.708 258.805 151.734C258.805 150.766 258.969 149.943 259.297 149.266C259.625 148.589 260.086 148.073 260.68 147.719C261.273 147.365 261.966 147.188 262.758 147.188ZM262.758 148.57C262.18 148.57 261.711 148.758 261.352 149.133C260.997 149.508 260.789 150.057 260.727 150.781H264.664C264.659 150.349 264.586 149.966 264.445 149.633C264.31 149.299 264.102 149.039 263.82 148.852C263.544 148.664 263.19 148.57 262.758 148.57ZM276.133 147.188C276.904 147.188 277.565 147.346 278.117 147.664C278.669 147.982 279.094 148.432 279.391 149.016C279.688 149.599 279.836 150.297 279.836 151.109V152.094H274.062C274.083 152.932 274.307 153.578 274.734 154.031C275.167 154.484 275.771 154.711 276.547 154.711C277.099 154.711 277.594 154.659 278.031 154.555C278.474 154.445 278.93 154.286 279.398 154.078V155.57C278.966 155.773 278.526 155.922 278.078 156.016C277.63 156.109 277.094 156.156 276.469 156.156C275.62 156.156 274.872 155.992 274.227 155.664C273.586 155.331 273.083 154.836 272.719 154.18C272.359 153.523 272.18 152.708 272.18 151.734C272.18 150.766 272.344 149.943 272.672 149.266C273 148.589 273.461 148.073 274.055 147.719C274.648 147.365 275.341 147.188 276.133 147.188ZM276.133 148.57C275.555 148.57 275.086 148.758 274.727 149.133C274.372 149.508 274.164 150.057 274.102 150.781H278.039C278.034 150.349 277.961 149.966 277.82 149.633C277.685 149.299 277.477 149.039 277.195 148.852C276.919 148.664 276.565 148.57 276.133 148.57ZM286.289 147.188C286.435 147.188 286.594 147.195 286.766 147.211C286.938 147.227 287.086 147.247 287.211 147.273L287.039 148.992C286.93 148.961 286.794 148.938 286.633 148.922C286.477 148.906 286.336 148.898 286.211 148.898C285.883 148.898 285.57 148.953 285.273 149.062C284.977 149.167 284.714 149.328 284.484 149.547C284.255 149.76 284.076 150.029 283.945 150.352C283.815 150.674 283.75 151.049 283.75 151.477V156H281.906V147.352H283.344L283.594 148.875H283.68C283.852 148.568 284.065 148.286 284.32 148.031C284.576 147.776 284.867 147.573 285.195 147.422C285.529 147.266 285.893 147.188 286.289 147.188ZM293.195 147.188C293.341 147.188 293.5 147.195 293.672 147.211C293.844 147.227 293.992 147.247 294.117 147.273L293.945 148.992C293.836 148.961 293.701 148.938 293.539 148.922C293.383 148.906 293.242 148.898 293.117 148.898C292.789 148.898 292.477 148.953 292.18 149.062C291.883 149.167 291.62 149.328 291.391 149.547C291.161 149.76 290.982 150.029 290.852 150.352C290.721 150.674 290.656 151.049 290.656 151.477V156H288.812V147.352H290.25L290.5 148.875H290.586C290.758 148.568 290.971 148.286 291.227 148.031C291.482 147.776 291.773 147.573 292.102 147.422C292.435 147.266 292.799 147.188 293.195 147.188ZM303.375 151.656C303.375 152.375 303.281 153.013 303.094 153.57C302.906 154.128 302.633 154.599 302.273 154.984C301.914 155.365 301.482 155.656 300.977 155.859C300.471 156.057 299.901 156.156 299.266 156.156C298.672 156.156 298.128 156.057 297.633 155.859C297.138 155.656 296.708 155.365 296.344 154.984C295.984 154.599 295.706 154.128 295.508 153.57C295.31 153.013 295.211 152.375 295.211 151.656C295.211 150.703 295.375 149.896 295.703 149.234C296.036 148.568 296.51 148.06 297.125 147.711C297.74 147.362 298.471 147.188 299.32 147.188C300.117 147.188 300.82 147.362 301.43 147.711C302.039 148.06 302.516 148.568 302.859 149.234C303.203 149.901 303.375 150.708 303.375 151.656ZM297.102 151.656C297.102 152.286 297.177 152.826 297.328 153.273C297.484 153.721 297.724 154.065 298.047 154.305C298.37 154.539 298.786 154.656 299.297 154.656C299.807 154.656 300.224 154.539 300.547 154.305C300.87 154.065 301.107 153.721 301.258 153.273C301.409 152.826 301.484 152.286 301.484 151.656C301.484 151.026 301.409 150.492 301.258 150.055C301.107 149.612 300.87 149.276 300.547 149.047C300.224 148.812 299.805 148.695 299.289 148.695C298.529 148.695 297.974 148.951 297.625 149.461C297.276 149.971 297.102 150.703 297.102 151.656ZM309.867 147.188C310.013 147.188 310.172 147.195 310.344 147.211C310.516 147.227 310.664 147.247 310.789 147.273L310.617 148.992C310.508 148.961 310.372 148.938 310.211 148.922C310.055 148.906 309.914 148.898 309.789 148.898C309.461 148.898 309.148 148.953 308.852 149.062C308.555 149.167 308.292 149.328 308.062 149.547C307.833 149.76 307.654 150.029 307.523 150.352C307.393 150.674 307.328 151.049 307.328 151.477V156H305.484V147.352H306.922L307.172 148.875H307.258C307.43 148.568 307.643 148.286 307.898 148.031C308.154 147.776 308.445 147.573 308.773 147.422C309.107 147.266 309.471 147.188 309.867 147.188Z" fill="#D22333"/>
<rect x="130.5" y="169.5" width="175" height="41" rx="3.5" fill="white"/>
<rect x="130.5" y="169.5" width="175" height="41" rx="3.5" stroke="#00607A"/>
<path d="M151.367 192.891C151.367 193.568 151.201 194.151 150.867 194.641C150.539 195.13 150.065 195.505 149.445 195.766C148.831 196.026 148.096 196.156 147.242 196.156C146.826 196.156 146.427 196.133 146.047 196.086C145.667 196.039 145.307 195.971 144.969 195.883C144.635 195.789 144.331 195.677 144.055 195.547V193.781C144.518 193.984 145.036 194.169 145.609 194.336C146.182 194.497 146.766 194.578 147.359 194.578C147.844 194.578 148.245 194.516 148.562 194.391C148.885 194.26 149.125 194.078 149.281 193.844C149.438 193.604 149.516 193.326 149.516 193.008C149.516 192.669 149.424 192.383 149.242 192.148C149.06 191.914 148.784 191.701 148.414 191.508C148.049 191.31 147.591 191.099 147.039 190.875C146.664 190.724 146.305 190.552 145.961 190.359C145.622 190.167 145.32 189.94 145.055 189.68C144.789 189.419 144.578 189.112 144.422 188.758C144.271 188.398 144.195 187.977 144.195 187.492C144.195 186.846 144.349 186.294 144.656 185.836C144.969 185.378 145.406 185.026 145.969 184.781C146.536 184.536 147.198 184.414 147.953 184.414C148.552 184.414 149.115 184.477 149.641 184.602C150.172 184.727 150.693 184.904 151.203 185.133L150.609 186.641C150.141 186.448 149.685 186.294 149.242 186.18C148.805 186.065 148.357 186.008 147.898 186.008C147.503 186.008 147.167 186.068 146.891 186.188C146.615 186.307 146.404 186.477 146.258 186.695C146.117 186.909 146.047 187.164 146.047 187.461C146.047 187.794 146.128 188.076 146.289 188.305C146.456 188.529 146.711 188.734 147.055 188.922C147.404 189.109 147.852 189.318 148.398 189.547C149.029 189.807 149.562 190.081 150 190.367C150.443 190.654 150.781 190.997 151.016 191.398C151.25 191.794 151.367 192.292 151.367 192.891ZM156.828 187.188C157.599 187.188 158.26 187.346 158.812 187.664C159.365 187.982 159.789 188.432 160.086 189.016C160.383 189.599 160.531 190.297 160.531 191.109V192.094H154.758C154.779 192.932 155.003 193.578 155.43 194.031C155.862 194.484 156.466 194.711 157.242 194.711C157.794 194.711 158.289 194.659 158.727 194.555C159.169 194.445 159.625 194.286 160.094 194.078V195.57C159.661 195.773 159.221 195.922 158.773 196.016C158.326 196.109 157.789 196.156 157.164 196.156C156.315 196.156 155.568 195.992 154.922 195.664C154.281 195.331 153.779 194.836 153.414 194.18C153.055 193.523 152.875 192.708 152.875 191.734C152.875 190.766 153.039 189.943 153.367 189.266C153.695 188.589 154.156 188.073 154.75 187.719C155.344 187.365 156.036 187.188 156.828 187.188ZM156.828 188.57C156.25 188.57 155.781 188.758 155.422 189.133C155.068 189.508 154.859 190.057 154.797 190.781H158.734C158.729 190.349 158.656 189.966 158.516 189.633C158.38 189.299 158.172 189.039 157.891 188.852C157.615 188.664 157.26 188.57 156.828 188.57ZM164.445 196H162.602V183.844H164.445V196ZM170.516 187.188C171.286 187.188 171.948 187.346 172.5 187.664C173.052 187.982 173.477 188.432 173.773 189.016C174.07 189.599 174.219 190.297 174.219 191.109V192.094H168.445C168.466 192.932 168.69 193.578 169.117 194.031C169.549 194.484 170.154 194.711 170.93 194.711C171.482 194.711 171.977 194.659 172.414 194.555C172.857 194.445 173.312 194.286 173.781 194.078V195.57C173.349 195.773 172.909 195.922 172.461 196.016C172.013 196.109 171.477 196.156 170.852 196.156C170.003 196.156 169.255 195.992 168.609 195.664C167.969 195.331 167.466 194.836 167.102 194.18C166.742 193.523 166.562 192.708 166.562 191.734C166.562 190.766 166.727 189.943 167.055 189.266C167.383 188.589 167.844 188.073 168.438 187.719C169.031 187.365 169.724 187.188 170.516 187.188ZM170.516 188.57C169.938 188.57 169.469 188.758 169.109 189.133C168.755 189.508 168.547 190.057 168.484 190.781H172.422C172.417 190.349 172.344 189.966 172.203 189.633C172.068 189.299 171.859 189.039 171.578 188.852C171.302 188.664 170.948 188.57 170.516 188.57ZM179.773 196.156C178.956 196.156 178.247 195.997 177.648 195.68C177.049 195.362 176.589 194.875 176.266 194.219C175.943 193.562 175.781 192.729 175.781 191.719C175.781 190.667 175.958 189.807 176.312 189.141C176.667 188.474 177.156 187.982 177.781 187.664C178.411 187.346 179.133 187.188 179.945 187.188C180.461 187.188 180.927 187.24 181.344 187.344C181.766 187.443 182.122 187.565 182.414 187.711L181.867 189.18C181.549 189.049 181.224 188.94 180.891 188.852C180.557 188.763 180.237 188.719 179.93 188.719C179.424 188.719 179.003 188.831 178.664 189.055C178.331 189.279 178.081 189.612 177.914 190.055C177.753 190.497 177.672 191.047 177.672 191.703C177.672 192.339 177.755 192.875 177.922 193.312C178.089 193.745 178.336 194.073 178.664 194.297C178.992 194.516 179.396 194.625 179.875 194.625C180.349 194.625 180.773 194.568 181.148 194.453C181.523 194.339 181.878 194.19 182.211 194.008V195.602C181.883 195.789 181.531 195.927 181.156 196.016C180.781 196.109 180.32 196.156 179.773 196.156ZM187.727 196.156C186.909 196.156 186.201 195.997 185.602 195.68C185.003 195.362 184.542 194.875 184.219 194.219C183.896 193.562 183.734 192.729 183.734 191.719C183.734 190.667 183.911 189.807 184.266 189.141C184.62 188.474 185.109 187.982 185.734 187.664C186.365 187.346 187.086 187.188 187.898 187.188C188.414 187.188 188.88 187.24 189.297 187.344C189.719 187.443 190.076 187.565 190.367 187.711L189.82 189.18C189.503 189.049 189.177 188.94 188.844 188.852C188.51 188.763 188.19 188.719 187.883 188.719C187.378 188.719 186.956 188.831 186.617 189.055C186.284 189.279 186.034 189.612 185.867 190.055C185.706 190.497 185.625 191.047 185.625 191.703C185.625 192.339 185.708 192.875 185.875 193.312C186.042 193.745 186.289 194.073 186.617 194.297C186.945 194.516 187.349 194.625 187.828 194.625C188.302 194.625 188.727 194.568 189.102 194.453C189.477 194.339 189.831 194.19 190.164 194.008V195.602C189.836 195.789 189.484 195.927 189.109 196.016C188.734 196.109 188.273 196.156 187.727 196.156ZM194.031 187.352V196H192.195V187.352H194.031ZM193.125 184.039C193.406 184.039 193.648 184.115 193.852 184.266C194.06 184.417 194.164 184.677 194.164 185.047C194.164 185.411 194.06 185.672 193.852 185.828C193.648 185.979 193.406 186.055 193.125 186.055C192.833 186.055 192.586 185.979 192.383 185.828C192.185 185.672 192.086 185.411 192.086 185.047C192.086 184.677 192.185 184.417 192.383 184.266C192.586 184.115 192.833 184.039 193.125 184.039ZM204.32 191.656C204.32 192.375 204.227 193.013 204.039 193.57C203.852 194.128 203.578 194.599 203.219 194.984C202.859 195.365 202.427 195.656 201.922 195.859C201.417 196.057 200.846 196.156 200.211 196.156C199.617 196.156 199.073 196.057 198.578 195.859C198.083 195.656 197.654 195.365 197.289 194.984C196.93 194.599 196.651 194.128 196.453 193.57C196.255 193.013 196.156 192.375 196.156 191.656C196.156 190.703 196.32 189.896 196.648 189.234C196.982 188.568 197.456 188.06 198.07 187.711C198.685 187.362 199.417 187.188 200.266 187.188C201.062 187.188 201.766 187.362 202.375 187.711C202.984 188.06 203.461 188.568 203.805 189.234C204.148 189.901 204.32 190.708 204.32 191.656ZM198.047 191.656C198.047 192.286 198.122 192.826 198.273 193.273C198.43 193.721 198.669 194.065 198.992 194.305C199.315 194.539 199.732 194.656 200.242 194.656C200.753 194.656 201.169 194.539 201.492 194.305C201.815 194.065 202.052 193.721 202.203 193.273C202.354 192.826 202.43 192.286 202.43 191.656C202.43 191.026 202.354 190.492 202.203 190.055C202.052 189.612 201.815 189.276 201.492 189.047C201.169 188.812 200.75 188.695 200.234 188.695C199.474 188.695 198.919 188.951 198.57 189.461C198.221 189.971 198.047 190.703 198.047 191.656ZM210.938 187.188C211.911 187.188 212.669 187.44 213.211 187.945C213.758 188.445 214.031 189.25 214.031 190.359V196H212.195V190.703C212.195 190.031 212.057 189.529 211.781 189.195C211.505 188.857 211.078 188.688 210.5 188.688C209.661 188.688 209.078 188.945 208.75 189.461C208.427 189.977 208.266 190.724 208.266 191.703V196H206.43V187.352H207.859L208.117 188.523H208.219C208.406 188.221 208.638 187.974 208.914 187.781C209.195 187.583 209.508 187.435 209.852 187.336C210.201 187.237 210.562 187.188 210.938 187.188ZM219.992 187.188C221.086 187.188 221.911 187.43 222.469 187.914C223.031 188.398 223.312 189.154 223.312 190.18V196H222.008L221.656 194.773H221.594C221.349 195.086 221.096 195.344 220.836 195.547C220.576 195.75 220.273 195.901 219.93 196C219.591 196.104 219.177 196.156 218.688 196.156C218.172 196.156 217.711 196.062 217.305 195.875C216.898 195.682 216.578 195.391 216.344 195C216.109 194.609 215.992 194.115 215.992 193.516C215.992 192.625 216.323 191.956 216.984 191.508C217.651 191.06 218.656 190.812 220 190.766L221.5 190.711V190.258C221.5 189.659 221.359 189.232 221.078 188.977C220.802 188.721 220.411 188.594 219.906 188.594C219.474 188.594 219.055 188.656 218.648 188.781C218.242 188.906 217.846 189.06 217.461 189.242L216.867 187.945C217.289 187.721 217.768 187.539 218.305 187.398C218.846 187.258 219.409 187.188 219.992 187.188ZM221.492 191.867L220.375 191.906C219.458 191.938 218.815 192.094 218.445 192.375C218.076 192.656 217.891 193.042 217.891 193.531C217.891 193.958 218.018 194.271 218.273 194.469C218.529 194.661 218.865 194.758 219.281 194.758C219.917 194.758 220.443 194.578 220.859 194.219C221.281 193.854 221.492 193.32 221.492 192.617V191.867ZM230.266 187.188C230.411 187.188 230.57 187.195 230.742 187.211C230.914 187.227 231.062 187.247 231.188 187.273L231.016 188.992C230.906 188.961 230.771 188.938 230.609 188.922C230.453 188.906 230.312 188.898 230.188 188.898C229.859 188.898 229.547 188.953 229.25 189.062C228.953 189.167 228.69 189.328 228.461 189.547C228.232 189.76 228.052 190.029 227.922 190.352C227.792 190.674 227.727 191.049 227.727 191.477V196H225.883V187.352H227.32L227.57 188.875H227.656C227.828 188.568 228.042 188.286 228.297 188.031C228.552 187.776 228.844 187.573 229.172 187.422C229.505 187.266 229.87 187.188 230.266 187.188ZM240.336 187.188C241.43 187.188 242.255 187.43 242.812 187.914C243.375 188.398 243.656 189.154 243.656 190.18V196H242.352L242 194.773H241.938C241.693 195.086 241.44 195.344 241.18 195.547C240.919 195.75 240.617 195.901 240.273 196C239.935 196.104 239.521 196.156 239.031 196.156C238.516 196.156 238.055 196.062 237.648 195.875C237.242 195.682 236.922 195.391 236.688 195C236.453 194.609 236.336 194.115 236.336 193.516C236.336 192.625 236.667 191.956 237.328 191.508C237.995 191.06 239 190.812 240.344 190.766L241.844 190.711V190.258C241.844 189.659 241.703 189.232 241.422 188.977C241.146 188.721 240.755 188.594 240.25 188.594C239.818 188.594 239.398 188.656 238.992 188.781C238.586 188.906 238.19 189.06 237.805 189.242L237.211 187.945C237.633 187.721 238.112 187.539 238.648 187.398C239.19 187.258 239.753 187.188 240.336 187.188ZM241.836 191.867L240.719 191.906C239.802 191.938 239.159 192.094 238.789 192.375C238.419 192.656 238.234 193.042 238.234 193.531C238.234 193.958 238.362 194.271 238.617 194.469C238.872 194.661 239.208 194.758 239.625 194.758C240.26 194.758 240.786 194.578 241.203 194.219C241.625 193.854 241.836 193.32 241.836 192.617V191.867ZM250.609 187.188C250.755 187.188 250.914 187.195 251.086 187.211C251.258 187.227 251.406 187.247 251.531 187.273L251.359 188.992C251.25 188.961 251.115 188.938 250.953 188.922C250.797 188.906 250.656 188.898 250.531 188.898C250.203 188.898 249.891 188.953 249.594 189.062C249.297 189.167 249.034 189.328 248.805 189.547C248.576 189.76 248.396 190.029 248.266 190.352C248.135 190.674 248.07 191.049 248.07 191.477V196H246.227V187.352H247.664L247.914 188.875H248C248.172 188.568 248.385 188.286 248.641 188.031C248.896 187.776 249.188 187.573 249.516 187.422C249.849 187.266 250.214 187.188 250.609 187.188ZM256.617 196.156C255.799 196.156 255.091 195.997 254.492 195.68C253.893 195.362 253.432 194.875 253.109 194.219C252.786 193.562 252.625 192.729 252.625 191.719C252.625 190.667 252.802 189.807 253.156 189.141C253.51 188.474 254 187.982 254.625 187.664C255.255 187.346 255.977 187.188 256.789 187.188C257.305 187.188 257.771 187.24 258.188 187.344C258.609 187.443 258.966 187.565 259.258 187.711L258.711 189.18C258.393 189.049 258.068 188.94 257.734 188.852C257.401 188.763 257.081 188.719 256.773 188.719C256.268 188.719 255.846 188.831 255.508 189.055C255.174 189.279 254.924 189.612 254.758 190.055C254.596 190.497 254.516 191.047 254.516 191.703C254.516 192.339 254.599 192.875 254.766 193.312C254.932 193.745 255.18 194.073 255.508 194.297C255.836 194.516 256.24 194.625 256.719 194.625C257.193 194.625 257.617 194.568 257.992 194.453C258.367 194.339 258.721 194.19 259.055 194.008V195.602C258.727 195.789 258.375 195.927 258 196.016C257.625 196.109 257.164 196.156 256.617 196.156ZM262.922 183.844V186.898C262.922 187.216 262.911 187.526 262.891 187.828C262.875 188.13 262.857 188.365 262.836 188.531H262.938C263.12 188.229 263.344 187.982 263.609 187.789C263.875 187.591 264.172 187.443 264.5 187.344C264.833 187.245 265.188 187.195 265.562 187.195C266.224 187.195 266.786 187.307 267.25 187.531C267.714 187.75 268.068 188.091 268.312 188.555C268.562 189.018 268.688 189.62 268.688 190.359V196H266.852V190.703C266.852 190.031 266.714 189.529 266.438 189.195C266.161 188.857 265.734 188.688 265.156 188.688C264.599 188.688 264.156 188.805 263.828 189.039C263.505 189.268 263.273 189.609 263.133 190.062C262.992 190.51 262.922 191.057 262.922 191.703V196H261.086V183.844H262.922ZM273.094 187.352V196H271.258V187.352H273.094ZM272.188 184.039C272.469 184.039 272.711 184.115 272.914 184.266C273.122 184.417 273.227 184.677 273.227 185.047C273.227 185.411 273.122 185.672 272.914 185.828C272.711 185.979 272.469 186.055 272.188 186.055C271.896 186.055 271.648 185.979 271.445 185.828C271.247 185.672 271.148 185.411 271.148 185.047C271.148 184.677 271.247 184.417 271.445 184.266C271.648 184.115 271.896 184.039 272.188 184.039ZM277.703 196L274.414 187.352H276.359L278.141 192.43C278.255 192.753 278.359 193.102 278.453 193.477C278.547 193.852 278.612 194.167 278.648 194.422H278.711C278.747 194.156 278.818 193.839 278.922 193.469C279.026 193.094 279.133 192.747 279.242 192.43L281.023 187.352H282.961L279.672 196H277.703ZM291.93 191.656C291.93 192.375 291.836 193.013 291.648 193.57C291.461 194.128 291.188 194.599 290.828 194.984C290.469 195.365 290.036 195.656 289.531 195.859C289.026 196.057 288.456 196.156 287.82 196.156C287.227 196.156 286.682 196.057 286.188 195.859C285.693 195.656 285.263 195.365 284.898 194.984C284.539 194.599 284.26 194.128 284.062 193.57C283.865 193.013 283.766 192.375 283.766 191.656C283.766 190.703 283.93 189.896 284.258 189.234C284.591 188.568 285.065 188.06 285.68 187.711C286.294 187.362 287.026 187.188 287.875 187.188C288.672 187.188 289.375 187.362 289.984 187.711C290.594 188.06 291.07 188.568 291.414 189.234C291.758 189.901 291.93 190.708 291.93 191.656ZM285.656 191.656C285.656 192.286 285.732 192.826 285.883 193.273C286.039 193.721 286.279 194.065 286.602 194.305C286.924 194.539 287.341 194.656 287.852 194.656C288.362 194.656 288.779 194.539 289.102 194.305C289.424 194.065 289.661 193.721 289.812 193.273C289.964 192.826 290.039 192.286 290.039 191.656C290.039 191.026 289.964 190.492 289.812 190.055C289.661 189.612 289.424 189.276 289.102 189.047C288.779 188.812 288.359 188.695 287.844 188.695C287.083 188.695 286.529 188.951 286.18 189.461C285.831 189.971 285.656 190.703 285.656 191.656Z" fill="#00607A"/>
<path d="M331.492 196H329.977L323.734 186.414H323.672C323.755 187.539 323.797 188.57 323.797 189.508V196H322.57V184.578H324.07L330.297 194.125H330.359C330.349 193.984 330.326 193.534 330.289 192.773C330.253 192.008 330.24 191.461 330.25 191.133V184.578H331.492V196ZM335.734 196H334.438V187.438H335.734V196ZM334.328 185.117C334.328 184.82 334.401 184.604 334.547 184.469C334.693 184.328 334.875 184.258 335.094 184.258C335.302 184.258 335.482 184.328 335.633 184.469C335.784 184.609 335.859 184.826 335.859 185.117C335.859 185.409 335.784 185.628 335.633 185.773C335.482 185.914 335.302 185.984 335.094 185.984C334.875 185.984 334.693 185.914 334.547 185.773C334.401 185.628 334.328 185.409 334.328 185.117ZM344.344 196V190.461C344.344 189.763 344.185 189.242 343.867 188.898C343.549 188.555 343.052 188.383 342.375 188.383C341.479 188.383 340.823 188.625 340.406 189.109C339.99 189.594 339.781 190.393 339.781 191.508V196H338.484V187.438H339.539L339.75 188.609H339.812C340.078 188.188 340.451 187.862 340.93 187.633C341.409 187.398 341.943 187.281 342.531 187.281C343.562 187.281 344.339 187.531 344.859 188.031C345.38 188.526 345.641 189.32 345.641 190.414V196H344.344ZM355.32 187.438V188.258L353.734 188.445C353.88 188.628 354.01 188.867 354.125 189.164C354.24 189.456 354.297 189.786 354.297 190.156C354.297 190.995 354.01 191.664 353.438 192.164C352.865 192.664 352.078 192.914 351.078 192.914C350.823 192.914 350.583 192.893 350.359 192.852C349.807 193.143 349.531 193.51 349.531 193.953C349.531 194.188 349.628 194.362 349.82 194.477C350.013 194.586 350.344 194.641 350.812 194.641H352.328C353.255 194.641 353.966 194.836 354.461 195.227C354.961 195.617 355.211 196.185 355.211 196.93C355.211 197.878 354.831 198.599 354.07 199.094C353.31 199.594 352.201 199.844 350.742 199.844C349.622 199.844 348.758 199.635 348.148 199.219C347.544 198.802 347.242 198.214 347.242 197.453C347.242 196.932 347.409 196.482 347.742 196.102C348.076 195.721 348.544 195.464 349.148 195.328C348.93 195.229 348.745 195.076 348.594 194.867C348.448 194.659 348.375 194.417 348.375 194.141C348.375 193.828 348.458 193.555 348.625 193.32C348.792 193.086 349.055 192.859 349.414 192.641C348.971 192.458 348.609 192.148 348.328 191.711C348.052 191.273 347.914 190.773 347.914 190.211C347.914 189.273 348.195 188.552 348.758 188.047C349.32 187.536 350.117 187.281 351.148 187.281C351.596 187.281 352 187.333 352.359 187.438H355.32ZM348.492 197.438C348.492 197.901 348.688 198.253 349.078 198.492C349.469 198.732 350.029 198.852 350.758 198.852C351.846 198.852 352.651 198.688 353.172 198.359C353.698 198.036 353.961 197.596 353.961 197.039C353.961 196.576 353.818 196.253 353.531 196.07C353.245 195.893 352.706 195.805 351.914 195.805H350.359C349.771 195.805 349.312 195.945 348.984 196.227C348.656 196.508 348.492 196.911 348.492 197.438ZM349.195 190.18C349.195 190.779 349.365 191.232 349.703 191.539C350.042 191.846 350.513 192 351.117 192C352.383 192 353.016 191.385 353.016 190.156C353.016 188.87 352.375 188.227 351.094 188.227C350.484 188.227 350.016 188.391 349.688 188.719C349.359 189.047 349.195 189.534 349.195 190.18ZM358.297 187.438V192.992C358.297 193.69 358.456 194.211 358.773 194.555C359.091 194.898 359.589 195.07 360.266 195.07C361.161 195.07 361.815 194.826 362.227 194.336C362.643 193.846 362.852 193.047 362.852 191.938V187.438H364.148V196H363.078L362.891 194.852H362.82C362.555 195.273 362.185 195.596 361.711 195.82C361.242 196.044 360.706 196.156 360.102 196.156C359.06 196.156 358.279 195.909 357.758 195.414C357.242 194.919 356.984 194.128 356.984 193.039V187.438H358.297ZM359.656 186.109C359.906 185.786 360.174 185.396 360.461 184.938C360.753 184.479 360.982 184.081 361.148 183.742H362.727V183.906C362.497 184.245 362.156 184.661 361.703 185.156C361.25 185.651 360.857 186.034 360.523 186.305H359.656V186.109ZM372.766 196V190.461C372.766 189.763 372.607 189.242 372.289 188.898C371.971 188.555 371.474 188.383 370.797 188.383C369.901 188.383 369.245 188.625 368.828 189.109C368.411 189.594 368.203 190.393 368.203 191.508V196H366.906V187.438H367.961L368.172 188.609H368.234C368.5 188.188 368.872 187.862 369.352 187.633C369.831 187.398 370.365 187.281 370.953 187.281C371.984 187.281 372.76 187.531 373.281 188.031C373.802 188.526 374.062 189.32 374.062 190.414V196H372.766ZM380.703 195.172C380.703 194.823 380.781 194.56 380.938 194.383C381.099 194.201 381.328 194.109 381.625 194.109C381.927 194.109 382.161 194.201 382.328 194.383C382.5 194.56 382.586 194.823 382.586 195.172C382.586 195.51 382.5 195.771 382.328 195.953C382.156 196.135 381.922 196.227 381.625 196.227C381.359 196.227 381.138 196.146 380.961 195.984C380.789 195.818 380.703 195.547 380.703 195.172ZM384.969 195.172C384.969 194.823 385.047 194.56 385.203 194.383C385.365 194.201 385.594 194.109 385.891 194.109C386.193 194.109 386.427 194.201 386.594 194.383C386.766 194.56 386.852 194.823 386.852 195.172C386.852 195.51 386.766 195.771 386.594 195.953C386.422 196.135 386.188 196.227 385.891 196.227C385.625 196.227 385.404 196.146 385.227 195.984C385.055 195.818 384.969 195.547 384.969 195.172ZM389.234 195.172C389.234 194.823 389.312 194.56 389.469 194.383C389.63 194.201 389.859 194.109 390.156 194.109C390.458 194.109 390.693 194.201 390.859 194.383C391.031 194.56 391.117 194.823 391.117 195.172C391.117 195.51 391.031 195.771 390.859 195.953C390.688 196.135 390.453 196.227 390.156 196.227C389.891 196.227 389.669 196.146 389.492 195.984C389.32 195.818 389.234 195.547 389.234 195.172ZM394.984 196H393.688V187.438H394.984V196ZM393.578 185.117C393.578 184.82 393.651 184.604 393.797 184.469C393.943 184.328 394.125 184.258 394.344 184.258C394.552 184.258 394.732 184.328 394.883 184.469C395.034 184.609 395.109 184.826 395.109 185.117C395.109 185.409 395.034 185.628 394.883 185.773C394.732 185.914 394.552 185.984 394.344 185.984C394.125 185.984 393.943 185.914 393.797 185.773C393.651 185.628 393.578 185.409 393.578 185.117ZM399.609 196L396.359 187.438H397.75L399.594 192.516C400.01 193.703 400.255 194.474 400.328 194.828H400.391C400.448 194.552 400.628 193.982 400.93 193.117C401.237 192.247 401.922 190.354 402.984 187.438H404.375L401.125 196H399.609ZM413.141 191.711C413.141 193.107 412.789 194.198 412.086 194.984C411.383 195.766 410.411 196.156 409.172 196.156C408.406 196.156 407.727 195.977 407.133 195.617C406.539 195.258 406.081 194.742 405.758 194.07C405.435 193.398 405.273 192.612 405.273 191.711C405.273 190.315 405.622 189.229 406.32 188.453C407.018 187.672 407.987 187.281 409.227 187.281C410.424 187.281 411.375 187.68 412.078 188.477C412.786 189.273 413.141 190.352 413.141 191.711ZM406.617 191.711C406.617 192.805 406.836 193.638 407.273 194.211C407.711 194.784 408.354 195.07 409.203 195.07C410.052 195.07 410.695 194.786 411.133 194.219C411.576 193.646 411.797 192.81 411.797 191.711C411.797 190.622 411.576 189.797 411.133 189.234C410.695 188.667 410.047 188.383 409.188 188.383C408.339 188.383 407.698 188.661 407.266 189.219C406.833 189.776 406.617 190.607 406.617 191.711ZM425.102 193.664C425.102 194.461 424.805 195.076 424.211 195.508C423.617 195.94 422.784 196.156 421.711 196.156C420.576 196.156 419.69 195.977 419.055 195.617V194.414C419.466 194.622 419.906 194.786 420.375 194.906C420.849 195.026 421.305 195.086 421.742 195.086C422.419 195.086 422.94 194.979 423.305 194.766C423.669 194.547 423.852 194.216 423.852 193.773C423.852 193.44 423.706 193.156 423.414 192.922C423.128 192.682 422.565 192.401 421.727 192.078C420.93 191.781 420.362 191.523 420.023 191.305C419.69 191.081 419.44 190.828 419.273 190.547C419.112 190.266 419.031 189.93 419.031 189.539C419.031 188.841 419.315 188.292 419.883 187.891C420.451 187.484 421.229 187.281 422.219 187.281C423.141 187.281 424.042 187.469 424.922 187.844L424.461 188.898C423.602 188.544 422.823 188.367 422.125 188.367C421.51 188.367 421.047 188.464 420.734 188.656C420.422 188.849 420.266 189.115 420.266 189.453C420.266 189.682 420.323 189.878 420.438 190.039C420.557 190.201 420.747 190.354 421.008 190.5C421.268 190.646 421.768 190.857 422.508 191.133C423.523 191.503 424.208 191.875 424.562 192.25C424.922 192.625 425.102 193.096 425.102 193.664ZM430.836 196.156C429.57 196.156 428.57 195.771 427.836 195C427.107 194.229 426.742 193.159 426.742 191.789C426.742 190.409 427.081 189.312 427.758 188.5C428.44 187.688 429.354 187.281 430.5 187.281C431.573 187.281 432.422 187.635 433.047 188.344C433.672 189.047 433.984 189.977 433.984 191.133V191.953H428.086C428.112 192.958 428.365 193.721 428.844 194.242C429.328 194.763 430.008 195.023 430.883 195.023C431.805 195.023 432.716 194.831 433.617 194.445V195.602C433.159 195.799 432.724 195.94 432.312 196.023C431.906 196.112 431.414 196.156 430.836 196.156ZM430.484 188.367C429.797 188.367 429.247 188.591 428.836 189.039C428.43 189.487 428.19 190.107 428.117 190.898H432.594C432.594 190.081 432.411 189.456 432.047 189.023C431.682 188.586 431.161 188.367 430.484 188.367ZM437.5 196H436.203V183.844H437.5V196ZM443.867 196.156C442.602 196.156 441.602 195.771 440.867 195C440.138 194.229 439.773 193.159 439.773 191.789C439.773 190.409 440.112 189.312 440.789 188.5C441.471 187.688 442.385 187.281 443.531 187.281C444.604 187.281 445.453 187.635 446.078 188.344C446.703 189.047 447.016 189.977 447.016 191.133V191.953H441.117C441.143 192.958 441.396 193.721 441.875 194.242C442.359 194.763 443.039 195.023 443.914 195.023C444.836 195.023 445.747 194.831 446.648 194.445V195.602C446.19 195.799 445.755 195.94 445.344 196.023C444.938 196.112 444.445 196.156 443.867 196.156ZM443.516 188.367C442.828 188.367 442.279 188.591 441.867 189.039C441.461 189.487 441.221 190.107 441.148 190.898H445.625C445.625 190.081 445.443 189.456 445.078 189.023C444.714 188.586 444.193 188.367 443.516 188.367ZM452.656 196.156C451.417 196.156 450.456 195.776 449.773 195.016C449.096 194.25 448.758 193.169 448.758 191.773C448.758 190.341 449.102 189.234 449.789 188.453C450.482 187.672 451.466 187.281 452.742 187.281C453.154 187.281 453.565 187.326 453.977 187.414C454.388 187.503 454.711 187.607 454.945 187.727L454.547 188.828C454.26 188.714 453.948 188.62 453.609 188.547C453.271 188.469 452.971 188.43 452.711 188.43C450.971 188.43 450.102 189.539 450.102 191.758C450.102 192.81 450.312 193.617 450.734 194.18C451.161 194.742 451.792 195.023 452.625 195.023C453.339 195.023 454.07 194.87 454.82 194.562V195.711C454.247 196.008 453.526 196.156 452.656 196.156ZM456.672 195.172C456.672 194.823 456.75 194.56 456.906 194.383C457.068 194.201 457.297 194.109 457.594 194.109C457.896 194.109 458.13 194.201 458.297 194.383C458.469 194.56 458.555 194.823 458.555 195.172C458.555 195.51 458.469 195.771 458.297 195.953C458.125 196.135 457.891 196.227 457.594 196.227C457.328 196.227 457.107 196.146 456.93 195.984C456.758 195.818 456.672 195.547 456.672 195.172Z" fill="#1F2331"/>
<rect x="131" y="18" width="47.5531" height="47.5531" rx="23.7766" fill="#EDEDEC"/>
<path d="M156.174 49.7766H154.419V38.4858C154.419 37.5467 154.448 36.6582 154.505 35.8203C154.354 35.972 154.184 36.1309 153.996 36.297C153.808 36.4632 152.949 37.1675 151.417 38.41L150.464 37.1747L154.657 33.9349H156.174V49.7766Z" fill="#00475C"/>
<rect x="13" y="102" width="47.5531" height="47.5531" rx="23.7766" fill="#EDEDEC"/>
<path d="M41.9016 133.777H31.5211V132.27L35.7578 127.969C36.5452 127.174 37.2062 126.466 37.7407 125.845C38.2825 125.224 38.6943 124.613 38.976 124.014C39.2577 123.407 39.3986 122.742 39.3986 122.02C39.3986 121.124 39.1313 120.442 38.5968 119.972C38.0694 119.495 37.3723 119.257 36.5055 119.257C35.747 119.257 35.0752 119.387 34.49 119.647C33.9049 119.907 33.3053 120.275 32.6913 120.752L31.7269 119.539C32.1459 119.185 32.601 118.87 33.0922 118.596C33.5907 118.321 34.1216 118.105 34.6851 117.946C35.2558 117.787 35.8626 117.707 36.5055 117.707C37.4807 117.707 38.3223 117.877 39.0302 118.217C39.7381 118.556 40.2835 119.04 40.6664 119.669C41.0565 120.297 41.2515 121.045 41.2515 121.912C41.2515 122.75 41.0854 123.53 40.7531 124.252C40.4208 124.967 39.9548 125.679 39.3553 126.387C38.7557 127.087 38.055 127.831 37.2531 128.619L33.8074 132.054V132.13H41.9016V133.777Z" fill="#00475C"/>
<rect x="13" y="166" width="47.5531" height="47.5531" rx="23.7766" fill="#EDEDEC"/>
<path d="M42.671 194.136H40.3196V197.777H38.5968V194.136H30.8926V192.565L38.4126 181.848H40.3196V192.5H42.671V194.136ZM38.5968 192.5V187.233C38.5968 186.2 38.6329 185.034 38.7051 183.734H38.6184C38.2717 184.427 37.9466 185.001 37.6432 185.456L32.6913 192.5H38.5968Z" fill="#00475C"/>
<rect x="374" y="126" width="47.5531" height="47.5531" rx="23.7766" fill="#EDEDEC"/>
<path d="M402.327 145.662C402.327 146.674 402.042 147.501 401.471 148.144C400.908 148.787 400.106 149.216 399.066 149.433V149.52C400.337 149.679 401.28 150.083 401.894 150.733C402.508 151.384 402.815 152.236 402.815 153.291C402.815 154.8 402.291 155.963 401.244 156.78C400.196 157.589 398.708 157.993 396.779 157.993C395.942 157.993 395.172 157.928 394.471 157.798C393.778 157.675 393.103 157.455 392.445 157.137V155.425C393.131 155.765 393.861 156.025 394.634 156.205C395.414 156.379 396.151 156.465 396.844 156.465C399.582 156.465 400.951 155.393 400.951 153.247C400.951 151.326 399.441 150.365 396.422 150.365H394.862V148.816H396.444C397.679 148.816 398.658 148.545 399.38 148.003C400.102 147.454 400.464 146.695 400.464 145.727C400.464 144.954 400.196 144.348 399.662 143.907C399.134 143.466 398.416 143.246 397.505 143.246C396.812 143.246 396.158 143.34 395.544 143.528C394.93 143.716 394.229 144.062 393.442 144.568L392.532 143.354C393.182 142.841 393.93 142.441 394.775 142.152C395.627 141.855 396.523 141.707 397.462 141.707C399.001 141.707 400.196 142.061 401.049 142.769C401.901 143.47 402.327 144.434 402.327 145.662Z" fill="#00475C"/>
</svg>
