<svg width="288" height="129" viewBox="0 0 288 129" fill="none" xmlns="http://www.w3.org/2000/svg">
<rect width="288" height="128" transform="translate(0 0.28125)" fill="white"/>
<rect opacity="0.3" x="43.4531" y="44.1719" width="63.2009" height="7.66071" rx="3.83036" fill="#92949B"/>
<rect x="42.0379" y="61.9084" width="203.924" height="21.9821" rx="2.5" stroke="#1F2331"/>
</svg>
