<svg width="294" height="128" viewBox="0 0 294 128" fill="none" xmlns="http://www.w3.org/2000/svg">
<rect width="294" height="128" fill="white"/>
<g opacity="0.3">
<rect x="85" y="18" width="74" height="6" rx="3" fill="#92949B"/>
<rect x="85" y="30" width="124" height="8" rx="4" fill="#1F2331"/>
</g>
<g opacity="0.3">
<rect x="85" y="54" width="74" height="6" rx="3" fill="#92949B"/>
<rect x="85" y="66" width="124" height="8" rx="4" fill="#1F2331"/>
</g>
<g opacity="0.3">
<rect x="85" y="90" width="74" height="6" rx="3" fill="#92949B"/>
<rect x="85" y="102" width="124" height="8" rx="4" fill="#1F2331"/>
</g>
</svg>
