<svg width="291" height="128" viewBox="0 0 291 128" fill="none" xmlns="http://www.w3.org/2000/svg">
<rect width="291" height="128" fill="white"/>
<g clip-path="url(#clip0_2717_15306)">
<path d="M147.5 54.5C147.383 54.0211 147.109 53.5952 146.722 53.2907C146.334 52.9862 145.856 52.8207 145.363 52.8207C144.87 52.8207 144.391 52.9862 144.003 53.2907C143.616 53.5952 143.342 54.0211 143.225 54.5L139.25 63.175C139.205 63.2704 139.136 63.3527 139.05 63.4143C138.964 63.4758 138.864 63.5147 138.76 63.5272C138.655 63.5396 138.548 63.5254 138.451 63.4856C138.353 63.4459 138.267 63.3821 138.2 63.3L135.5 60.025C135.208 59.6131 134.815 59.2836 134.359 59.0686C133.902 58.8537 133.397 58.7605 132.894 58.7983C132.391 58.836 131.906 59.0034 131.486 59.2841C131.067 59.5647 130.727 59.9492 130.5 60.4L124.35 70.75C124.235 70.9383 124.173 71.1535 124.168 71.3738C124.163 71.5942 124.217 71.8118 124.324 72.0047C124.43 72.1977 124.586 72.3589 124.775 72.4723C124.964 72.5856 125.18 72.6469 125.4 72.65H153C153.207 72.6531 153.411 72.6049 153.595 72.5095C153.778 72.4142 153.936 72.2748 154.052 72.1039C154.168 71.9329 154.241 71.7357 154.262 71.53C154.284 71.3242 154.254 71.1163 154.175 70.925L147.5 54.5Z" fill="#1F2331"/>
<path d="M125.4 47.75C125.4 49.0761 125.927 50.3479 126.865 51.2855C127.802 52.2232 129.074 52.75 130.4 52.75C131.726 52.75 132.998 52.2232 133.936 51.2855C134.873 50.3479 135.4 49.0761 135.4 47.75C135.4 46.4239 134.873 45.1521 133.936 44.2145C132.998 43.2768 131.726 42.75 130.4 42.75C129.074 42.75 127.802 43.2768 126.865 44.2145C125.927 45.1521 125.4 46.4239 125.4 47.75Z" fill="#1F2331"/>
<path d="M158 81.5C159.326 81.5 160.598 80.9732 161.536 80.0355C162.473 79.0979 163 77.8261 163 76.5V39C163 37.6739 162.473 36.4021 161.536 35.4645C160.598 34.5268 159.326 34 158 34H120.5C119.174 34 117.902 34.5268 116.964 35.4645C116.027 36.4021 115.5 37.6739 115.5 39V76.5C115.5 77.8261 116.027 79.0979 116.964 80.0355C117.902 80.9732 119.174 81.5 120.5 81.5H158ZM120.5 40.25C120.5 39.9185 120.632 39.6005 120.866 39.3661C121.101 39.1317 121.418 39 121.75 39H156.75C157.082 39 157.399 39.1317 157.634 39.3661C157.868 39.6005 158 39.9185 158 40.25V75.25C158 75.5815 157.868 75.8995 157.634 76.1339C157.399 76.3683 157.082 76.5 156.75 76.5H121.75C121.586 76.5 121.423 76.4677 121.272 76.4049C121.12 76.342 120.982 76.25 120.866 76.1339C120.75 76.0178 120.658 75.88 120.595 75.7284C120.532 75.5767 120.5 75.4142 120.5 75.25V40.25Z" fill="#1F2331"/>
<path d="M175.5 57.075C175.616 55.7658 175.212 54.4635 174.375 53.45C173.955 52.9404 173.439 52.5189 172.855 52.21C172.272 51.901 171.633 51.7107 170.975 51.65L168.475 51.425C167.816 51.3696 167.161 51.578 166.655 52.0044C166.149 52.4309 165.832 53.0407 165.775 53.7C165.733 54.0306 165.758 54.3662 165.848 54.6871C165.938 55.0079 166.091 55.3076 166.298 55.5685C166.505 55.8293 166.763 56.0461 167.055 56.2061C167.347 56.3661 167.669 56.466 168 56.5H169.25C169.413 56.5125 169.573 56.5576 169.718 56.6327C169.864 56.7078 169.993 56.8114 170.098 56.9373C170.203 57.0631 170.281 57.2088 170.329 57.3656C170.377 57.5224 170.392 57.6871 170.375 57.85L167.65 87.85C167.637 88.0144 167.592 88.1746 167.518 88.3215C167.443 88.4684 167.34 88.599 167.214 88.7059C167.089 88.8128 166.943 88.8938 166.787 88.9443C166.63 88.9948 166.464 89.0137 166.3 89L132.7 85.825C132.04 85.7624 131.383 85.9642 130.872 86.3861C130.361 86.808 130.038 87.4154 129.975 88.075C129.912 88.7347 130.114 89.3923 130.536 89.9032C130.958 90.4142 131.565 90.7368 132.225 90.8L167.225 93.975C168.544 94.0931 169.856 93.683 170.873 92.8346C171.891 91.9863 172.53 90.769 172.65 89.45L175.5 57.075Z" fill="#1F2331"/>
</g>
<defs>
<clipPath id="clip0_2717_15306">
<rect width="60" height="60" fill="white" transform="translate(115.5 34)"/>
</clipPath>
</defs>
</svg>
