<svg width="229" height="195" viewBox="0 0 229 195" fill="none" xmlns="http://www.w3.org/2000/svg">
<path d="M198.963 110.232C198.963 96.1402 195.241 82.2983 188.173 70.107C181.105 57.9157 170.942 47.8078 158.712 40.806L138.838 75.5191C144.952 79.02 150.034 84.074 153.568 90.1696C157.102 96.2652 158.963 103.186 158.963 110.232H198.963Z" fill="#013C53" stroke="white"/>
<path d="M158.712 40.806C143.219 31.9354 125.203 28.5022 107.533 31.0529L113.248 70.6426C122.083 69.3672 131.091 71.0838 138.838 75.5191L158.712 40.806Z" fill="#739BA5" stroke="white"/>
<path d="M107.533 31.0529C95.04 32.8564 83.1508 37.5905 72.8374 44.8684L95.9002 77.5503C101.057 73.9114 107.001 71.5443 113.248 70.6426L107.533 31.0529Z" fill="#AA3C2B" stroke="white"/>
<path d="M72.8374 44.8684C60.7734 53.3817 51.3008 65.0676 45.4685 78.6323C39.6362 92.197 37.6717 107.111 39.7926 121.723C41.9135 136.336 48.037 150.076 57.4851 161.423C66.9331 172.769 79.3372 181.28 93.3237 186.012L106.143 148.122C99.1501 145.756 92.9481 141.501 88.224 135.827C83.5 130.154 80.4382 123.284 79.3778 115.978C78.3173 108.672 79.2996 101.215 82.2157 94.4323C85.1319 87.6499 89.8682 81.8069 95.9002 77.5503L72.8374 44.8684Z" fill="#4D1F2E" stroke="white"/>
<path d="M93.3237 186.012C105.36 190.085 118.193 191.231 130.761 189.357C143.328 187.484 155.269 182.643 165.594 175.237C175.919 167.83 184.331 158.071 190.133 146.767C195.936 135.463 198.963 122.939 198.963 110.232H158.963C158.963 116.585 157.45 122.847 154.548 128.499C151.647 134.152 147.441 139.031 142.278 142.734C137.116 146.438 131.146 148.858 124.862 149.795C118.578 150.732 112.161 150.158 106.143 148.122L93.3237 186.012Z" fill="#00607A" stroke="white"/>
<path d="M188.173 70.107L205.475 60.0757Z" fill="#1F2331"/>
<path d="M188.173 70.107L205.475 60.0757" stroke="#1F2331"/>
<path d="M209.327 60.195C208.765 60.195 208.263 60.0984 207.823 59.9052C207.385 59.712 207.037 59.4436 206.779 59.0998C206.523 58.7532 206.384 58.3513 206.361 57.8939H207.435C207.458 58.1751 207.555 58.418 207.725 58.6226C207.895 58.8243 208.118 58.9805 208.394 59.0913C208.67 59.2021 208.975 59.2575 209.31 59.2575C209.685 59.2575 210.018 59.1922 210.307 59.0615C210.597 58.9308 210.824 58.749 210.989 58.516C211.154 58.2831 211.236 58.0132 211.236 57.7064C211.236 57.3853 211.157 57.1027 210.998 56.8584C210.839 56.6112 210.606 56.418 210.299 56.2788C209.992 56.1396 209.617 56.07 209.174 56.07H208.475V55.1325H209.174C209.52 55.1325 209.824 55.07 210.086 54.945C210.35 54.82 210.556 54.6439 210.704 54.4166C210.854 54.1893 210.93 53.9223 210.93 53.6155C210.93 53.32 210.864 53.0629 210.733 52.8441C210.603 52.6254 210.418 52.4549 210.18 52.3328C209.944 52.2106 209.665 52.1495 209.344 52.1495C209.043 52.1495 208.759 52.2049 208.492 52.3157C208.228 52.4237 208.012 52.5814 207.844 52.7888C207.677 52.9933 207.586 53.2405 207.572 53.5302H206.549C206.566 53.0728 206.704 52.6723 206.962 52.3285C207.221 51.9819 207.559 51.712 207.976 51.5189C208.397 51.3257 208.858 51.2291 209.361 51.2291C209.901 51.2291 210.364 51.3385 210.751 51.5572C211.137 51.7731 211.434 52.0586 211.641 52.4138C211.849 52.7689 211.952 53.1524 211.952 53.5643C211.952 54.0558 211.823 54.4748 211.564 54.8214C211.309 55.168 210.961 55.4081 210.52 55.5416V55.6098C211.072 55.7007 211.502 55.9351 211.812 56.3129C212.121 56.6879 212.276 57.1524 212.276 57.7064C212.276 58.1808 212.147 58.6069 211.888 58.9848C211.633 59.3598 211.283 59.6552 210.84 59.8711C210.397 60.087 209.893 60.195 209.327 60.195ZM216.968 60.195C216.405 60.195 215.904 60.0984 215.464 59.9052C215.026 59.712 214.678 59.4436 214.42 59.0998C214.164 58.7532 214.025 58.3513 214.002 57.8939H215.076C215.099 58.1751 215.195 58.418 215.366 58.6226C215.536 58.8243 215.759 58.9805 216.035 59.0913C216.31 59.2021 216.616 59.2575 216.951 59.2575C217.326 59.2575 217.658 59.1922 217.948 59.0615C218.238 58.9308 218.465 58.749 218.63 58.516C218.795 58.2831 218.877 58.0132 218.877 57.7064C218.877 57.3853 218.797 57.1027 218.638 56.8584C218.479 56.6112 218.246 56.418 217.939 56.2788C217.633 56.1396 217.258 56.07 216.814 56.07H216.116V55.1325H216.814C217.161 55.1325 217.465 55.07 217.726 54.945C217.991 54.82 218.197 54.6439 218.344 54.4166C218.495 54.1893 218.57 53.9223 218.57 53.6155C218.57 53.32 218.505 53.0629 218.374 52.8441C218.243 52.6254 218.059 52.4549 217.82 52.3328C217.584 52.2106 217.306 52.1495 216.985 52.1495C216.684 52.1495 216.4 52.2049 216.133 52.3157C215.868 52.4237 215.653 52.5814 215.485 52.7888C215.317 52.9933 215.226 53.2405 215.212 53.5302H214.189C214.207 53.0728 214.344 52.6723 214.603 52.3285C214.861 51.9819 215.199 51.712 215.617 51.5189C216.037 51.3257 216.499 51.2291 217.002 51.2291C217.542 51.2291 218.005 51.3385 218.391 51.5572C218.778 51.7731 219.074 52.0586 219.282 52.4138C219.489 52.7689 219.593 53.1524 219.593 53.5643C219.593 54.0558 219.464 54.4748 219.205 54.8214C218.949 55.168 218.601 55.4081 218.161 55.5416V55.6098C218.712 55.7007 219.143 55.9351 219.452 56.3129C219.762 56.6879 219.917 57.1524 219.917 57.7064C219.917 58.1808 219.787 58.6069 219.529 58.9848C219.273 59.3598 218.924 59.6552 218.481 59.8711C218.037 60.087 217.533 60.195 216.968 60.195ZM224.438 51.2291C224.796 51.2319 225.154 51.3001 225.512 51.4336C225.87 51.5672 226.197 51.7888 226.492 52.0984C226.787 52.4052 227.025 52.8243 227.204 53.3555C227.383 53.8868 227.472 54.553 227.472 55.3541C227.472 56.1297 227.398 56.8186 227.251 57.4209C227.106 58.0203 226.895 58.526 226.62 58.9379C226.347 59.3498 226.015 59.6623 225.623 59.8754C225.233 60.0885 224.793 60.195 224.302 60.195C223.813 60.195 223.377 60.0984 222.993 59.9052C222.613 59.7092 222.3 59.4379 222.056 59.0913C221.814 58.7419 221.66 58.337 221.591 57.8768H222.631C222.725 58.2774 222.911 58.6084 223.189 58.8697C223.471 59.1282 223.841 59.2575 224.302 59.2575C224.975 59.2575 225.506 58.9635 225.895 58.3754C226.287 57.7873 226.483 56.9564 226.483 55.8825H226.415C226.256 56.1211 226.067 56.3271 225.849 56.5004C225.63 56.6737 225.387 56.8072 225.12 56.901C224.853 56.9947 224.569 57.0416 224.268 57.0416C223.768 57.0416 223.309 56.918 222.891 56.6709C222.476 56.4209 222.144 56.0785 221.894 55.6439C221.647 55.2064 221.523 54.7064 221.523 54.1439C221.523 53.6098 221.643 53.1211 221.881 52.678C222.123 52.2319 222.461 51.8768 222.895 51.6126C223.333 51.3484 223.847 51.2206 224.438 51.2291ZM224.438 52.1666C224.08 52.1666 223.758 52.2561 223.471 52.4351C223.187 52.6112 222.961 52.8498 222.793 53.151C222.628 53.4493 222.546 53.7802 222.546 54.1439C222.546 54.5075 222.626 54.8385 222.785 55.1368C222.947 55.4322 223.167 55.668 223.445 55.8441C223.726 56.0174 224.046 56.1041 224.404 56.1041C224.674 56.1041 224.925 56.0515 225.158 55.9464C225.391 55.8385 225.594 55.6922 225.768 55.5075C225.944 55.32 226.082 55.1084 226.181 54.8726C226.28 54.6339 226.33 54.3853 226.33 54.1268C226.33 53.7859 226.248 53.4663 226.083 53.168C225.921 52.8697 225.697 52.6282 225.41 52.4436C225.126 52.2589 224.802 52.1666 224.438 52.1666Z" fill="#1F2331"/>
<path d="M133.939 31.6464L137.683 12Z" fill="#1F2331"/>
<path d="M133.939 31.6464L137.683 12" stroke="#1F2331"/>
<path d="M138.586 12V11.233L141.467 8.07955C141.805 7.71023 142.083 7.3892 142.302 7.11648C142.521 6.84091 142.683 6.58239 142.788 6.34091C142.896 6.09659 142.95 5.84091 142.95 5.57386C142.95 5.26705 142.876 5.00142 142.728 4.77699C142.583 4.55256 142.385 4.37926 142.132 4.2571C141.879 4.13494 141.595 4.07386 141.279 4.07386C140.944 4.07386 140.652 4.14347 140.402 4.28267C140.154 4.41903 139.963 4.6108 139.826 4.85795C139.693 5.10511 139.626 5.39489 139.626 5.72727H138.62C138.62 5.21591 138.738 4.76705 138.974 4.38068C139.21 3.99432 139.531 3.69318 139.937 3.47727C140.346 3.26136 140.805 3.15341 141.314 3.15341C141.825 3.15341 142.278 3.26136 142.673 3.47727C143.068 3.69318 143.377 3.98437 143.602 4.35085C143.826 4.71733 143.939 5.125 143.939 5.57386C143.939 5.89489 143.88 6.20881 143.764 6.51562C143.65 6.8196 143.451 7.15909 143.167 7.53409C142.886 7.90625 142.495 8.3608 141.995 8.89773L140.035 10.9943V11.0625H144.092V12H138.586ZM148.92 3.27273V12H147.863V4.38068H147.812L145.681 5.79545V4.72159L147.863 3.27273H148.92ZM151.225 10.2102V9.34091L155.061 3.27273H155.691V4.61932H155.265L152.368 9.20455V9.27273H157.532V10.2102H151.225ZM155.333 12V9.94602V9.54119V3.27273H156.339V12H155.333Z" fill="#1F2331"/>
<path d="M89.3679 35.9077L81.9691 17.3266Z" fill="#1F2331"/>
<path d="M89.3679 35.9077L81.9691 17.3266" stroke="#1F2331"/>
<path d="M65.7961 8.59936V17.3266H64.7393V9.70731H64.6882L62.5575 11.1221V10.0482L64.7393 8.59936H65.7961ZM71.0333 17.4459C70.5333 17.4459 70.083 17.3465 69.6825 17.1477C69.2819 16.9488 68.9609 16.6761 68.7194 16.3295C68.4779 15.9829 68.3458 15.588 68.3231 15.1448H69.3458C69.3856 15.5397 69.5646 15.8664 69.8828 16.1249C70.2038 16.3806 70.5873 16.5084 71.0333 16.5084C71.3913 16.5084 71.7095 16.4246 71.9879 16.257C72.2691 16.0894 72.4893 15.8593 72.6484 15.5667C72.8103 15.2712 72.8913 14.9374 72.8913 14.5653C72.8913 14.1846 72.8075 13.8451 72.6399 13.5468C72.4751 13.2457 72.2478 13.0084 71.958 12.8352C71.6683 12.6619 71.3373 12.5738 70.9651 12.5709C70.6981 12.5681 70.424 12.6093 70.1427 12.6945C69.8615 12.7769 69.6299 12.8834 69.4481 13.0141L68.4595 12.8948L68.9879 8.59936H73.522V9.53686H69.8742L69.5674 12.1107H69.6186C69.7975 11.9687 70.022 11.8508 70.2919 11.757C70.5617 11.6633 70.843 11.6164 71.1356 11.6164C71.6697 11.6164 72.1455 11.7442 72.5632 11.9999C72.9836 12.2528 73.3132 12.5994 73.5518 13.0397C73.7933 13.48 73.914 13.9829 73.914 14.5482C73.914 15.105 73.789 15.6022 73.539 16.0397C73.2919 16.4744 72.9509 16.8181 72.5163 17.0709C72.0816 17.3209 71.5873 17.4459 71.0333 17.4459ZM75.6068 17.3266V16.5596L78.4875 13.4062C78.8256 13.0369 79.104 12.7158 79.3227 12.4431C79.5415 12.1675 79.7034 11.909 79.8085 11.6675C79.9165 11.4232 79.9705 11.1675 79.9705 10.9005C79.9705 10.5937 79.8966 10.3281 79.7489 10.1036C79.604 9.87919 79.4051 9.70589 79.1523 9.58373C78.8995 9.46157 78.6154 9.40049 78.3 9.40049C77.9648 9.40049 77.6722 9.4701 77.4222 9.6093C77.175 9.74566 76.9833 9.93742 76.8469 10.1846C76.7134 10.4317 76.6466 10.7215 76.6466 11.0539H75.6409C75.6409 10.5425 75.7588 10.0937 75.9946 9.70731C76.2304 9.32095 76.5514 9.01981 76.9577 8.8039C77.3668 8.58799 77.8256 8.48004 78.3341 8.48004C78.8455 8.48004 79.2986 8.58799 79.6935 8.8039C80.0884 9.01981 80.398 9.311 80.6225 9.67748C80.8469 10.044 80.9591 10.4516 80.9591 10.9005C80.9591 11.2215 80.9009 11.5354 80.7844 11.8423C80.6708 12.1462 80.4719 12.4857 80.1878 12.8607C79.9066 13.2329 79.5159 13.6874 79.0159 14.2244L77.0557 16.3209V16.3891H81.1125V17.3266H75.6068Z" fill="#1F2331"/>
<path d="M39.7926 121.723L20 124.596Z" fill="#1F2331"/>
<path d="M39.7926 121.723L20 124.596" stroke="#1F2331"/>
<path d="M1.24254 124.596L5.14595 116.875V116.806H0.645952V115.869H6.23686V116.858L2.3505 124.596H1.24254ZM10.8935 115.869V124.596H9.83665V116.977H9.78551L7.65483 118.392V117.318L9.83665 115.869H10.8935ZM16.25 124.715C15.608 124.715 15.0611 124.541 14.6094 124.191C14.1577 123.839 13.8125 123.329 13.5739 122.662C13.3352 121.991 13.2159 121.181 13.2159 120.233C13.2159 119.289 13.3352 118.484 13.5739 117.816C13.8153 117.146 14.1619 116.635 14.6136 116.282C15.0682 115.927 15.6136 115.75 16.25 115.75C16.8864 115.75 17.4304 115.927 17.8821 116.282C18.3366 116.635 18.6832 117.146 18.9219 117.816C19.1634 118.484 19.2841 119.289 19.2841 120.233C19.2841 121.181 19.1648 121.991 18.9261 122.662C18.6875 123.329 18.3423 123.839 17.8906 124.191C17.4389 124.541 16.892 124.715 16.25 124.715ZM16.25 123.778C16.8864 123.778 17.3807 123.471 17.733 122.858C18.0852 122.244 18.2614 121.369 18.2614 120.233C18.2614 119.477 18.1804 118.833 18.0185 118.302C17.8594 117.771 17.6293 117.366 17.3281 117.088C17.0298 116.809 16.6705 116.67 16.25 116.67C15.6193 116.67 15.1264 116.981 14.7713 117.603C14.4162 118.223 14.2386 119.099 14.2386 120.233C14.2386 120.988 14.3182 121.63 14.4773 122.159C14.6364 122.687 14.8651 123.089 15.1634 123.365C15.4645 123.64 15.8267 123.778 16.25 123.778Z" fill="#1F2331"/>
<path d="M165.594 175.237L177.251 191.488Z" fill="#1F2331"/>
<path d="M165.594 175.237L177.251 191.488" stroke="#1F2331"/>
<path d="M181.053 191.607C180.695 191.601 180.337 191.533 179.979 191.402C179.621 191.272 179.294 191.052 178.999 190.742C178.703 190.429 178.466 190.008 178.287 189.476C178.108 188.942 178.019 188.272 178.019 187.465C178.019 186.692 178.091 186.008 178.236 185.411C178.381 184.812 178.591 184.307 178.867 183.898C179.142 183.486 179.474 183.174 179.864 182.961C180.256 182.748 180.697 182.641 181.189 182.641C181.678 182.641 182.112 182.739 182.493 182.935C182.876 183.128 183.189 183.398 183.43 183.745C183.672 184.091 183.828 184.491 183.899 184.942H182.859C182.763 184.55 182.575 184.225 182.297 183.966C182.019 183.708 181.649 183.579 181.189 183.579C180.513 183.579 179.98 183.873 179.591 184.461C179.205 185.049 179.01 185.874 179.007 186.937H179.075C179.234 186.695 179.423 186.489 179.642 186.319C179.864 186.145 180.108 186.012 180.375 185.918C180.642 185.824 180.925 185.777 181.223 185.777C181.723 185.777 182.18 185.902 182.595 186.152C183.01 186.4 183.342 186.742 183.592 187.179C183.842 187.614 183.967 188.113 183.967 188.675C183.967 189.215 183.847 189.709 183.605 190.158C183.364 190.604 183.024 190.959 182.587 191.224C182.152 191.485 181.641 191.613 181.053 191.607ZM181.053 190.67C181.411 190.67 181.732 190.58 182.016 190.401C182.303 190.222 182.528 189.982 182.693 189.681C182.861 189.38 182.945 189.045 182.945 188.675C182.945 188.314 182.864 187.986 182.702 187.691C182.543 187.393 182.322 187.155 182.041 186.979C181.763 186.803 181.445 186.715 181.087 186.715C180.817 186.715 180.565 186.769 180.332 186.877C180.099 186.982 179.895 187.127 179.719 187.312C179.545 187.496 179.409 187.708 179.31 187.947C179.21 188.182 179.161 188.431 179.161 188.692C179.161 189.039 179.242 189.363 179.403 189.664C179.568 189.965 179.793 190.208 180.077 190.393C180.364 190.577 180.689 190.67 181.053 190.67ZM188.711 182.76V191.488H187.655V183.868H187.603L185.473 185.283V184.209L187.655 182.76H188.711ZM191.221 191.488V190.721L194.102 187.567C194.44 187.198 194.718 186.877 194.937 186.604C195.156 186.329 195.318 186.07 195.423 185.829C195.531 185.584 195.585 185.329 195.585 185.062C195.585 184.755 195.511 184.489 195.363 184.265C195.218 184.04 195.02 183.867 194.767 183.745C194.514 183.623 194.23 183.562 193.914 183.562C193.579 183.562 193.287 183.631 193.037 183.77C192.789 183.907 192.598 184.099 192.461 184.346C192.328 184.593 192.261 184.883 192.261 185.215H191.255C191.255 184.704 191.373 184.255 191.609 183.868C191.845 183.482 192.166 183.181 192.572 182.965C192.981 182.749 193.44 182.641 193.949 182.641C194.46 182.641 194.913 182.749 195.308 182.965C195.703 183.181 196.012 183.472 196.237 183.839C196.461 184.205 196.574 184.613 196.574 185.062C196.574 185.383 196.515 185.697 196.399 186.003C196.285 186.307 196.086 186.647 195.802 187.022C195.521 187.394 195.13 187.849 194.63 188.385L192.67 190.482V190.55H196.727V191.488H191.221Z" fill="#1F2331"/>
</svg>
