<svg width="190" height="42" viewBox="0 0 190 42" fill="none" xmlns="http://www.w3.org/2000/svg">
<g clip-path="url(#clip0_12200_54420)">
<path d="M0 42H62.9993V0H0V42Z" fill="#003399"/>
<path d="M30.1571 9.15234L31.4864 8.18226L32.8159 9.15234L32.3098 7.58337L33.6602 6.61329H31.9957L31.4864 5.02543L30.977 6.61506L29.3136 6.61329L30.6629 7.58337L30.1571 9.15234Z" fill="#FBCA07"/>
<path d="M23.2778 10.998L24.6071 10.028L25.9357 10.998L25.4306 9.42907L26.7801 8.45899H25.1156L24.6064 6.86935L24.0971 8.46076L22.4335 8.45899L23.7827 9.42907L23.2778 10.998Z" fill="#FBCA07"/>
<path d="M19.5734 11.9162L19.064 13.5076L17.4008 13.5059L18.7499 14.4759L18.2442 16.0449L19.5734 15.0748L20.9027 16.0449L20.3968 14.4759L21.7461 13.5059H20.0827L19.5734 11.9162Z" fill="#FBCA07"/>
<path d="M17.7268 21.944L19.0553 22.9141L18.5503 21.3453L19.8995 20.375H18.2362L17.7268 18.7854L17.2174 20.3786L15.5532 20.375L16.9033 21.3453L16.3975 22.9141L17.7268 21.944Z" fill="#FBCA07"/>
<path d="M20.0827 27.2676L19.5734 25.678L19.064 27.2694L17.4008 27.2676L18.7499 28.2377L18.2442 29.8066L19.5734 28.8348L20.9027 29.8066L20.3968 28.2377L21.7461 27.2676H20.0827Z" fill="#FBCA07"/>
<path d="M25.1261 32.3125L24.6167 30.7246L24.1082 32.3142L22.444 32.3125L23.7932 33.2825L23.2883 34.8516L24.6176 33.8814L25.946 34.8516L25.4411 33.2825L26.7904 32.3125H25.1261Z" fill="#FBCA07"/>
<path d="M31.9964 34.1387L31.4871 32.5491L30.9786 34.1404L29.3143 34.1387L30.6636 35.1087L30.1587 36.6777L31.488 35.7076L32.8164 36.6777L32.3106 35.1087L33.6607 34.1387H31.9964Z" fill="#FBCA07"/>
<path d="M38.8675 32.3125L38.359 30.7246L37.8488 32.3142L36.1863 32.3125L37.5347 33.2825L37.0297 34.8516L38.359 33.8814L39.6883 34.8516L39.1816 33.2825L40.5318 32.3125H38.8675Z" fill="#FBCA07"/>
<path d="M43.9125 27.2676L43.4022 25.678L42.892 27.2694L41.2295 27.2676L42.5797 28.2377L42.073 29.8066L43.4022 28.8348L44.7315 29.8066L44.2248 28.2377L45.575 27.2676H43.9125Z" fill="#FBCA07"/>
<path d="M47.4027 20.3574H45.7384L45.2282 18.7678L44.7197 20.3592L43.0554 20.3574L44.4056 21.3275L43.9004 22.8965L45.2282 21.9246L46.5575 22.8965L46.0525 21.3275L47.4027 20.3574Z" fill="#FBCA07"/>
<path d="M42.0727 16.0234L43.402 15.0534L44.7315 16.0234L44.2248 14.4545L45.575 13.4862H43.9123L43.402 11.8965L42.892 13.4879L41.2292 13.4862L42.5794 14.4545L42.0727 16.0234Z" fill="#FBCA07"/>
<path d="M38.3782 6.87326L37.8697 8.46467L36.2054 8.46112L37.5538 9.43298L37.0489 11.002L38.38 10.0301L39.7075 11.002L39.2026 9.43298L40.5527 8.46112H38.8867L38.3782 6.87326Z" fill="#FBCA07"/>
<path d="M78.7492 11.9493L80.7727 12.591C80.4624 13.719 79.9466 14.557 79.2251 15.1045C78.5036 15.6523 77.5883 15.9258 76.479 15.9258C75.1066 15.9258 73.9786 15.4571 73.0947 14.5194C72.2112 13.5815 71.7692 12.2998 71.7692 10.6733C71.7692 8.95303 72.2134 7.61708 73.1018 6.66521C73.9901 5.71334 75.1581 5.23752 76.606 5.23752C77.8702 5.23752 78.8972 5.61116 79.6869 6.35844C80.1567 6.8005 80.5093 7.43493 80.7445 8.26218L78.6786 8.75555C78.5564 8.21975 78.3016 7.79679 77.9138 7.48668C77.5259 7.17636 77.0545 7.0213 76.5001 7.0213C75.7339 7.0213 75.1124 7.29609 74.6354 7.84633C74.1581 8.3959 73.9197 9.28691 73.9197 10.5182C73.9197 11.8251 74.1547 12.7558 74.6248 13.3103C75.0946 13.8648 75.7057 14.1422 76.4579 14.1422C77.0123 14.1422 77.4895 13.9661 77.8889 13.6133C78.2885 13.261 78.5753 12.7063 78.7492 11.9493Z" fill="#003399"/>
<path d="M84.1215 12.0067C84.1215 12.7495 84.2979 13.3184 84.6502 13.7132C85.003 14.1079 85.4375 14.3054 85.9546 14.3054C86.4715 14.3054 86.9052 14.1079 87.2553 13.7132C87.6053 13.3184 87.7806 12.7449 87.7806 11.9929C87.7806 11.2596 87.6053 10.6956 87.2553 10.3009C86.9052 9.90593 86.4715 9.70866 85.9546 9.70866C85.4375 9.70866 85.003 9.90593 84.6502 10.3009C84.2979 10.6956 84.1215 11.2643 84.1215 12.0067ZM82.0909 11.9012C82.0909 11.2432 82.2531 10.6063 82.5776 9.99056C82.9018 9.37479 83.3611 8.90452 83.9558 8.58064C84.5503 8.25609 85.2142 8.09393 85.9475 8.09393C87.0802 8.09393 88.0085 8.46202 88.7325 9.1973C89.456 9.93281 89.8181 10.8625 89.8181 11.9858C89.8181 13.1185 89.4527 14.0575 88.7218 14.8023C87.991 15.5474 87.0709 15.9199 85.9617 15.9199C85.2753 15.9199 84.6209 15.7649 83.998 15.4545C83.3751 15.1444 82.9018 14.6897 82.5776 14.0902C82.2531 13.491 82.0909 12.7613 82.0909 11.9012Z" fill="#003399"/>
<path d="M96.114 15.75V8.26255H98.095V15.75H96.114ZM96.114 7.24737V5.41427H98.095V7.24737H96.114ZM90.5514 8.26255H91.6512V7.69854C91.6512 7.06877 91.7181 6.59872 91.8522 6.28839C91.986 5.97828 92.2328 5.72571 92.5924 5.53045C92.9521 5.33541 93.4068 5.23789 93.9566 5.23789C94.5206 5.23789 95.0731 5.3223 95.6133 5.49158L95.3456 6.87351C95.0306 6.79842 94.7274 6.76066 94.436 6.76066C94.1492 6.76066 93.9437 6.82775 93.8191 6.96192C93.6947 7.09565 93.6322 7.35289 93.6322 7.73386V8.26255H95.1128V9.82064H93.6322V15.75H91.6512V9.82064H90.5514V8.26255Z" fill="#003399"/>
<path d="M107 15.75H105.019V11.9287C105.019 11.1204 104.977 10.5975 104.892 10.36C104.807 10.1228 104.67 9.93815 104.479 9.80642C104.289 9.67492 104.06 9.60894 103.792 9.60894C103.449 9.60894 103.141 9.70313 102.868 9.89106C102.596 10.0792 102.409 10.3285 102.308 10.6386C102.207 10.9489 102.156 11.5222 102.156 12.3588V15.75H100.175V8.26255H102.015V9.36237C102.669 8.51646 103.491 8.09328 104.483 8.09328C104.92 8.09328 105.32 8.17214 105.682 8.32964C106.043 8.48713 106.317 8.68795 106.503 8.93208C106.689 9.17666 106.818 9.45411 106.891 9.76444C106.963 10.0745 107 10.5186 107 11.0968V15.75Z" fill="#003399"/>
<path d="M113.141 12.1551C112.887 12.2395 112.485 12.3406 111.935 12.4581C111.385 12.5756 111.025 12.6909 110.856 12.8035C110.598 12.9868 110.469 13.2194 110.469 13.5015C110.469 13.7789 110.572 14.0186 110.779 14.2208C110.985 14.4229 111.249 14.524 111.568 14.524C111.926 14.524 112.266 14.4065 112.591 14.1712C112.83 13.9929 112.988 13.7743 113.063 13.5157C113.115 13.3467 113.141 13.0245 113.141 12.5498V12.1551ZM110.49 10.5475L108.692 10.2231C108.894 9.49941 109.242 8.96361 109.736 8.61574C110.229 8.26787 110.962 8.09393 111.935 8.09393C112.819 8.09393 113.477 8.19856 113.909 8.40759C114.342 8.61707 114.646 8.88253 114.822 9.20441C114.998 9.52629 115.086 10.1172 115.086 10.9778L115.066 13.2902C115.066 13.9482 115.097 14.4334 115.161 14.7461C115.224 15.0587 115.343 15.3935 115.517 15.7507H113.557C113.505 15.6191 113.441 15.4239 113.366 15.1653C113.334 15.048 113.31 14.9705 113.296 14.9327C112.957 15.2619 112.595 15.5085 112.21 15.6729C111.825 15.8377 111.413 15.9199 110.976 15.9199C110.205 15.9199 109.598 15.7107 109.154 15.2924C108.709 14.8741 108.487 14.3454 108.487 13.7061C108.487 13.2831 108.588 12.9057 108.791 12.5745C108.993 12.2431 109.276 11.9892 109.64 11.813C110.004 11.6366 110.53 11.4829 111.216 11.3512C112.142 11.1775 112.783 11.0153 113.141 10.8649V10.6674C113.141 10.2865 113.047 10.0152 112.859 9.85306C112.671 9.69089 112.316 9.60959 111.794 9.60959C111.442 9.60959 111.167 9.67912 110.969 9.81774C110.772 9.95657 110.612 10.1998 110.49 10.5475Z" fill="#003399"/>
<path d="M123.85 15.75H121.869V11.9287C121.869 11.1204 121.827 10.5975 121.742 10.36C121.658 10.1228 121.52 9.93815 121.33 9.80642C121.139 9.67492 120.91 9.60894 120.642 9.60894C120.299 9.60894 119.991 9.70313 119.719 9.89106C119.446 10.0792 119.259 10.3285 119.158 10.6386C119.057 10.9489 119.007 11.5222 119.007 12.3588V15.75H117.026V8.26255H118.866V9.36237C119.519 8.51646 120.342 8.09328 121.333 8.09328C121.77 8.09328 122.17 8.17214 122.532 8.32964C122.894 8.48713 123.167 8.68795 123.353 8.93208C123.539 9.17666 123.668 9.45411 123.741 9.76444C123.814 10.0745 123.85 10.5186 123.85 11.0968V15.75Z" fill="#003399"/>
<path d="M132.388 10.477L130.435 10.8296C130.369 10.4395 130.22 10.1454 129.987 9.94813C129.755 9.75065 129.453 9.65224 129.081 9.65224C128.588 9.65224 128.194 9.82262 127.901 10.1634C127.607 10.5041 127.46 11.0739 127.46 11.873C127.46 12.7613 127.609 13.3886 127.908 13.7552C128.206 14.1219 128.607 14.3054 129.11 14.3054C129.486 14.3054 129.793 14.1986 130.033 13.9846C130.273 13.7707 130.442 13.4029 130.541 12.881L132.487 13.2125C132.285 14.1057 131.897 14.7801 131.324 15.236C130.75 15.6918 129.982 15.9199 129.018 15.9199C127.923 15.9199 127.05 15.5745 126.399 14.8834C125.748 14.1926 125.422 13.2362 125.422 12.014C125.422 10.7778 125.749 9.81552 126.402 9.12666C127.056 8.43825 127.939 8.09393 129.053 8.09393C129.965 8.09393 130.69 8.2903 131.228 8.68282C131.766 9.07512 132.153 9.67335 132.388 10.477Z" fill="#003399"/>
<path d="M133.89 15.75V8.26255H135.871V15.75H133.89ZM133.89 7.24737V5.41427H135.871V7.24737H133.89Z" fill="#003399"/>
<path d="M142.033 12.1551C141.779 12.2395 141.377 12.3406 140.827 12.4581C140.278 12.5756 139.918 12.6909 139.749 12.8035C139.49 12.9868 139.361 13.2194 139.361 13.5015C139.361 13.7789 139.464 14.0186 139.671 14.2208C139.878 14.4229 140.141 14.524 140.461 14.524C140.818 14.524 141.159 14.4065 141.483 14.1712C141.723 13.9929 141.88 13.7743 141.955 13.5157C142.007 13.3467 142.033 13.0245 142.033 12.5498V12.1551ZM139.382 10.5475L137.584 10.2231C137.786 9.49941 138.134 8.96361 138.628 8.61574C139.121 8.26787 139.854 8.09393 140.827 8.09393C141.711 8.09393 142.369 8.19856 142.802 8.40759C143.234 8.61707 143.538 8.88253 143.715 9.20441C143.891 9.52629 143.979 10.1172 143.979 10.9778L143.958 13.2902C143.958 13.9482 143.99 14.4334 144.053 14.7461C144.116 15.0587 144.235 15.3935 144.409 15.7507H142.449C142.397 15.6191 142.334 15.4239 142.259 15.1653C142.226 15.048 142.202 14.9705 142.188 14.9327C141.85 15.2619 141.488 15.5085 141.102 15.6729C140.717 15.8377 140.306 15.9199 139.869 15.9199C139.098 15.9199 138.49 15.7107 138.046 15.2924C137.602 14.8741 137.38 14.3454 137.38 13.7061C137.38 13.2831 137.481 12.9057 137.683 12.5745C137.885 12.2431 138.168 11.9892 138.532 11.813C138.897 11.6366 139.422 11.4829 140.108 11.3512C141.034 11.1775 141.676 11.0153 142.033 10.8649V10.6674C142.033 10.2865 141.939 10.0152 141.751 9.85306C141.563 9.69089 141.208 9.60959 140.687 9.60959C140.334 9.60959 140.059 9.67912 139.862 9.81774C139.664 9.95657 139.504 10.1998 139.382 10.5475Z" fill="#003399"/>
<path d="M147.511 11.8448C147.511 12.644 147.621 13.222 147.842 13.579C148.162 14.0964 148.608 14.3547 149.182 14.3547C149.638 14.3547 150.026 14.1608 150.345 13.7732C150.665 13.3851 150.824 12.806 150.824 12.0349C150.824 11.175 150.67 10.5557 150.359 10.1774C150.049 9.79908 149.652 9.60959 149.168 9.60959C148.698 9.60959 148.304 9.79663 147.987 10.1703C147.67 10.5441 147.511 11.1021 147.511 11.8448ZM152.799 15.7507H150.959V14.6508C150.653 15.0785 150.292 15.397 149.876 15.606C149.461 15.8153 149.041 15.9199 148.618 15.9199C147.758 15.9199 147.021 15.5732 146.407 14.8799C145.794 14.1868 145.488 13.2194 145.488 11.9785C145.488 10.7094 145.786 9.7451 146.383 9.08445C146.98 8.42425 147.734 8.09393 148.646 8.09393C149.483 8.09393 150.206 8.44202 150.818 9.13754V5.41492H152.799V15.7507Z" fill="#003399"/>
<path d="M156.324 12.0067C156.324 12.7495 156.5 13.3184 156.852 13.7132C157.205 14.1079 157.64 14.3054 158.157 14.3054C158.674 14.3054 159.107 14.1079 159.458 13.7132C159.808 13.3184 159.983 12.7449 159.983 11.9929C159.983 11.2596 159.808 10.6956 159.458 10.3009C159.107 9.90593 158.674 9.70866 158.157 9.70866C157.64 9.70866 157.205 9.90593 156.852 10.3009C156.5 10.6956 156.324 11.2643 156.324 12.0067ZM154.293 11.9012C154.293 11.2432 154.455 10.6063 154.78 9.99056C155.104 9.37479 155.563 8.90452 156.158 8.58064C156.753 8.25609 157.416 8.09393 158.15 8.09393C159.282 8.09393 160.211 8.46202 160.935 9.1973C161.658 9.93281 162.021 10.8625 162.021 11.9858C162.021 13.1185 161.655 14.0575 160.924 14.8023C160.193 15.5474 159.273 15.9199 158.164 15.9199C157.478 15.9199 156.823 15.7649 156.2 15.4545C155.578 15.1444 155.104 14.6897 154.78 14.0902C154.455 13.491 154.293 12.7613 154.293 11.9012Z" fill="#003399"/>
<path d="M169.487 11.8788C169.487 12.7201 169.654 13.3416 169.988 13.7437C170.321 14.1453 170.728 14.3461 171.207 14.3461C171.668 14.3461 172.051 14.1617 172.356 13.7928C172.662 13.424 172.814 12.8189 172.814 11.9772C172.814 11.1924 172.657 10.6097 172.342 10.2288C172.027 9.84823 171.637 9.65786 171.172 9.65786C170.688 9.65786 170.286 9.84467 169.966 10.2183C169.647 10.592 169.487 11.1455 169.487 11.8788ZM167.527 8.26193H169.374V9.36174C169.614 8.98588 169.938 8.68044 170.347 8.44519C170.756 8.21039 171.21 8.09266 171.708 8.09266C172.577 8.09266 173.315 8.43342 173.922 9.11517C174.528 9.79647 174.831 10.7459 174.831 11.9634C174.831 13.2137 174.526 14.1855 173.915 14.8786C173.304 15.5719 172.563 15.9186 171.694 15.9186C171.28 15.9186 170.905 15.8365 170.569 15.6716C170.233 15.5072 169.879 15.2251 169.508 14.8257V18.5977H167.527V8.26193Z" fill="#003399"/>
<path d="M177.976 12.0067C177.976 12.7495 178.152 13.3184 178.504 13.7132C178.857 14.1079 179.292 14.3054 179.809 14.3054C180.326 14.3054 180.759 14.1079 181.109 13.7132C181.46 13.3184 181.635 12.7449 181.635 11.9929C181.635 11.2596 181.46 10.6956 181.109 10.3009C180.759 9.90593 180.326 9.70866 179.809 9.70866C179.292 9.70866 178.857 9.90593 178.504 10.3009C178.152 10.6956 177.976 11.2643 177.976 12.0067ZM175.945 11.9012C175.945 11.2432 176.107 10.6063 176.432 9.99056C176.756 9.37479 177.215 8.90452 177.81 8.58064C178.405 8.25609 179.068 8.09393 179.802 8.09393C180.934 8.09393 181.863 8.46202 182.587 9.1973C183.31 9.93281 183.672 10.8625 183.672 11.9858C183.672 13.1185 183.307 14.0575 182.576 14.8023C181.845 15.5474 180.925 15.9199 179.816 15.9199C179.13 15.9199 178.475 15.7649 177.852 15.4545C177.229 15.1444 176.756 14.6897 176.432 14.0902C176.107 13.491 175.945 12.7613 175.945 11.9012Z" fill="#003399"/>
<path d="M187.12 15.75H185.139V8.26255H186.979V9.32705C187.294 8.82412 187.577 8.49291 187.828 8.33297C188.08 8.17325 188.365 8.09328 188.685 8.09328C189.136 8.09328 189.571 8.2179 189.99 8.46714L189.376 10.1943C189.042 9.97814 188.732 9.86995 188.445 9.86995C188.168 9.86995 187.933 9.94637 187.74 10.0992C187.548 10.252 187.396 10.5282 187.286 10.9276C187.175 11.3272 187.12 12.1638 187.12 13.4375V15.75Z" fill="#003399"/>
<path d="M72.1217 33.0781V22.7424H74.1027V33.0781H72.1217Z" fill="#003399"/>
<path d="M80.265 29.4813C80.0111 29.5659 79.6092 29.667 79.0594 29.7843C78.5094 29.9018 78.1497 30.0171 77.9805 30.13C77.7221 30.3132 77.5928 30.5458 77.5928 30.8277C77.5928 31.1051 77.6961 31.3451 77.9032 31.5472C78.1098 31.7492 78.373 31.8502 78.6927 31.8502C79.0499 31.8502 79.3906 31.7329 79.7152 31.4977C79.9546 31.319 80.1121 31.1004 80.1874 30.8421C80.239 30.6728 80.265 30.351 80.265 29.8761V29.4813ZM77.6139 27.8739L75.8162 27.5496C76.0181 26.8258 76.3662 26.2901 76.8596 25.9419C77.3531 25.5943 78.0864 25.4203 79.0594 25.4203C79.9429 25.4203 80.6008 25.5247 81.0333 25.734C81.4658 25.9432 81.7702 26.2088 81.9466 26.5309C82.1227 26.8527 82.2107 27.4436 82.2107 28.304L82.1898 30.6164C82.1898 31.2744 82.2213 31.7598 82.2849 32.0723C82.3482 32.3849 82.467 32.7199 82.641 33.0769H80.681C80.629 32.9456 80.5657 32.7504 80.4904 32.4918C80.4578 32.3742 80.434 32.297 80.4202 32.2591C80.0817 32.5882 79.7196 32.835 79.3342 32.9993C78.949 33.1639 78.5376 33.2461 78.1004 33.2461C77.3296 33.2461 76.722 33.0371 76.278 32.6188C75.8337 32.2003 75.6116 31.6716 75.6116 31.0323C75.6116 30.6093 75.7126 30.2321 75.9148 29.9009C76.1169 29.5692 76.4002 29.3156 76.7645 29.1395C77.1286 28.963 77.6539 28.8094 78.3401 28.6777C79.266 28.5039 79.9078 28.3415 80.265 28.1911V27.9939C80.265 27.6128 80.171 27.3414 79.9828 27.1795C79.7949 27.0172 79.4402 26.936 78.9183 26.936C78.5658 26.936 78.2908 27.0053 78.0933 27.1439C77.8958 27.2828 77.7363 27.526 77.6139 27.8739Z" fill="#003399"/>
<path d="M88.1754 22.742H90.2622V28.3399C90.2622 29.2283 90.288 29.8041 90.3397 30.0673C90.4288 30.4903 90.6416 30.8299 90.9777 31.0862C91.3138 31.3424 91.7732 31.4704 92.3561 31.4704C92.9483 31.4704 93.3948 31.3492 93.6956 31.1071C93.9964 30.8655 94.1774 30.568 94.2387 30.2155C94.2996 29.8629 94.3303 29.2776 94.3303 28.4597V22.742H96.417V28.1709C96.417 29.4118 96.3608 30.2883 96.248 30.8006C96.1351 31.3129 95.927 31.7454 95.624 32.0977C95.3208 32.4504 94.9156 32.7312 94.4078 32.9402C93.9002 33.1495 93.2373 33.2539 92.4194 33.2539C91.4324 33.2539 90.684 33.1401 90.174 32.912C89.664 32.6843 89.261 32.3883 88.9651 32.0237C88.6688 31.6596 88.4738 31.2777 88.3798 30.8781C88.2434 30.2859 88.1754 29.4118 88.1754 28.2553V22.742Z" fill="#003399"/>
<path d="M105.413 33.0781H103.432V29.2569C103.432 28.4487 103.39 27.9256 103.305 27.6883C103.221 27.4509 103.083 27.2662 102.893 27.1347C102.702 27.0032 102.473 26.9372 102.206 26.9372C101.862 26.9372 101.554 27.0315 101.282 27.2192C101.009 27.4073 100.822 27.6565 100.721 27.9669C100.62 28.2769 100.57 28.8503 100.57 29.6871V33.0781H98.5886V25.5906H100.429V26.6907C101.082 25.8445 101.905 25.4216 102.896 25.4216C103.334 25.4216 103.733 25.5002 104.095 25.6578C104.457 25.8153 104.731 26.0161 104.916 26.2604C105.102 26.5049 105.231 26.7825 105.304 27.0926C105.377 27.4029 105.413 27.8469 105.413 28.4249V33.0781Z" fill="#003399"/>
<path d="M107.423 33.0781V25.5906H109.404V33.0781H107.423ZM107.423 24.5755V22.7424H109.404V24.5755H107.423Z" fill="#003399"/>
<path d="M113.839 24.6729L114.812 22.5648H117.032L115.094 24.6729H113.839ZM113.007 29.3331C113.007 30.076 113.183 30.6446 113.535 31.0396C113.888 31.4343 114.323 31.6318 114.84 31.6318C115.357 31.6318 115.79 31.4343 116.141 31.0396C116.491 30.6446 116.666 30.071 116.666 29.3192C116.666 28.5861 116.491 28.0221 116.141 27.6271C115.79 27.2323 115.357 27.0349 114.84 27.0349C114.323 27.0349 113.888 27.2323 113.535 27.6271C113.183 28.0221 113.007 28.5905 113.007 29.3331ZM110.976 29.2274C110.976 28.5694 111.138 27.9325 111.463 27.317C111.787 26.701 112.246 26.231 112.841 25.9069C113.436 25.5823 114.099 25.4203 114.833 25.4203C115.965 25.4203 116.894 25.7883 117.618 26.5235C118.341 27.2592 118.704 28.1889 118.704 29.312C118.704 30.445 118.338 31.3837 117.607 32.1288C116.876 32.8736 115.956 33.2461 114.847 33.2461C114.161 33.2461 113.506 33.0911 112.883 32.7807C112.261 32.4707 111.787 32.0159 111.463 31.4166C111.138 30.8175 110.976 30.0875 110.976 29.2274Z" fill="#003399"/>
<path d="M127.065 33.0781H125.084V29.2569C125.084 28.4487 125.042 27.9256 124.957 27.6883C124.873 27.4509 124.735 27.2662 124.545 27.1347C124.354 27.0032 124.125 26.9372 123.857 26.9372C123.514 26.9372 123.206 27.0315 122.934 27.2192C122.661 27.4073 122.474 27.6565 122.373 27.9669C122.272 28.2769 122.222 28.8503 122.222 29.6871V33.0781H120.24V25.5906H122.081V26.6907C122.734 25.8445 123.556 25.4216 124.548 25.4216C124.985 25.4216 125.385 25.5002 125.747 25.6578C126.109 25.8153 126.382 26.0161 126.568 26.2604C126.754 26.5049 126.883 26.7825 126.956 27.0926C127.029 27.4029 127.065 27.8469 127.065 28.4249V33.0781Z" fill="#003399"/>
<path d="M133.1 33.0781V22.7424H140.764V24.4908H135.187V26.7825H140.376V28.5238H135.187V31.3367H140.961V33.0781H133.1Z" fill="#003399"/>
<path d="M147.645 33.0769V31.9559C147.372 32.3554 147.014 32.6704 146.57 32.9007C146.126 33.131 145.657 33.2461 145.163 33.2461C144.66 33.2461 144.209 33.1357 143.81 32.9147C143.41 32.6939 143.121 32.3836 142.943 31.9841C142.764 31.5847 142.675 31.0323 142.675 30.3275V25.5894H144.656V29.0301C144.656 30.0831 144.692 30.7279 144.765 30.9654C144.838 31.2029 144.971 31.3908 145.163 31.5295C145.356 31.6683 145.601 31.7374 145.897 31.7374C146.235 31.7374 146.538 31.6445 146.806 31.4588C147.074 31.2733 147.258 31.0429 147.356 30.7679C147.455 30.4931 147.504 29.8196 147.504 28.748V25.5894H149.485V33.0769H147.645Z" fill="#003399"/>
<path d="M153.433 33.0781H151.452V25.5906H153.292V26.6551C153.607 26.1525 153.89 25.8213 154.142 25.6613C154.393 25.5016 154.679 25.4216 154.999 25.4216C155.45 25.4216 155.885 25.546 156.303 25.7952L155.69 27.5226C155.356 27.3065 155.045 27.1983 154.759 27.1983C154.481 27.1983 154.247 27.2745 154.054 27.4273C153.861 27.5802 153.71 27.8564 153.599 28.2557C153.488 28.6553 153.433 29.4921 153.433 30.7656V33.0781Z" fill="#003399"/>
<path d="M158.728 29.3331C158.728 30.076 158.904 30.6446 159.257 31.0396C159.61 31.4343 160.044 31.6318 160.561 31.6318C161.078 31.6318 161.512 31.4343 161.862 31.0396C162.212 30.6446 162.387 30.071 162.387 29.3192C162.387 28.5861 162.212 28.0221 161.862 27.6271C161.512 27.2323 161.078 27.0349 160.561 27.0349C160.044 27.0349 159.61 27.2323 159.257 27.6271C158.904 28.0221 158.728 28.5905 158.728 29.3331ZM156.698 29.2274C156.698 28.5694 156.86 27.9325 157.184 27.317C157.508 26.701 157.968 26.231 158.562 25.9069C159.157 25.5823 159.821 25.4203 160.554 25.4203C161.687 25.4203 162.615 25.7883 163.339 26.5235C164.063 27.2592 164.425 28.1889 164.425 29.312C164.425 30.445 164.059 31.3837 163.328 32.1288C162.598 32.8736 161.678 33.2461 160.568 33.2461C159.882 33.2461 159.227 33.0911 158.605 32.7807C157.982 32.4707 157.508 32.0159 157.184 31.4166C156.86 30.8175 156.698 30.0875 156.698 29.2274Z" fill="#003399"/>
<path d="M167.879 29.2069C167.879 30.0482 168.046 30.6697 168.38 31.0716C168.714 31.4735 169.12 31.6742 169.6 31.6742C170.06 31.6742 170.443 31.4898 170.749 31.1209C171.055 30.7521 171.207 30.1468 171.207 29.3053C171.207 28.5205 171.05 27.9379 170.735 27.5568C170.42 27.1763 170.03 26.986 169.565 26.986C169.08 26.986 168.679 27.1725 168.359 27.5464C168.039 27.9201 167.879 28.4736 167.879 29.2069ZM165.92 25.5898H167.767V26.6899C168.007 26.3137 168.331 26.0083 168.74 25.7733C169.148 25.5382 169.602 25.4207 170.1 25.4207C170.97 25.4207 171.708 25.7615 172.314 26.443C172.921 27.1245 173.224 28.074 173.224 29.2913C173.224 30.5415 172.918 31.5133 172.307 32.2067C171.696 32.9 170.956 33.2465 170.086 33.2465C169.673 33.2465 169.298 33.1643 168.962 32.9997C168.626 32.8353 168.272 32.5533 167.901 32.1536V35.9258H165.92V25.5898Z" fill="#003399"/>
<path d="M179.245 28.6916C179.23 28.1182 179.083 27.6822 178.801 27.3839C178.519 27.0855 178.175 26.936 177.771 26.936C177.339 26.936 176.981 27.0938 176.699 27.4085C176.417 27.7235 176.279 28.1514 176.284 28.6916H179.245ZM179.132 30.694L181.106 31.0252C180.852 31.7492 180.451 32.3003 179.904 32.6786C179.356 33.0571 178.671 33.2461 177.849 33.2461C176.547 33.2461 175.583 32.8207 174.958 31.9702C174.464 31.2887 174.218 30.4285 174.218 29.3895C174.218 28.1487 174.542 27.1771 175.191 26.4744C175.839 25.7718 176.659 25.4203 177.651 25.4203C178.765 25.4203 179.644 25.7883 180.288 26.5235C180.932 27.2592 181.24 28.3862 181.211 29.9043H176.248C176.262 30.4921 176.422 30.949 176.728 31.2756C177.033 31.6023 177.414 31.7656 177.87 31.7656C178.18 31.7656 178.441 31.681 178.652 31.5119C178.864 31.3426 179.024 31.0701 179.132 30.694Z" fill="#003399"/>
<path d="M186.958 29.4813C186.704 29.5659 186.302 29.667 185.752 29.7843C185.202 29.9018 184.843 30.0171 184.673 30.13C184.415 30.3132 184.286 30.5458 184.286 30.8277C184.286 31.1051 184.389 31.3451 184.596 31.5472C184.803 31.7492 185.066 31.8502 185.386 31.8502C185.743 31.8502 186.083 31.7329 186.408 31.4977C186.648 31.319 186.805 31.1004 186.88 30.8421C186.932 30.6728 186.958 30.351 186.958 29.8761V29.4813ZM184.307 27.8739L182.509 27.5496C182.711 26.8258 183.059 26.2901 183.552 25.9419C184.046 25.5943 184.779 25.4203 185.752 25.4203C186.636 25.4203 187.294 25.5247 187.726 25.734C188.159 25.9432 188.463 26.2088 188.639 26.5309C188.816 26.8527 188.904 27.4436 188.904 28.304L188.882 30.6164C188.882 31.2744 188.914 31.7598 188.978 32.0723C189.041 32.3849 189.16 32.7199 189.334 33.0769H187.374C187.322 32.9456 187.259 32.7504 187.183 32.4918C187.151 32.3742 187.127 32.297 187.113 32.2591C186.775 32.5882 186.412 32.835 186.027 32.9993C185.642 33.1639 185.23 33.2461 184.793 33.2461C184.022 33.2461 183.415 33.0371 182.971 32.6188C182.527 32.2003 182.304 31.6716 182.304 31.0323C182.304 30.6093 182.406 30.2321 182.608 29.9009C182.81 29.5692 183.093 29.3156 183.457 29.1395C183.821 28.963 184.347 28.8094 185.033 28.6777C185.959 28.5039 186.601 28.3415 186.958 28.1911V27.9939C186.958 27.6128 186.864 27.3414 186.676 27.1795C186.488 27.0172 186.133 26.936 185.611 26.936C185.259 26.936 184.984 27.0053 184.786 27.1439C184.589 27.2828 184.429 27.526 184.307 27.8739Z" fill="#003399"/>
</g>
<defs>
<clipPath id="clip0_12200_54420">
<rect width="189.99" height="42" fill="white"/>
</clipPath>
</defs>
</svg>
