<svg width="679" height="767" viewBox="0 0 679 767" fill="none" xmlns="http://www.w3.org/2000/svg">
<rect width="679" height="767" fill="white"/>
<g opacity="0.4">
<mask id="path-1-outside-1_1270_3881" maskUnits="userSpaceOnUse" x="152" y="159.223" width="418" height="114" fill="black">
<rect fill="white" x="152" y="159.223" width="418" height="114"/>
<path d="M152 159.223H570V272.223H152V159.223Z"/>
</mask>
<path d="M152 159.223H570V272.223H152V159.223Z" fill="white"/>
<path d="M570 271.223H152V273.223H570V271.223Z" fill="#92949B" mask="url(#path-1-outside-1_1270_3881)"/>
</g>
<rect x="257" y="393" width="32.3254" height="4" rx="2" fill="#92949B"/>
<rect x="265" y="401" width="27" height="4" rx="2" fill="#92949B"/>
<rect x="265" y="409" width="27" height="4" rx="2" fill="#92949B"/>
<rect x="265" y="417" width="32" height="4" rx="2" fill="#92949B"/>
<rect x="265" y="425" width="24" height="4" rx="2" fill="#92949B"/>
<rect x="257" y="433" width="32.3254" height="4" rx="2" fill="#92949B"/>
<rect x="265" y="441" width="27" height="4" rx="2" fill="#92949B"/>
<rect x="265" y="449" width="27" height="4" rx="2" fill="#92949B"/>
<rect x="265" y="457" width="32" height="4" rx="2" fill="#92949B"/>
<rect x="265" y="465" width="24" height="4" rx="2" fill="#92949B"/>
<rect x="257" y="473" width="32.3254" height="4" rx="2" fill="#92949B"/>
<rect x="265" y="481" width="32" height="4" rx="2" fill="#92949B"/>
<rect x="265" y="489" width="24" height="4" rx="2" fill="#92949B"/>
<path d="M529 384H487" stroke="#739BA5" stroke-width="2"/>
<rect x="520" y="360" width="47.5531" height="47.5531" rx="23.7766" fill="#739BA5"/>
<path d="M539.956 392.777H536.335V382.863C536.335 382.589 536.339 382.253 536.347 381.855C536.354 381.448 536.366 381.034 536.382 380.613C536.397 380.183 536.413 379.796 536.429 379.452C536.343 379.554 536.167 379.73 535.901 379.98C535.644 380.222 535.401 380.441 535.175 380.636L533.206 382.218L531.46 380.038L536.979 375.644H539.956V392.777ZM553.69 392.777H550.069V382.863C550.069 382.589 550.073 382.253 550.081 381.855C550.089 381.448 550.101 381.034 550.116 380.613C550.132 380.183 550.147 379.796 550.163 379.452C550.077 379.554 549.901 379.73 549.636 379.98C549.378 380.222 549.136 380.441 548.909 380.636L546.94 382.218L545.194 380.038L550.714 375.644H553.69V392.777Z" fill="white"/>
<rect x="153" y="145" width="418" height="551" stroke="#739BA5" stroke-width="2"/>
<path d="M163 293H106" stroke="#739BA5" stroke-width="2"/>
<rect x="82" y="269" width="47.5531" height="47.5531" rx="23.7766" fill="#739BA5"/>
<path d="M101.569 301.777L108.003 287.691H99.5537V284.644H111.847V286.917L105.366 301.777H101.569Z" fill="white"/>
<rect x="222" y="323" width="278" height="244" stroke="#739BA5" stroke-width="2" stroke-dasharray="4 4"/>
<rect x="320" y="377" width="167" height="176" stroke="#739BA5" stroke-width="2" stroke-dasharray="4 4"/>
<g opacity="0.4">
<rect x="338" y="453" width="97" height="8" rx="4" fill="#1F2331"/>
<rect x="338" y="469" width="121" height="8" rx="4" fill="#92949B"/>
<rect x="338" y="485" width="108" height="8" rx="4" fill="#92949B"/>
<rect x="338" y="501" width="115" height="8" rx="4" fill="#92949B"/>
</g>
<rect x="329" y="441" width="147" height="79" stroke="#1F2331" stroke-width="2"/>
<path d="M615 477H475" stroke="#1F2331" stroke-width="2"/>
<rect x="592.5" y="452.5" width="46.5531" height="46.5531" rx="23.2766" fill="#1F2331"/>
<path d="M611.956 484.777H608.335V474.863C608.335 474.589 608.339 474.253 608.347 473.855C608.354 473.448 608.366 473.034 608.382 472.613C608.397 472.183 608.413 471.796 608.429 471.452C608.343 471.554 608.167 471.73 607.901 471.98C607.644 472.222 607.401 472.441 607.175 472.636L605.206 474.218L603.46 472.038L608.979 467.644H611.956V484.777ZM628.046 471.476C628.046 472.265 627.882 472.948 627.554 473.527C627.226 474.105 626.78 474.577 626.218 474.945C625.663 475.312 625.038 475.581 624.343 475.753V475.823C625.718 475.995 626.761 476.417 627.472 477.089C628.19 477.761 628.55 478.659 628.55 479.784C628.55 480.784 628.304 481.679 627.812 482.468C627.327 483.257 626.577 483.878 625.562 484.331C624.546 484.784 623.237 485.011 621.636 485.011C620.69 485.011 619.808 484.933 618.987 484.777C618.175 484.628 617.409 484.398 616.69 484.085V481.003C617.425 481.378 618.194 481.663 618.999 481.859C619.804 482.046 620.554 482.14 621.249 482.14C622.546 482.14 623.452 481.917 623.968 481.472C624.491 481.019 624.753 480.386 624.753 479.573C624.753 479.097 624.632 478.695 624.39 478.366C624.147 478.038 623.726 477.788 623.124 477.616C622.53 477.445 621.698 477.359 620.628 477.359H619.327V474.581H620.651C621.706 474.581 622.507 474.484 623.054 474.288C623.608 474.085 623.983 473.812 624.179 473.468C624.382 473.116 624.483 472.718 624.483 472.273C624.483 471.663 624.296 471.187 623.921 470.843C623.546 470.499 622.921 470.327 622.046 470.327C621.499 470.327 620.999 470.398 620.546 470.538C620.101 470.671 619.698 470.835 619.339 471.03C618.979 471.218 618.663 471.402 618.39 471.581L616.714 469.085C617.386 468.601 618.171 468.198 619.069 467.878C619.976 467.558 621.054 467.398 622.304 467.398C624.069 467.398 625.468 467.753 626.499 468.464C627.53 469.175 628.046 470.179 628.046 471.476Z" fill="white"/>
<rect x="592.5" y="452.5" width="46.5531" height="46.5531" rx="23.2766" stroke="#5E616B"/>
<path d="M221 346H110" stroke="#739BA5" stroke-width="2"/>
<rect x="82" y="321" width="47.5531" height="47.5531" rx="23.7766" fill="#739BA5"/>
<path d="M105.776 336.421C106.761 336.421 107.667 336.573 108.495 336.878C109.331 337.183 109.999 337.644 110.499 338.261C110.999 338.87 111.249 339.636 111.249 340.558C111.249 341.245 111.112 341.847 110.839 342.363C110.573 342.878 110.21 343.331 109.749 343.722C109.288 344.105 108.765 344.441 108.179 344.73C108.788 345.05 109.366 345.425 109.913 345.855C110.46 346.277 110.905 346.773 111.249 347.343C111.601 347.913 111.776 348.577 111.776 349.335C111.776 350.288 111.522 351.116 111.015 351.82C110.507 352.515 109.804 353.054 108.905 353.437C108.007 353.82 106.964 354.011 105.776 354.011C104.495 354.011 103.405 353.827 102.507 353.46C101.608 353.093 100.925 352.57 100.456 351.89C99.9873 351.202 99.7529 350.382 99.7529 349.429C99.7529 348.648 99.8975 347.968 100.187 347.39C100.483 346.812 100.882 346.316 101.382 345.902C101.882 345.48 102.433 345.12 103.034 344.823C102.526 344.503 102.062 344.14 101.64 343.734C101.226 343.327 100.894 342.863 100.644 342.339C100.401 341.816 100.28 341.214 100.28 340.534C100.28 339.628 100.534 338.87 101.042 338.261C101.558 337.652 102.233 337.195 103.069 336.89C103.905 336.577 104.808 336.421 105.776 336.421ZM103.104 349.218C103.104 349.835 103.323 350.347 103.761 350.753C104.206 351.152 104.862 351.351 105.729 351.351C106.628 351.351 107.3 351.159 107.745 350.777C108.19 350.386 108.413 349.874 108.413 349.241C108.413 348.804 108.284 348.421 108.026 348.093C107.776 347.765 107.46 347.472 107.077 347.214C106.694 346.948 106.308 346.702 105.917 346.476L105.601 346.312C105.101 346.538 104.663 346.792 104.288 347.073C103.921 347.355 103.632 347.671 103.421 348.023C103.21 348.374 103.104 348.773 103.104 349.218ZM105.753 339.07C105.159 339.07 104.667 339.222 104.276 339.527C103.886 339.831 103.69 340.261 103.69 340.816C103.69 341.206 103.784 341.55 103.972 341.847C104.167 342.136 104.421 342.39 104.733 342.609C105.054 342.827 105.401 343.03 105.776 343.218C106.136 343.046 106.472 342.855 106.784 342.644C107.097 342.433 107.351 342.179 107.546 341.882C107.741 341.585 107.839 341.23 107.839 340.816C107.839 340.261 107.64 339.831 107.241 339.527C106.851 339.222 106.354 339.07 105.753 339.07Z" fill="white"/>
<rect opacity="0.4" x="252" y="341" width="47" height="4" rx="2" fill="#1F2331"/>
<rect opacity="0.4" x="252" y="349" width="47" height="4" rx="2" fill="white"/>
<rect x="243" y="335" width="233" height="24" stroke="#1AA23A" stroke-width="2"/>
<rect opacity="0.4" x="338" y="404" width="47" height="4" rx="2" fill="#1F2331"/>
<rect opacity="0.4" x="338" y="412" width="47" height="4" rx="2" fill="white"/>
<rect x="329" y="398" width="145" height="24" stroke="#1AA23A" stroke-width="2"/>
<path d="M609 346H475" stroke="#1AA23A" stroke-width="2"/>
<path d="M609 411H475" stroke="#1AA23A" stroke-width="2"/>
<rect x="592" y="323" width="47.5531" height="47.5531" rx="23.7766" fill="#1AA23A"/>
<path d="M621.776 345.956C621.776 346.941 621.702 347.917 621.554 348.886C621.413 349.855 621.163 350.769 620.804 351.628C620.444 352.48 619.94 353.238 619.292 353.902C618.644 354.558 617.819 355.073 616.819 355.448C615.819 355.823 614.608 356.011 613.187 356.011C612.851 356.011 612.456 355.995 612.003 355.964C611.55 355.941 611.175 355.902 610.878 355.847V352.941C611.19 353.019 611.522 353.081 611.874 353.128C612.226 353.167 612.581 353.187 612.94 353.187C614.37 353.187 615.472 352.96 616.245 352.507C617.026 352.054 617.573 351.425 617.886 350.62C618.206 349.816 618.39 348.886 618.437 347.831H618.296C618.069 348.206 617.8 348.546 617.487 348.851C617.183 349.148 616.792 349.386 616.315 349.566C615.839 349.738 615.233 349.823 614.499 349.823C613.522 349.823 612.671 349.613 611.944 349.191C611.226 348.761 610.667 348.144 610.269 347.339C609.878 346.527 609.683 345.546 609.683 344.398C609.683 343.155 609.917 342.093 610.386 341.21C610.862 340.32 611.538 339.636 612.413 339.159C613.288 338.683 614.319 338.445 615.507 338.445C616.382 338.445 617.198 338.597 617.956 338.902C618.714 339.198 619.378 339.655 619.948 340.273C620.526 340.89 620.976 341.671 621.296 342.616C621.616 343.562 621.776 344.675 621.776 345.956ZM615.577 341.351C614.874 341.351 614.3 341.593 613.854 342.077C613.409 342.562 613.187 343.32 613.187 344.351C613.187 345.179 613.378 345.835 613.761 346.32C614.144 346.804 614.726 347.046 615.507 347.046C616.046 347.046 616.515 346.929 616.913 346.695C617.312 346.452 617.62 346.152 617.839 345.792C618.065 345.425 618.179 345.05 618.179 344.667C618.179 344.269 618.124 343.874 618.015 343.484C617.905 343.093 617.741 342.738 617.522 342.417C617.304 342.097 617.03 341.839 616.702 341.644C616.382 341.448 616.007 341.351 615.577 341.351Z" fill="white"/>
<rect x="592" y="388" width="47.5531" height="47.5531" rx="23.7766" fill="#1AA23A"/>
<path d="M611.956 420.777H608.335V410.863C608.335 410.589 608.339 410.253 608.347 409.855C608.354 409.448 608.366 409.034 608.382 408.613C608.397 408.183 608.413 407.796 608.429 407.452C608.343 407.554 608.167 407.73 607.901 407.98C607.644 408.222 607.401 408.441 607.175 408.636L605.206 410.218L603.46 408.038L608.979 403.644H611.956V420.777ZM628.714 420.777H616.737V418.257L621.038 413.909C621.905 413.019 622.601 412.277 623.124 411.683C623.655 411.081 624.038 410.534 624.272 410.042C624.515 409.55 624.636 409.023 624.636 408.46C624.636 407.78 624.444 407.273 624.062 406.937C623.687 406.593 623.183 406.421 622.55 406.421C621.886 406.421 621.241 406.573 620.616 406.878C619.991 407.183 619.339 407.616 618.659 408.179L616.69 405.847C617.183 405.425 617.702 405.027 618.249 404.652C618.804 404.277 619.444 403.976 620.171 403.749C620.905 403.515 621.784 403.398 622.808 403.398C623.933 403.398 624.897 403.601 625.702 404.007C626.515 404.413 627.14 404.968 627.577 405.671C628.015 406.366 628.233 407.155 628.233 408.038C628.233 408.984 628.046 409.847 627.671 410.628C627.296 411.409 626.749 412.183 626.03 412.948C625.319 413.714 624.46 414.562 623.452 415.491L621.249 417.566V417.73H628.714V420.777Z" fill="white"/>
<rect x="244" y="377" width="67" height="131" stroke="#00607A" stroke-width="2"/>
<g opacity="0.4">
<mask id="path-49-inside-2_1270_3881" fill="white">
<path d="M154 584H570V695H154V584Z"/>
</mask>
<path d="M154 584H570V695H154V584Z" fill="#F6F6F5"/>
<path d="M154 585H570V583H154V585Z" fill="#92949B" mask="url(#path-49-inside-2_1270_3881)"/>
</g>
<rect x="164" y="588" width="393" height="59" stroke="#92949B" stroke-width="2"/>
<path d="M163 613H89" stroke="#5E616B" stroke-width="2"/>
<rect x="82" y="589" width="47.5531" height="47.5531" rx="23.7766" fill="#92949B"/>
<path d="M101.956 621.777H98.335V611.863C98.335 611.589 98.3389 611.253 98.3467 610.855C98.3545 610.448 98.3662 610.034 98.3818 609.613C98.3975 609.183 98.4131 608.796 98.4287 608.452C98.3428 608.554 98.167 608.73 97.9014 608.98C97.6436 609.222 97.4014 609.441 97.1748 609.636L95.2061 611.218L93.46 609.038L98.9795 604.644H101.956V621.777ZM119.101 618.226H117.038V621.777H113.499V618.226H106.187V615.706L113.698 604.644H117.038V615.413H119.101V618.226ZM113.499 615.413V612.507C113.499 612.234 113.503 611.909 113.511 611.534C113.526 611.159 113.542 610.784 113.558 610.409C113.573 610.034 113.589 609.702 113.604 609.413C113.628 609.116 113.644 608.909 113.651 608.792H113.558C113.409 609.113 113.253 609.425 113.089 609.73C112.925 610.027 112.733 610.339 112.515 610.667L109.374 615.413H113.499Z" fill="white"/>
<path d="M163 671H104" stroke="#739BA5" stroke-width="2"/>
<rect x="82.5" y="647.5" width="46.5531" height="46.5531" rx="23.2766" fill="#739BA5"/>
<path d="M101.956 679.777H98.335V669.863C98.335 669.589 98.3389 669.253 98.3467 668.855C98.3545 668.448 98.3662 668.034 98.3818 667.613C98.3975 667.183 98.4131 666.796 98.4287 666.452C98.3428 666.554 98.167 666.73 97.9014 666.98C97.6436 667.222 97.4014 667.441 97.1748 667.636L95.2061 669.218L93.46 667.038L98.9795 662.644H101.956V679.777ZM112.972 668.831C114.019 668.831 114.948 669.03 115.761 669.429C116.581 669.827 117.226 670.413 117.694 671.187C118.163 671.96 118.397 672.913 118.397 674.046C118.397 675.28 118.14 676.347 117.624 677.245C117.116 678.136 116.354 678.82 115.339 679.296C114.331 679.773 113.073 680.011 111.565 680.011C110.667 680.011 109.819 679.933 109.022 679.777C108.233 679.628 107.542 679.398 106.948 679.085V675.956C107.542 676.269 108.253 676.534 109.081 676.753C109.917 676.964 110.702 677.07 111.437 677.07C112.155 677.07 112.761 676.976 113.253 676.788C113.745 676.593 114.116 676.296 114.366 675.898C114.624 675.491 114.753 674.976 114.753 674.351C114.753 673.515 114.472 672.874 113.909 672.429C113.347 671.984 112.483 671.761 111.319 671.761C110.874 671.761 110.409 671.804 109.925 671.89C109.448 671.976 109.05 672.062 108.729 672.148L107.288 671.374L107.933 662.644H117.226V665.714H111.108L110.792 669.077C111.058 669.023 111.347 668.968 111.659 668.913C111.972 668.859 112.409 668.831 112.972 668.831Z" fill="white"/>
<rect x="82.5" y="647.5" width="46.5531" height="46.5531" rx="23.2766" stroke="#739BA5"/>
<path d="M152 160.223L152 95.2234" stroke="#739BA5" stroke-width="2"/>
<rect x="163" y="156" width="394" height="112" stroke="#92949B" stroke-width="2"/>
<path d="M174 206H106" stroke="#739BA5" stroke-width="2"/>
<rect x="82" y="182" width="47.5531" height="47.5531" rx="23.7766" fill="#739BA5"/>
<path d="M112.233 211.226H110.171V214.777H106.632V211.226H99.3193V208.706L106.831 197.644H110.171V208.413H112.233V211.226ZM106.632 208.413V205.507C106.632 205.234 106.636 204.909 106.644 204.534C106.659 204.159 106.675 203.784 106.69 203.409C106.706 203.034 106.722 202.702 106.737 202.413C106.761 202.116 106.776 201.909 106.784 201.792H106.69C106.542 202.113 106.386 202.425 106.222 202.73C106.058 203.027 105.866 203.339 105.647 203.667L102.507 208.413H106.632Z" fill="white"/>
<path d="M173 177.223H79" stroke="#739BA5" stroke-width="2"/>
<rect x="39" y="153.223" width="47.5531" height="47.5531" rx="23.7766" fill="#739BA5"/>
<path d="M68.1787 172.699C68.1787 173.488 68.0146 174.172 67.6865 174.75C67.3584 175.328 66.9131 175.801 66.3506 176.168C65.7959 176.535 65.1709 176.805 64.4756 176.977V177.047C65.8506 177.219 66.8936 177.641 67.6045 178.312C68.3232 178.984 68.6826 179.883 68.6826 181.008C68.6826 182.008 68.4365 182.902 67.9443 183.691C67.46 184.48 66.71 185.102 65.6943 185.555C64.6787 186.008 63.3701 186.234 61.7686 186.234C60.8232 186.234 59.9404 186.156 59.1201 186C58.3076 185.852 57.542 185.621 56.8232 185.309V182.227C57.5576 182.602 58.3271 182.887 59.1318 183.082C59.9365 183.27 60.6865 183.363 61.3818 183.363C62.6787 183.363 63.585 183.141 64.1006 182.695C64.624 182.242 64.8857 181.609 64.8857 180.797C64.8857 180.32 64.7646 179.918 64.5225 179.59C64.2803 179.262 63.8584 179.012 63.2568 178.84C62.6631 178.668 61.8311 178.582 60.7607 178.582H59.46V175.805H60.7842C61.8389 175.805 62.6396 175.707 63.1865 175.512C63.7412 175.309 64.1162 175.035 64.3115 174.691C64.5146 174.34 64.6162 173.941 64.6162 173.496C64.6162 172.887 64.4287 172.41 64.0537 172.066C63.6787 171.723 63.0537 171.551 62.1787 171.551C61.6318 171.551 61.1318 171.621 60.6787 171.762C60.2334 171.895 59.8311 172.059 59.4717 172.254C59.1123 172.441 58.7959 172.625 58.5225 172.805L56.8467 170.309C57.5186 169.824 58.3037 169.422 59.2021 169.102C60.1084 168.781 61.1865 168.621 62.4365 168.621C64.2021 168.621 65.6006 168.977 66.6318 169.688C67.6631 170.398 68.1787 171.402 68.1787 172.699Z" fill="white"/>
<path d="M151 142C151 139.239 153.239 137 156 137H568C570.761 137 573 139.239 573 142V147H151V142Z" fill="#5E616B"/>
<circle cx="159" cy="142" r="2" fill="white"/>
<circle cx="165" cy="142" r="2" fill="white"/>
<path d="M191 155L191 115" stroke="#92949B" stroke-width="2"/>
<rect x="167" y="82.2234" width="47.5531" height="47.5531" rx="23.7766" fill="#92949B"/>
<path d="M196.847 115H184.87V112.48L189.171 108.133C190.038 107.242 190.733 106.5 191.257 105.906C191.788 105.305 192.171 104.758 192.405 104.266C192.647 103.773 192.769 103.246 192.769 102.684C192.769 102.004 192.577 101.496 192.194 101.16C191.819 100.816 191.315 100.645 190.683 100.645C190.019 100.645 189.374 100.797 188.749 101.102C188.124 101.406 187.472 101.84 186.792 102.402L184.823 100.07C185.315 99.6484 185.835 99.25 186.382 98.875C186.937 98.5 187.577 98.1992 188.304 97.9727C189.038 97.7383 189.917 97.6211 190.94 97.6211C192.065 97.6211 193.03 97.8242 193.835 98.2305C194.647 98.6367 195.272 99.1914 195.71 99.8945C196.147 100.59 196.366 101.379 196.366 102.262C196.366 103.207 196.179 104.07 195.804 104.852C195.429 105.633 194.882 106.406 194.163 107.172C193.452 107.938 192.593 108.785 191.585 109.715L189.382 111.789V111.953H196.847V115Z" fill="white"/>
<rect x="127" y="48" width="47.5531" height="47.5531" rx="23.7766" fill="#739BA5"/>
<path d="M153.823 80.7766H150.202V70.8625C150.202 70.5891 150.206 70.2531 150.214 69.8547C150.222 69.4485 150.233 69.0344 150.249 68.6125C150.265 68.1828 150.28 67.7961 150.296 67.4524C150.21 67.5539 150.034 67.7297 149.769 67.9797C149.511 68.2219 149.269 68.4406 149.042 68.636L147.073 70.218L145.327 68.0383L150.847 63.6438H153.823V80.7766Z" fill="white"/>
<line x1="174.5" y1="169" x2="174.5" y2="185" stroke="#739BA5" stroke-width="3"/>
<line x1="173" y1="169.5" x2="183" y2="169.5" stroke="#739BA5" stroke-width="3"/>
<line x1="173" y1="184.5" x2="183" y2="184.5" stroke="#739BA5" stroke-width="3"/>
<line x1="163.5" y1="286" x2="163.5" y2="302" stroke="#739BA5" stroke-width="3"/>
<line x1="162" y1="286.5" x2="172" y2="286.5" stroke="#739BA5" stroke-width="3"/>
<line x1="162" y1="301.5" x2="172" y2="301.5" stroke="#739BA5" stroke-width="3"/>
<line x1="163.5" y1="664" x2="163.5" y2="680" stroke="#739BA5" stroke-width="3"/>
<line x1="162" y1="664.5" x2="172" y2="664.5" stroke="#739BA5" stroke-width="3"/>
<line x1="162" y1="679.5" x2="172" y2="679.5" stroke="#739BA5" stroke-width="3"/>
<line x1="174.5" y1="197" x2="174.5" y2="213" stroke="#739BA5" stroke-width="3"/>
<line x1="173" y1="197.5" x2="183" y2="197.5" stroke="#739BA5" stroke-width="3"/>
<line x1="173" y1="212.5" x2="183" y2="212.5" stroke="#739BA5" stroke-width="3"/>
<rect x="428" y="237" width="50" height="8" rx="4" fill="#D6EAF0"/>
<path d="M219 242L77 242" stroke="#1F2331" stroke-width="2"/>
<rect x="37" y="218" width="47.5531" height="47.5531" rx="23.7766" fill="#1F2331"/>
<path d="M61.1045 239.831C62.1514 239.831 63.0811 240.03 63.8936 240.429C64.7139 240.827 65.3584 241.413 65.8271 242.187C66.2959 242.96 66.5303 243.913 66.5303 245.046C66.5303 246.28 66.2725 247.347 65.7568 248.245C65.249 249.136 64.4873 249.82 63.4717 250.296C62.4639 250.773 61.2061 251.011 59.6982 251.011C58.7998 251.011 57.9521 250.933 57.1553 250.777C56.3662 250.628 55.6748 250.398 55.0811 250.085V246.956C55.6748 247.269 56.3857 247.534 57.2139 247.753C58.0498 247.964 58.835 248.07 59.5693 248.07C60.2881 248.07 60.8936 247.976 61.3857 247.788C61.8779 247.593 62.249 247.296 62.499 246.898C62.7568 246.491 62.8857 245.976 62.8857 245.351C62.8857 244.515 62.6045 243.874 62.042 243.429C61.4795 242.984 60.6162 242.761 59.4521 242.761C59.0068 242.761 58.542 242.804 58.0576 242.89C57.5811 242.976 57.1826 243.062 56.8623 243.148L55.4209 242.374L56.0654 233.644H65.3584V236.714H59.2412L58.9248 240.077C59.1904 240.023 59.4795 239.968 59.792 239.913C60.1045 239.859 60.542 239.831 61.1045 239.831Z" fill="white"/>
<path d="M602 242H499" stroke="#00475C" stroke-width="2"/>
<rect x="590" y="219" width="47.5531" height="47.5531" rx="23.7766" fill="#00475C"/>
<path d="M607.753 244.499C607.753 243.515 607.823 242.542 607.964 241.581C608.112 240.613 608.366 239.702 608.726 238.851C609.085 237.991 609.589 237.234 610.237 236.577C610.886 235.913 611.71 235.394 612.71 235.019C613.71 234.636 614.921 234.445 616.343 234.445C616.679 234.445 617.069 234.46 617.515 234.491C617.968 234.515 618.343 234.558 618.64 234.62V237.515C618.327 237.445 617.991 237.39 617.632 237.351C617.28 237.304 616.929 237.28 616.577 237.28C615.155 237.28 614.054 237.507 613.272 237.96C612.499 238.413 611.952 239.042 611.632 239.847C611.319 240.644 611.136 241.573 611.081 242.636H611.233C611.452 242.253 611.726 241.913 612.054 241.616C612.39 241.32 612.796 241.085 613.272 240.913C613.749 240.734 614.308 240.644 614.948 240.644C615.948 240.644 616.815 240.859 617.55 241.288C618.284 241.71 618.851 242.323 619.249 243.128C619.647 243.933 619.847 244.913 619.847 246.07C619.847 247.304 619.608 248.366 619.132 249.257C618.655 250.148 617.979 250.831 617.104 251.308C616.237 251.777 615.206 252.011 614.011 252.011C613.136 252.011 612.319 251.863 611.562 251.566C610.804 251.261 610.14 250.8 609.569 250.183C608.999 249.566 608.554 248.788 608.233 247.851C607.913 246.905 607.753 245.788 607.753 244.499ZM613.94 249.116C614.651 249.116 615.229 248.874 615.675 248.39C616.12 247.905 616.343 247.148 616.343 246.116C616.343 245.28 616.147 244.624 615.757 244.148C615.374 243.663 614.792 243.421 614.011 243.421C613.479 243.421 613.011 243.542 612.604 243.784C612.206 244.019 611.897 244.32 611.679 244.687C611.46 245.046 611.351 245.417 611.351 245.8C611.351 246.198 611.405 246.593 611.515 246.984C611.624 247.374 611.788 247.73 612.007 248.05C612.226 248.37 612.495 248.628 612.815 248.823C613.144 249.019 613.519 249.116 613.94 249.116Z" fill="white"/>
<rect x="220" y="224" width="180" height="34" stroke="#1F2331" stroke-width="2"/>
<rect x="410" y="224" width="90" height="34" stroke="#00475C" stroke-width="2"/>
<path d="M243 385L185 385" stroke="#00607A" stroke-width="2"/>
<rect x="161" y="360" width="47.5531" height="47.5531" rx="23.7766" fill="#00607A"/>
<path d="M180.956 392.777H177.335V382.863C177.335 382.589 177.339 382.253 177.347 381.855C177.354 381.448 177.366 381.034 177.382 380.613C177.397 380.183 177.413 379.796 177.429 379.452C177.343 379.554 177.167 379.73 176.901 379.98C176.644 380.222 176.401 380.441 176.175 380.636L174.206 382.218L172.46 380.038L177.979 375.644H180.956V392.777ZM197.62 384.21C197.62 385.593 197.511 386.827 197.292 387.913C197.081 388.999 196.737 389.921 196.261 390.679C195.792 391.437 195.175 392.015 194.409 392.413C193.644 392.812 192.714 393.011 191.62 393.011C190.245 393.011 189.116 392.663 188.233 391.968C187.351 391.265 186.698 390.257 186.276 388.945C185.854 387.624 185.644 386.046 185.644 384.21C185.644 382.359 185.835 380.777 186.218 379.464C186.608 378.144 187.241 377.132 188.116 376.429C188.991 375.726 190.159 375.374 191.62 375.374C192.987 375.374 194.112 375.726 194.995 376.429C195.886 377.124 196.546 378.132 196.976 379.452C197.405 380.765 197.62 382.351 197.62 384.21ZM189.241 384.21C189.241 385.515 189.312 386.605 189.452 387.48C189.601 388.347 189.847 388.999 190.19 389.437C190.534 389.874 191.011 390.093 191.62 390.093C192.222 390.093 192.694 389.878 193.038 389.448C193.39 389.011 193.64 388.359 193.788 387.491C193.937 386.616 194.011 385.523 194.011 384.21C194.011 382.905 193.937 381.816 193.788 380.941C193.64 380.066 193.39 379.409 193.038 378.972C192.694 378.527 192.222 378.304 191.62 378.304C191.011 378.304 190.534 378.527 190.19 378.972C189.847 379.409 189.601 380.066 189.452 380.941C189.312 381.816 189.241 382.905 189.241 384.21Z" fill="white"/>
</svg>
